7
WA;R;G;B
NT;R;G;B
SA;R;G;B
Q;R;G;B
NSW;R;G;B
V;R;G;B
T;R;G;B
21
ext
WA;NT
6
R;G
R;B
G;R
G;B
B;R
B;G
ext
WA;SA
6
R;G
R;B
G;R
G;B
B;R
B;G
ext
WA;Q
9
R;R
R;G
R;B
G;R
G;G
G;B
B;R
B;G
B;B
ext 
WA;NSW
9
R;R
R;G
R;B
G;R
G;G
G;B
B;R
B;G
B;B
ext
WA;V
9
R;R
R;G
R;B
G;R
G;G
G;B
B;R
B;G
B;B
ext
NT;SA
6
R;G
R;B
G;R
G;B
B;R
B;G
ext
NT;Q
6
R;G
R;B
G;R
G;B
B;R
B;G
ext
NT;NSW
9
R;R
R;G
R;B
G;R
G;G
G;B
B;R
B;G
B;B
ext
NT;V
9
R;R
R;G
R;B
G;R
G;G
G;B
B;R
B;G
B;B
ext
SA;Q
6
R;G
R;B
G;R
G;B
B;R
B;G
ext
SA;NSW
6
R;G
R;B
G;R
G;B
B;R
B;G
ext
SA;V
6
R;G
R;B
G;R
G;B
B;R
B;G
ext
Q;NSW
6
R;G
R;B
G;R
G;B
B;R
B;G
ext
Q;V
9
R;R
R;G
R;B
G;R
G;G
G;B
B;R
B;G
B;B
ext
NSW;V
6
R;G
R;B
G;R
G;B
B;R
B;G
ext 
T;WA
9
R;R
R;G
R;B
G;R
G;G
G;B
B;R
B;G
B;B
ext
T;NT
9
R;R
R;G
R;B
G;R
G;G
G;B
B;R
B;G
B;B
ext
T;Q
9
R;R
R;G
R;B
G;R
G;G
G;B
B;R
B;G
B;B
ext
T;NSW
9
R;R
R;G
R;B
G;R
G;G
G;B
B;R
B;G
B;B
ext
T;V
9
R;R
R;G
R;B
G;R
G;G
G;B
B;R
B;G
B;B
ext
T;SA
9
R;R
R;G
R;B
G;R
G;G
G;B
B;R
B;G
B;B
