
------------------log(i)------------------
2.252.07365e-3172500         2.07365e-31712.5         2.07365e-3171            2.07365e-3172560         2.07365e-317295245       2.07365e-317
2.25         2.07365e-3174026.25      2.07365e-31715           2.07365e-3171            2.07365e-3175120         2.07365e-317885735       2.07365e-317
2.5          2.07365e-3176220.75      2.07365e-31718           2.07365e-3171            2.07365e-31710240        2.07365e-3172.6572e+06   2.07365e-317
2            2.07365e-3177425.8       2.07365e-31716.8         2.07365e-3171            2.07365e-31716384        2.07365e-3176.37729e+06  2.07365e-317
2.2          2.07365e-31710756.4      2.07365e-31719.6         2.07365e-3171            2.07365e-31732768        2.07365e-3171.91319e+07  2.07365e-317
2.2          2.07365e-31715187.4      2.07365e-31722.4         2.07365e-3171            2.07365e-31765536        2.07365e-3175.73956e+07  2.07365e-317
2.4          2.07365e-31720971.4      2.07365e-31725.6         2.07365e-3171            2.07365e-317131072       2.07365e-3171.72187e+08  2.07365e-317
2.4          2.07365e-31728397        2.07365e-31728.8         2.07365e-3171            2.07365e-317262144       2.07365e-317-3.42433e+08 2.07365e-317
2.4          2.07365e-31737791.2      2.07365e-31732.4         2.07365e-3171            2.07365e-317524288       2.07365e-317-1.68305e+08 2.07365e-317
2.6          2.07365e-31749521.8      2.07365e-31736           2.07365e-3171            2.07365e-3171.04858e+06  2.07365e-3173.54079e+08  2.07365e-317
2.6          2.07365e-31764000        2.07365e-31740           2.07365e-3171            2.07365e-3172.09715e+06  2.07365e-3172.03242e+08  2.07365e-317
2.16667      2.07365e-31768068.3      2.07365e-31736.6667      2.07365e-3171            2.07365e-3173.49525e+06  2.07365e-317-2.07722e+08 2.07365e-317
2.33333      2.07365e-31785893.8      2.07365e-31740.3333      2.07365e-3171            2.07365e-3176.99051e+06  2.07365e-3179.26612e+07  2.07365e-317
2.33333      2.07365e-317107272       2.07365e-31744           2.07365e-3171            2.07365e-3171.3981e+07   2.07365e-3172.77983e+08  2.07365e-317
2.33333      2.07365e-317132710       2.07365e-31748           2.07365e-3171            2.07365e-3172.7962e+07   2.07365e-3171.18123e+08  2.07365e-317
2.5          2.07365e-317162760       2.07365e-31752           2.07365e-3171            2.07365e-3175.59241e+07  2.07365e-3173.54368e+08  2.07365e-317
2.5          2.07365e-317198023       2.07365e-31756.3333      2.07365e-3171            2.07365e-3171.11848e+08  2.07365e-3173.47275e+08  2.07365e-317
2.5          2.07365e-317239148       2.07365e-31760.6667      2.07365e-3171            2.07365e-3172.23696e+08  2.07365e-3173.25998e+08  2.07365e-317
2.5          2.07365e-317286839       2.07365e-31765.3333      2.07365e-3171            2.07365e-317-2.68435e+08 2.07365e-3172.62165e+08  2.07365e-317
2.66667      2.07365e-317341852       2.07365e-31770           2.07365e-3171            2.07365e-3171.78957e+08  2.07365e-3177.06676e+07  2.07365e-317
2.66667      2.07365e-317405000       2.07365e-31775           2.07365e-3171            2.07365e-317-3.57914e+08 2.07365e-3172.12003e+08  2.07365e-317
2.66667      2.07365e-317477152       2.07365e-31780           2.07365e-3171            2.07365e-3170            2.07365e-317-7.98196e+07 2.07365e-317
2.66667      2.07365e-317559240       2.07365e-31785.3333      2.07365e-3171            2.07365e-3170            2.07365e-317-2.39459e+08 2.07365e-317
2.83333      2.07365e-317652256       2.07365e-31790.6667      2.07365e-3171            2.07365e-3170            2.07365e-317-2.54881e+06 2.07365e-317
2.42857      2.07365e-317649077       2.07365e-31782.5714      2.07365e-3171            2.07365e-3170            2.07365e-317-6.55409e+06 2.07365e-317
2.42857      2.07365e-317750312       2.07365e-31787.4286      2.07365e-3171            2.07365e-3170            2.07365e-317-1.96623e+07 2.07365e-317
2.57143      2.07365e-317863802       2.07365e-31792.5714      2.07365e-3171            2.07365e-3170            2.07365e-317-5.89868e+07 2.07365e-317
2.57143      2.07365e-317990628       2.07365e-31797.7143      2.07365e-3171            2.07365e-3170            2.07365e-317-1.7696e+08  2.07365e-317
2.57143      2.07365e-3171.13193e+06  2.07365e-317103.143      2.07365e-3171            2.07365e-3170            2.07365e-3178.26858e+07  2.07365e-317
2.57143      2.07365e-3171.28892e+06  2.07365e-317108.571      2.07365e-3171            2.07365e-3170            2.07365e-3172.48057e+08  2.07365e-317
2.57143      2.07365e-3171.46286e+06  2.07365e-317114.286      2.07365e-3171            2.07365e-3170            2.07365e-3171.30605e+08  2.07365e-317
2.71429      2.07365e-3171.65509e+06  2.07365e-317120          2.07365e-3171            2.07365e-3170            2.07365e-317-2.21751e+08 2.07365e-317
2.71429      2.07365e-3171.86702e+06  2.07365e-317126          2.07365e-3171            2.07365e-3170            2.07365e-317-5.16872e+07 2.07365e-317
2.71429      2.07365e-3172.10012e+06  2.07365e-317132          2.07365e-3171            2.07365e-3170            2.07365e-317-1.55061e+08 2.07365e-317
2.71429      2.07365e-3172.35595e+06  2.07365e-317138.286      2.07365e-3171            2.07365e-3170            2.07365e-3171.48382e+08  2.07365e-317
2.85714      2.07365e-3172.63612e+06  2.07365e-317144.571      2.07365e-3171            2.07365e-3170            2.07365e-317-1.6842e+08  2.07365e-317
2.85714      2.07365e-3172.94233e+06  2.07365e-317151.143      2.07365e-3171            2.07365e-3170            2.07365e-3171.08307e+08  2.07365e-317
2.85714      2.07365e-3173.27636e+06  2.07365e-317157.714      2.07365e-3171            2.07365e-3170            2.07365e-317-2.88645e+08 2.07365e-317
2.85714      2.07365e-3173.64006e+06  2.07365e-317164.571      2.07365e-3171            2.07365e-3170            2.07365e-317-2.52368e+08 2.07365e-317
3            2.07365e-3174.03536e+06  2.07365e-317171.429      2.07365e-3171            2.07365e-3170            2.07365e-317-1.43537e+08 2.07365e-317
3            2.07365e-3174.46429e+06  2.07365e-317178.571      2.07365e-3171            2.07365e-3170            2.07365e-3171.82956e+08  2.07365e-317
3            2.07365e-3174.92893e+06  2.07365e-317185.714      2.07365e-3171            2.07365e-3170            2.07365e-317-6.46991e+07 2.07365e-317
3            2.07365e-3175.43149e+06  2.07365e-317193.143      2.07365e-3171            2.07365e-3170            2.07365e-317-1.94097e+08 2.07365e-317
3            2.07365e-3175.97422e+06  2.07365e-317200.571      2.07365e-3171            2.07365e-3170            2.07365e-3173.12746e+07  2.07365e-317
3.14286      2.07365e-3176.5595e+06   2.07365e-317208.286      2.07365e-3171            2.07365e-3170            2.07365e-3179.38237e+07  2.07365e-317
2.75         2.07365e-3176.29105e+06  2.07365e-317189          2.07365e-3171            2.07365e-3170            2.07365e-3172.46287e+08  2.07365e-317
2.75         2.07365e-3176.88415e+06  2.07365e-317196          2.07365e-3171            2.07365e-3170            2.07365e-3172.01991e+08  2.07365e-317
2.75         2.07365e-3177.52115e+06  2.07365e-317203          2.07365e-3171            2.07365e-3170            2.07365e-3176.91014e+07  2.07365e-317
2.75         2.07365e-3178.20446e+06  2.07365e-317210.25       2.07365e-3171            2.07365e-3170            2.07365e-3172.07304e+08  2.07365e-317
2.875        2.07365e-3178.93655e+06  2.07365e-317217.5        2.07365e-3171            2.07365e-3170            2.07365e-3178.50417e+07  2.07365e-317
2.875        2.07365e-3179.72e+06     2.07365e-317225          2.07365e-3171            2.07365e-3170            2.07365e-3172.55125e+08  2.07365e-317
2.875        2.07365e-3171.05575e+07  2.07365e-317232.5        2.07365e-3171            2.07365e-3170            2.07365e-3172.28504e+08  2.07365e-317
2.875        2.07365e-3171.14517e+07  2.07365e-317240.25       2.07365e-3171            2.07365e-3170            2.07365e-3171.48642e+08  2.07365e-317
2.875        2.07365e-3171.24055e+07  2.07365e-317248          2.07365e-3171            2.07365e-3170            2.07365e-317-9.09455e+07 2.07365e-317
3            2.07365e-3171.34218e+07  2.07365e-317256          2.07365e-3171            2.07365e-3170            2.07365e-3172.64034e+08  2.07365e-317
3            2.07365e-3171.45036e+07  2.07365e-317264          2.07365e-3171            2.07365e-3170            2.07365e-3172.55232e+08  2.07365e-317
3            2.07365e-3171.56542e+07  2.07365e-317272.25       2.07365e-3171            2.07365e-3170            2.07365e-3172.28826e+08  2.07365e-317
3            2.07365e-3171.68766e+07  2.07365e-317280.5        2.07365e-3171            2.07365e-3170            2.07365e-3171.49608e+08  2.07365e-317
3            2.07365e-3171.81742e+07  2.07365e-317289          2.07365e-3171            2.07365e-3170            2.07365e-317-8.80473e+07 2.07365e-317
3            2.07365e-3171.95504e+07  2.07365e-317297.5        2.07365e-3171            2.07365e-3170            2.07365e-317-2.64142e+08 2.07365e-317
3.125        2.07365e-3172.10088e+07  2.07365e-317306.25       2.07365e-3171            2.07365e-3170            2.07365e-317-2.55555e+08 2.07365e-317
3.125        2.07365e-3172.25529e+07  2.07365e-317315          2.07365e-3171            2.07365e-3170            2.07365e-317-2.29793e+08 2.07365e-317
3.125        2.07365e-3172.41865e+07  2.07365e-317324          2.07365e-3171            2.07365e-3170            2.07365e-317-1.52508e+08 2.07365e-317
3.125        2.07365e-3172.59134e+07  2.07365e-317333          2.07365e-3171            2.07365e-3170            2.07365e-3177.93461e+07  2.07365e-317
3.125        2.07365e-317-2.59495e+07 2.07365e-317342.25       2.07365e-3171            2.07365e-3170            2.07365e-3172.38038e+08  2.07365e-317
3.125        2.07365e-317-2.4024e+07  2.07365e-317351.5        2.07365e-3171            2.07365e-3170            2.07365e-3171.77244e+08  2.07365e-317
3.25         2.07365e-317-2.1993e+07  2.07365e-317361          2.07365e-3171            2.07365e-3170            2.07365e-317-5.13885e+06 2.07365e-317
3.25         2.07365e-317-1.98523e+07 2.07365e-317370.5        2.07365e-3171            2.07365e-3170            2.07365e-317-1.54166e+07 2.07365e-317
3.25         2.07365e-317-1.75974e+07 2.07365e-317380.25       2.07365e-3171            2.07365e-3170            2.07365e-317-4.62497e+07 2.07365e-317
3.25         2.07365e-317-1.52239e+07 2.07365e-317390          2.07365e-3171            2.07365e-3170            2.07365e-317-1.38749e+08 2.07365e-317
3.25         2.07365e-317-1.27271e+07 2.07365e-317400          2.07365e-3171            2.07365e-3170            2.07365e-3171.20624e+08  2.07365e-317
3.375        2.07365e-317-1.01023e+07 2.07365e-317410          2.07365e-3171            2.07365e-3170            2.07365e-317-1.75e+08    2.07365e-317
3.375        2.07365e-317-7.34461e+06 2.07365e-317420.25       2.07365e-3171            2.07365e-3170            2.07365e-3171.18722e+07  2.07365e-317
3.375        2.07365e-317-4.44908e+06 2.07365e-317430.5        2.07365e-3171            2.07365e-3170            2.07365e-3173.56165e+07  2.07365e-317
3.375        2.07365e-317-1.4106e+06  2.07365e-317441          2.07365e-3171            2.07365e-3170            2.07365e-3171.0685e+08   2.07365e-317
3.375        2.07365e-3171.77607e+06  2.07365e-317451.5        2.07365e-3171            2.07365e-3170            2.07365e-317-2.16322e+08 2.07365e-317
3.375        2.07365e-3175.11629e+06  2.07365e-317462.25       2.07365e-3171            2.07365e-3170            2.07365e-317-1.12095e+08 2.07365e-317
3.375        2.07365e-3178.61552e+06  2.07365e-317473          2.07365e-3171            2.07365e-3170            2.07365e-3172.00586e+08  2.07365e-317
3.5          2.07365e-3171.22794e+07  2.07365e-317484          2.07365e-3171            2.07365e-3170            2.07365e-3176.48865e+07  2.07365e-317
3.5          2.07365e-3171.61137e+07  2.07365e-317495          2.07365e-3171            2.07365e-3170            2.07365e-3171.94659e+08  2.07365e-317
3.5          2.07365e-3172.01242e+07  2.07365e-317506.25       2.07365e-3171            2.07365e-3170            2.07365e-3174.71071e+07  2.07365e-317
3.11111      2.07365e-3172.1615e+07   2.07365e-317460          2.07365e-3171            2.07365e-3170            2.07365e-3171.25619e+08  2.07365e-317
3.11111      2.07365e-317-2.22124e+07 2.07365e-317470.222      2.07365e-3171            2.07365e-3170            2.07365e-317-1.00361e+08 2.07365e-317
3.11111      2.07365e-317-1.8145e+07  2.07365e-317480.444      2.07365e-3171            2.07365e-3170            2.07365e-3171.76134e+08  2.07365e-317
3.22222      2.07365e-317-1.38988e+07 2.07365e-317490.889      2.07365e-3171            2.07365e-3170            2.07365e-3175.11841e+07  2.07365e-317
3.22222      2.07365e-317-9.46806e+06 2.07365e-317501.333      2.07365e-3171            2.07365e-3170            2.07365e-3171.53552e+08  2.07365e-317
3.22222      2.07365e-317-4.84675e+06 2.07365e-317512          2.07365e-3171            2.07365e-3170            2.07365e-317-1.65613e+07 2.07365e-317
3.22222      2.07365e-317-28825.9     2.07365e-317522.667      2.07365e-3171            2.07365e-3170            2.07365e-317-4.9684e+07  2.07365e-317
3.22222      2.07365e-3174.99193e+06  2.07365e-317533.556      2.07365e-3171            2.07365e-3170            2.07365e-317-1.49052e+08 2.07365e-317
3.22222      2.07365e-3171.02218e+07  2.07365e-317544.444      2.07365e-3171            2.07365e-3170            2.07365e-3173.00629e+07  2.07365e-317

------------------sqrt(i)------------------
32.07365e-3173333.33      2.07365e-31716.6667      2.07365e-3171.33333      2.07365e-3173413.33      2.07365e-317393660       2.07365e-317
3            2.07365e-3175368.33      2.07365e-31720           2.07365e-3171.33333      2.07365e-3176826.67      2.07365e-3171.18098e+06  2.07365e-317
3.33333      2.07365e-3178294.33      2.07365e-31724           2.07365e-3171.33333      2.07365e-31713653.3      2.07365e-3173.54294e+06  2.07365e-317
3.33333      2.07365e-31712376.3      2.07365e-31728           2.07365e-3171.66667      2.07365e-31727306.7      2.07365e-3171.06288e+07  2.07365e-317
3.66667      2.07365e-31717927.3      2.07365e-31732.6667      2.07365e-3171.66667      2.07365e-31754613.3      2.07365e-3173.18865e+07  2.07365e-317
3.66667      2.07365e-31725312.3      2.07365e-31737.3333      2.07365e-3171.66667      2.07365e-317109227       2.07365e-3179.56594e+07  2.07365e-317
3            2.07365e-31726214.2      2.07365e-31732           2.07365e-3171.25         2.07365e-317163840       2.07365e-3172.15234e+08  2.07365e-317
3            2.07365e-31735496.2      2.07365e-31736           2.07365e-3171.25         2.07365e-317327680       2.07365e-317-4.28041e+08 2.07365e-317
3            2.07365e-31747239        2.07365e-31740.5         2.07365e-3171.25         2.07365e-317655360       2.07365e-317-2.10381e+08 2.07365e-317
3.25         2.07365e-31761902.2      2.07365e-31745           2.07365e-3171.25         2.07365e-3171.31072e+06  2.07365e-3174.42598e+08  2.07365e-317
3.25         2.07365e-31780000        2.07365e-31750           2.07365e-3171.25         2.07365e-3172.62144e+06  2.07365e-3172.54053e+08  2.07365e-317
3.25         2.07365e-317102102       2.07365e-31755           2.07365e-3171.5          2.07365e-3175.24288e+06  2.07365e-317-3.11583e+08 2.07365e-317
3.5          2.07365e-317128841       2.07365e-31760.5         2.07365e-3171.5          2.07365e-3171.04858e+07  2.07365e-3171.38992e+08  2.07365e-317
3.5          2.07365e-317160908       2.07365e-31766           2.07365e-3171.5          2.07365e-3172.09715e+07  2.07365e-3174.16975e+08  2.07365e-317
3.5          2.07365e-317199066       2.07365e-31772           2.07365e-3171.5          2.07365e-3174.1943e+07   2.07365e-3171.77184e+08  2.07365e-317
3            2.07365e-317195312       2.07365e-31762.4         2.07365e-3171.2          2.07365e-3176.71089e+07  2.07365e-3174.25241e+08  2.07365e-317
3            2.07365e-317237627       2.07365e-31767.6         2.07365e-3171.2          2.07365e-3171.34218e+08  2.07365e-3174.1673e+08   2.07365e-317
3            2.07365e-317286978       2.07365e-31772.8         2.07365e-3171.2          2.07365e-3172.68435e+08  2.07365e-3173.91197e+08  2.07365e-317
3            2.07365e-317344207       2.07365e-31778.4         2.07365e-3171.2          2.07365e-317-3.22123e+08 2.07365e-3173.14598e+08  2.07365e-317
3.2          2.07365e-317410223       2.07365e-31784           2.07365e-3171.2          2.07365e-3172.14748e+08  2.07365e-3178.48011e+07  2.07365e-317
3.2          2.07365e-317486000       2.07365e-31790           2.07365e-3171.2          2.07365e-317-4.29497e+08 2.07365e-3172.54403e+08  2.07365e-317
3.2          2.07365e-317572583       2.07365e-31796           2.07365e-3171.2          2.07365e-3170            2.07365e-317-9.57836e+07 2.07365e-317
3.2          2.07365e-317671089       2.07365e-317102.4        2.07365e-3171.2          2.07365e-3170            2.07365e-317-2.87351e+08 2.07365e-317
3.4          2.07365e-317782708       2.07365e-317108.8        2.07365e-3171.2          2.07365e-3170            2.07365e-317-3.05857e+06 2.07365e-317
3.4          2.07365e-317908708       2.07365e-317115.6        2.07365e-3171.4          2.07365e-3170            2.07365e-317-9.17572e+06 2.07365e-317
3.4          2.07365e-3171.05044e+06  2.07365e-317122.4        2.07365e-3171.4          2.07365e-3170            2.07365e-317-2.75272e+07 2.07365e-317
3            2.07365e-3171.00777e+06  2.07365e-317108          2.07365e-3171.16667      2.07365e-3170            2.07365e-317-6.88179e+07 2.07365e-317
3            2.07365e-3171.15573e+06  2.07365e-317114          2.07365e-3171.16667      2.07365e-3170            2.07365e-317-2.06454e+08 2.07365e-317
3            2.07365e-3171.32059e+06  2.07365e-317120.333      2.07365e-3171.16667      2.07365e-3170            2.07365e-3179.64667e+07  2.07365e-317
3            2.07365e-3171.50374e+06  2.07365e-317126.667      2.07365e-3171.16667      2.07365e-3170            2.07365e-3172.894e+08    2.07365e-317
3            2.07365e-3171.70667e+06  2.07365e-317133.333      2.07365e-3171.16667      2.07365e-3170            2.07365e-3171.52373e+08  2.07365e-317
3.16667      2.07365e-3171.93094e+06  2.07365e-317140          2.07365e-3171.16667      2.07365e-3170            2.07365e-317-2.5871e+08  2.07365e-317
3.16667      2.07365e-3172.17819e+06  2.07365e-317147          2.07365e-3171.16667      2.07365e-3170            2.07365e-317-6.03017e+07 2.07365e-317
3.16667      2.07365e-3172.45014e+06  2.07365e-317154          2.07365e-3171.16667      2.07365e-3170            2.07365e-317-1.80905e+08 2.07365e-317
3.16667      2.07365e-3172.7486e+06   2.07365e-317161.333      2.07365e-3171.16667      2.07365e-3170            2.07365e-3171.73113e+08  2.07365e-317
3.33333      2.07365e-3173.07547e+06  2.07365e-317168.667      2.07365e-3171.16667      2.07365e-3170            2.07365e-317-1.9649e+08  2.07365e-317
3.33333      2.07365e-3173.43272e+06  2.07365e-317176.333      2.07365e-3171.16667      2.07365e-3170            2.07365e-3171.26359e+08  2.07365e-317
3.33333      2.07365e-3173.82242e+06  2.07365e-317184          2.07365e-3171.16667      2.07365e-3170            2.07365e-317-3.36752e+08 2.07365e-317
3.33333      2.07365e-3174.24673e+06  2.07365e-317192          2.07365e-3171.16667      2.07365e-3170            2.07365e-317-2.94429e+08 2.07365e-317
3            2.07365e-3174.03536e+06  2.07365e-317171.429      2.07365e-3171            2.07365e-3170            2.07365e-317-1.43537e+08 2.07365e-317
3            2.07365e-3174.46429e+06  2.07365e-317178.571      2.07365e-3171            2.07365e-3170            2.07365e-3171.82956e+08  2.07365e-317
3            2.07365e-3174.92893e+06  2.07365e-317185.714      2.07365e-3171            2.07365e-3170            2.07365e-317-6.46991e+07 2.07365e-317
3            2.07365e-3175.43149e+06  2.07365e-317193.143      2.07365e-3171            2.07365e-3170            2.07365e-317-1.94097e+08 2.07365e-317
3            2.07365e-3175.97422e+06  2.07365e-317200.571      2.07365e-3171            2.07365e-3170            2.07365e-3173.12746e+07  2.07365e-317
3.14286      2.07365e-3176.5595e+06   2.07365e-317208.286      2.07365e-3171            2.07365e-3170            2.07365e-3179.38237e+07  2.07365e-317
3.14286      2.07365e-3177.18978e+06  2.07365e-317216          2.07365e-3171.14286      2.07365e-3170            2.07365e-3172.81471e+08  2.07365e-317
3.14286      2.07365e-3177.8676e+06   2.07365e-317224          2.07365e-3171.14286      2.07365e-3170            2.07365e-3172.30847e+08  2.07365e-317
3.14286      2.07365e-3178.5956e+06   2.07365e-317232          2.07365e-3171.14286      2.07365e-3170            2.07365e-3177.8973e+07   2.07365e-317
3.14286      2.07365e-3179.37653e+06  2.07365e-317240.286      2.07365e-3171.14286      2.07365e-3170            2.07365e-3172.36919e+08  2.07365e-317
3.28571      2.07365e-3171.02132e+07  2.07365e-317248.571      2.07365e-3171.14286      2.07365e-3170            2.07365e-3179.71905e+07  2.07365e-317
3.28571      2.07365e-3171.11086e+07  2.07365e-317257.143      2.07365e-3171.14286      2.07365e-3170            2.07365e-3172.91571e+08  2.07365e-317
3.28571      2.07365e-3171.20657e+07  2.07365e-317265.714      2.07365e-3171.14286      2.07365e-3170            2.07365e-3172.61148e+08  2.07365e-317
3.28571      2.07365e-3171.30876e+07  2.07365e-317274.571      2.07365e-3171.14286      2.07365e-3170            2.07365e-3171.69876e+08  2.07365e-317
3.28571      2.07365e-3171.41777e+07  2.07365e-317283.429      2.07365e-3171.14286      2.07365e-3170            2.07365e-317-1.03938e+08 2.07365e-317
3            2.07365e-3171.34218e+07  2.07365e-317256          2.07365e-3171            2.07365e-3170            2.07365e-3172.64034e+08  2.07365e-317
3            2.07365e-3171.45036e+07  2.07365e-317264          2.07365e-3171            2.07365e-3170            2.07365e-3172.55232e+08  2.07365e-317
3            2.07365e-3171.56542e+07  2.07365e-317272.25       2.07365e-3171            2.07365e-3170            2.07365e-3172.28826e+08  2.07365e-317
3            2.07365e-3171.68766e+07  2.07365e-317280.5        2.07365e-3171            2.07365e-3170            2.07365e-3171.49608e+08  2.07365e-317
3            2.07365e-3171.81742e+07  2.07365e-317289          2.07365e-3171            2.07365e-3170            2.07365e-317-8.80473e+07 2.07365e-317
3            2.07365e-3171.95504e+07  2.07365e-317297.5        2.07365e-3171            2.07365e-3170            2.07365e-317-2.64142e+08 2.07365e-317
3.125        2.07365e-3172.10088e+07  2.07365e-317306.25       2.07365e-3171            2.07365e-3170            2.07365e-317-2.55555e+08 2.07365e-317
3.125        2.07365e-3172.25529e+07  2.07365e-317315          2.07365e-3171            2.07365e-3170            2.07365e-317-2.29793e+08 2.07365e-317
3.125        2.07365e-3172.41865e+07  2.07365e-317324          2.07365e-3171            2.07365e-3170            2.07365e-317-1.52508e+08 2.07365e-317
3.125        2.07365e-3172.59134e+07  2.07365e-317333          2.07365e-3171            2.07365e-3170            2.07365e-3177.93461e+07  2.07365e-317
3.125        2.07365e-317-2.59495e+07 2.07365e-317342.25       2.07365e-3171            2.07365e-3170            2.07365e-3172.38038e+08  2.07365e-317
3.125        2.07365e-317-2.4024e+07  2.07365e-317351.5        2.07365e-3171            2.07365e-3170            2.07365e-3171.77244e+08  2.07365e-317
3.25         2.07365e-317-2.1993e+07  2.07365e-317361          2.07365e-3171            2.07365e-3170            2.07365e-317-5.13885e+06 2.07365e-317
3.25         2.07365e-317-1.98523e+07 2.07365e-317370.5        2.07365e-3171            2.07365e-3170            2.07365e-317-1.54166e+07 2.07365e-317
3.25         2.07365e-317-1.75974e+07 2.07365e-317380.25       2.07365e-3171            2.07365e-3170            2.07365e-317-4.62497e+07 2.07365e-317
3.25         2.07365e-317-1.52239e+07 2.07365e-317390          2.07365e-3171            2.07365e-3170            2.07365e-317-1.38749e+08 2.07365e-317
3.25         2.07365e-317-1.27271e+07 2.07365e-317400          2.07365e-3171            2.07365e-3170            2.07365e-3171.20624e+08  2.07365e-317
3            2.07365e-317-8.97981e+06 2.07365e-317364.444      2.07365e-3170.888889     2.07365e-3170            2.07365e-317-1.55555e+08 2.07365e-317
3            2.07365e-317-6.52854e+06 2.07365e-317373.556      2.07365e-3170.888889     2.07365e-3170            2.07365e-3171.05531e+07  2.07365e-317
3            2.07365e-317-3.95474e+06 2.07365e-317382.667      2.07365e-3170.888889     2.07365e-3170            2.07365e-3173.16592e+07  2.07365e-317
3            2.07365e-317-1.25387e+06 2.07365e-317392          2.07365e-3170.888889     2.07365e-3170            2.07365e-3179.49775e+07  2.07365e-317
3            2.07365e-3171.57873e+06  2.07365e-317401.333      2.07365e-3170.888889     2.07365e-3170            2.07365e-317-1.92286e+08 2.07365e-317
3            2.07365e-3174.54781e+06  2.07365e-317410.889      2.07365e-3170.888889     2.07365e-3170            2.07365e-317-9.964e+07   2.07365e-317
3            2.07365e-3177.65824e+06  2.07365e-317420.444      2.07365e-3170.888889     2.07365e-3170            2.07365e-3171.78298e+08  2.07365e-317
3.11111      2.07365e-3171.0915e+07   2.07365e-317430.222      2.07365e-3170.888889     2.07365e-3170            2.07365e-3175.76768e+07  2.07365e-317
3.11111      2.07365e-3171.43232e+07  2.07365e-317440          2.07365e-3170.888889     2.07365e-3170            2.07365e-3171.73031e+08  2.07365e-317
3.11111      2.07365e-3171.78881e+07  2.07365e-317450          2.07365e-3170.888889     2.07365e-3170            2.07365e-3174.1873e+07   2.07365e-317
3.11111      2.07365e-3172.1615e+07   2.07365e-317460          2.07365e-3171            2.07365e-3170            2.07365e-3171.25619e+08  2.07365e-317
3.11111      2.07365e-317-2.22124e+07 2.07365e-317470.222      2.07365e-3171            2.07365e-3170            2.07365e-317-1.00361e+08 2.07365e-317
3.11111      2.07365e-317-1.8145e+07  2.07365e-317480.444      2.07365e-3171            2.07365e-3170            2.07365e-3171.76134e+08  2.07365e-317
3.22222      2.07365e-317-1.38988e+07 2.07365e-317490.889      2.07365e-3171            2.07365e-3170            2.07365e-3175.11841e+07  2.07365e-317
3.22222      2.07365e-317-9.46806e+06 2.07365e-317501.333      2.07365e-3171            2.07365e-3170            2.07365e-3171.53552e+08  2.07365e-317
3.22222      2.07365e-317-4.84675e+06 2.07365e-317512          2.07365e-3171            2.07365e-3170            2.07365e-317-1.65613e+07 2.07365e-317
3.22222      2.07365e-317-28825.9     2.07365e-317522.667      2.07365e-3171            2.07365e-3170            2.07365e-317-4.9684e+07  2.07365e-317
3.22222      2.07365e-3174.99193e+06  2.07365e-317533.556      2.07365e-3171            2.07365e-3170            2.07365e-317-1.49052e+08 2.07365e-317
3.22222      2.07365e-3171.02218e+07  2.07365e-317544.444      2.07365e-3171            2.07365e-3170            2.07365e-3173.00629e+07  2.07365e-317

------------------apuissanceb(i,2)------------------
0.092.07365e-317100          2.07365e-3170.5          2.07365e-3170.04         2.07365e-317102.4        2.07365e-31711809.8      2.07365e-317
0.0743802    2.07365e-317133.099      2.07365e-3170.495868     2.07365e-3170.0330579    2.07365e-317169.256      2.07365e-31729280.5      2.07365e-317
0.0694444    2.07365e-317172.799      2.07365e-3170.5          2.07365e-3170.0277778    2.07365e-317284.444      2.07365e-31773811.2      2.07365e-317
0.0591716    2.07365e-317219.698      2.07365e-3170.497041     2.07365e-3170.0295858    2.07365e-317484.734      2.07365e-317188677       2.07365e-317
0.0561224    2.07365e-317274.398      2.07365e-3170.5          2.07365e-3170.0255102    2.07365e-317835.918      2.07365e-317488058       2.07365e-317
0.0488889    2.07365e-317337.498      2.07365e-3170.497778     2.07365e-3170.0222222    2.07365e-3171456.36      2.07365e-3171.27546e+06  2.07365e-317
0.046875     2.07365e-317409.598      2.07365e-3170.5          2.07365e-3170.0195312    2.07365e-3172560         2.07365e-3173.36303e+06  2.07365e-317
0.0415225    2.07365e-317491.298      2.07365e-3170.49827      2.07365e-3170.017301     2.07365e-3174535.36      2.07365e-317-5.92444e+06 2.07365e-317
0.037037     2.07365e-317583.198      2.07365e-3170.5          2.07365e-3170.0154321    2.07365e-3178090.86      2.07365e-317-2.5973e+06  2.07365e-317
0.0360111    2.07365e-317685.898      2.07365e-3170.498615     2.07365e-3170.0138504    2.07365e-31714523.2      2.07365e-3174.90414e+06  2.07365e-317
0.0325       2.07365e-317800          2.07365e-3170.5          2.07365e-3170.0125       2.07365e-31726214.4      2.07365e-3172.54053e+06  2.07365e-317
0.0294785    2.07365e-317926.1        2.07365e-3170.498866     2.07365e-3170.0136054    2.07365e-31747554.5      2.07365e-317-2.82615e+06 2.07365e-317
0.0289256    2.07365e-3171064.8       2.07365e-3170.5          2.07365e-3170.0123967    2.07365e-31786659.2      2.07365e-3171.14869e+06  2.07365e-317
0.026465     2.07365e-3171216.7       2.07365e-3170.499055     2.07365e-3170.0113422    2.07365e-317158575       2.07365e-3173.15293e+06  2.07365e-317
0.0243056    2.07365e-3171382.4       2.07365e-3170.5          2.07365e-3170.0104167    2.07365e-317291271       2.07365e-3171.23044e+06  2.07365e-317
0.024        2.07365e-3171562.5       2.07365e-3170.4992       2.07365e-3170.0096       2.07365e-317536871       2.07365e-3173.40193e+06  2.07365e-317
0.0221893    2.07365e-3171757.6       2.07365e-3170.5          2.07365e-3170.00887574   2.07365e-317992735       2.07365e-3173.08232e+06  2.07365e-317
0.0205761    2.07365e-3171968.3       2.07365e-3170.499314     2.07365e-3170.00823045   2.07365e-3171.84112e+06  2.07365e-3172.68311e+06  2.07365e-317
0.0191327    2.07365e-3172195.2       2.07365e-3170.5          2.07365e-3170.00765306   2.07365e-317-2.05435e+06 2.07365e-3172.00637e+06  2.07365e-317
0.019025     2.07365e-3172438.9       2.07365e-3170.499405     2.07365e-3170.00713436   2.07365e-3171.27674e+06  2.07365e-317504168       2.07365e-317
0.0177778    2.07365e-3172700         2.07365e-3170.5          2.07365e-3170.00666667   2.07365e-317-2.38609e+06 2.07365e-3171.41335e+06  2.07365e-317
0.0166493    2.07365e-3172979.1       2.07365e-3170.49948      2.07365e-3170.0062435    2.07365e-3170            2.07365e-317-498354      2.07365e-317
0.015625     2.07365e-3173276.8       2.07365e-3170.5          2.07365e-3170.00585938   2.07365e-3170            2.07365e-317-1.40308e+06 2.07365e-317
0.0156107    2.07365e-3173593.7       2.07365e-3170.499541     2.07365e-3170.00550964   2.07365e-3170            2.07365e-317-14043       2.07365e-317
0.0147059    2.07365e-3173930.4       2.07365e-3170.5          2.07365e-3170.00605536   2.07365e-3170            2.07365e-317-39687.4     2.07365e-317
0.0138776    2.07365e-3174287.5       2.07365e-3170.499592     2.07365e-3170.00571429   2.07365e-3170            2.07365e-317-112356      2.07365e-317
0.0138889    2.07365e-3174665.6       2.07365e-3170.5          2.07365e-3170.00540123   2.07365e-3170            2.07365e-317-318601      2.07365e-317
0.0131483    2.07365e-3175065.3       2.07365e-3170.499635     2.07365e-3170.00511322   2.07365e-3170            2.07365e-317-904837      2.07365e-317
0.0124654    2.07365e-3175487.2       2.07365e-3170.5          2.07365e-3170.00484765   2.07365e-3170            2.07365e-317400831       2.07365e-317
0.0118343    2.07365e-3175931.9       2.07365e-3170.499671     2.07365e-3170.00460224   2.07365e-3170            2.07365e-3171.14162e+06  2.07365e-317
0.01125      2.07365e-3176400         2.07365e-3170.5          2.07365e-3170.004375     2.07365e-3170            2.07365e-317571398       2.07365e-317
0.0113028    2.07365e-3176892.1       2.07365e-3170.499703     2.07365e-3170.00416419   2.07365e-3170            2.07365e-317-923414      2.07365e-317
0.010771     2.07365e-3177408.8       2.07365e-3170.5          2.07365e-3170.00396825   2.07365e-3170            2.07365e-317-205108      2.07365e-317
0.0102758    2.07365e-3177950.7       2.07365e-3170.49973      2.07365e-3170.00378583   2.07365e-3170            2.07365e-317-587036      2.07365e-317
0.00981405   2.07365e-3178518.4       2.07365e-3170.5          2.07365e-3170.0036157    2.07365e-3170            2.07365e-317536506       2.07365e-317
0.00987654   2.07365e-3179112.5       2.07365e-3170.499753     2.07365e-3170.00345679   2.07365e-3170            2.07365e-317-582192      2.07365e-317
0.0094518    2.07365e-3179733.6       2.07365e-3170.5          2.07365e-3170.00330813   2.07365e-3170            2.07365e-317358294       2.07365e-317
0.00905387   2.07365e-31710382.3      2.07365e-3170.499774     2.07365e-3170.00316885   2.07365e-3170            2.07365e-317-914674      2.07365e-317
0.00868056   2.07365e-31711059.2      2.07365e-3170.5          2.07365e-3170.00303819   2.07365e-3170            2.07365e-317-766743      2.07365e-317
0.00874636   2.07365e-31711764.9      2.07365e-3170.499792     2.07365e-3170.00291545   2.07365e-3170            2.07365e-317-418475      2.07365e-317
0.0084       2.07365e-31712500        2.07365e-3170.5          2.07365e-3170.0028       2.07365e-3170            2.07365e-317512276       2.07365e-317
0.00807382   2.07365e-31713265.1      2.07365e-3170.499808     2.07365e-3170.00269127   2.07365e-3170            2.07365e-317-174123      2.07365e-317
0.00776627   2.07365e-31714060.8      2.07365e-3170.5          2.07365e-3170.00258876   2.07365e-3170            2.07365e-317-502471      2.07365e-317
0.00747597   2.07365e-31714887.7      2.07365e-3170.499822     2.07365e-3170.00249199   2.07365e-3170            2.07365e-31777935.9      2.07365e-317
0.00754458   2.07365e-31715746.4      2.07365e-3170.5          2.07365e-3170.00240055   2.07365e-3170            2.07365e-317225228       2.07365e-317
0.00727273   2.07365e-31716637.5      2.07365e-3170.499835     2.07365e-3170.00264463   2.07365e-3170            2.07365e-317651338       2.07365e-317
0.00701531   2.07365e-31717561.6      2.07365e-3170.5          2.07365e-3170.00255102   2.07365e-3170            2.07365e-317515283       2.07365e-317
0.00677131   2.07365e-31718519.3      2.07365e-3170.499846     2.07365e-3170.0024623    2.07365e-3170            2.07365e-317170148       2.07365e-317
0.00653983   2.07365e-31719511.2      2.07365e-3170.5          2.07365e-3170.00237812   2.07365e-3170            2.07365e-317492995       2.07365e-317
0.0066073    2.07365e-31720537.9      2.07365e-3170.499856     2.07365e-3170.00229819   2.07365e-3170            2.07365e-317195442       2.07365e-317
0.00638889   2.07365e-31721600        2.07365e-3170.5          2.07365e-3170.00222222   2.07365e-3170            2.07365e-317566945       2.07365e-317
0.00618113   2.07365e-31722698.1      2.07365e-3170.499866     2.07365e-3170.00214996   2.07365e-3170            2.07365e-317491275       2.07365e-317
0.00598335   2.07365e-31723832.8      2.07365e-3170.5          2.07365e-3170.00208117   2.07365e-3170            2.07365e-317309348       2.07365e-317
0.00579491   2.07365e-31725004.7      2.07365e-3170.499874     2.07365e-3170.00201562   2.07365e-3170            2.07365e-317-183312      2.07365e-317
0.00585938   2.07365e-31726214.4      2.07365e-3170.5          2.07365e-3170.00195312   2.07365e-3170            2.07365e-317515692       2.07365e-317
0.00568047   2.07365e-31727462.5      2.07365e-3170.499882     2.07365e-3170.00189349   2.07365e-3170            2.07365e-317483280       2.07365e-317
0.00550964   2.07365e-31728749.6      2.07365e-3170.5          2.07365e-3170.00183655   2.07365e-3170            2.07365e-317420250       2.07365e-317
0.0053464    2.07365e-31730076.3      2.07365e-3170.499889     2.07365e-3170.00178213   2.07365e-3170            2.07365e-317266621       2.07365e-317
0.00519031   2.07365e-31731443.2      2.07365e-3170.5          2.07365e-3170.0017301    2.07365e-3170            2.07365e-317-152331      2.07365e-317
0.00504096   2.07365e-31732850.9      2.07365e-3170.499895     2.07365e-3170.00168032   2.07365e-3170            2.07365e-317-443843      2.07365e-317
0.00510204   2.07365e-31734300        2.07365e-3170.5          2.07365e-3170.00163265   2.07365e-3170            2.07365e-317-417232      2.07365e-317
0.00495933   2.07365e-31735791.1      2.07365e-3170.499901     2.07365e-3170.00158699   2.07365e-3170            2.07365e-317-364679      2.07365e-317
0.00482253   2.07365e-31737324.8      2.07365e-3170.5          2.07365e-3170.00154321   2.07365e-3170            2.07365e-317-235352      2.07365e-317
0.00469131   2.07365e-31738901.7      2.07365e-3170.499906     2.07365e-3170.00150122   2.07365e-3170            2.07365e-317119116       2.07365e-317
0.00456538   2.07365e-317-37910.2     2.07365e-3170.5          2.07365e-3170.00146092   2.07365e-3170            2.07365e-317347755       2.07365e-317
0.00444444   2.07365e-317-34167.5     2.07365e-3170.499911     2.07365e-3170.00142222   2.07365e-3170            2.07365e-317252080       2.07365e-317
0.00450139   2.07365e-317-30461.3     2.07365e-3170.5          2.07365e-3170.00138504   2.07365e-3170            2.07365e-317-7117.53     2.07365e-317
0.00438523   2.07365e-317-26786.7     2.07365e-3170.499916     2.07365e-3170.0013493    2.07365e-3170            2.07365e-317-20801.6     2.07365e-317
0.0042735    2.07365e-317-23139.3     2.07365e-3170.5          2.07365e-3170.00131492   2.07365e-3170            2.07365e-317-60814.8     2.07365e-317
0.004166     2.07365e-317-19514.7     2.07365e-3170.49992      2.07365e-3170.00128185   2.07365e-3170            2.07365e-317-177855      2.07365e-317
0.0040625    2.07365e-317-15908.9     2.07365e-3170.5          2.07365e-3170.00125      2.07365e-3170            2.07365e-317150780       2.07365e-317
0.00411523   2.07365e-317-12318       2.07365e-3170.499924     2.07365e-3170.00121933   2.07365e-3170            2.07365e-317-213382      2.07365e-317
0.00401547   2.07365e-317-8738.38     2.07365e-3170.5          2.07365e-3170.00118977   2.07365e-3170            2.07365e-31714125.1      2.07365e-317
0.00391929   2.07365e-317-5166.59     2.07365e-3170.499927     2.07365e-3170.00116127   2.07365e-3170            2.07365e-31741360.5      2.07365e-317
0.00382653   2.07365e-317-1599.32     2.07365e-3170.5          2.07365e-3170.00113379   2.07365e-3170            2.07365e-317121145       2.07365e-317
0.00373702   2.07365e-3171966.59      2.07365e-3170.499931     2.07365e-3170.00110727   2.07365e-3170            2.07365e-317-239526      2.07365e-317
0.00365062   2.07365e-3175534.11      2.07365e-3170.5          2.07365e-3170.00108167   2.07365e-3170            2.07365e-317-121249      2.07365e-317
0.00356718   2.07365e-3179106.12      2.07365e-3170.499934     2.07365e-3170.00105694   2.07365e-3170            2.07365e-317212008       2.07365e-317
0.0036157    2.07365e-31712685.3      2.07365e-3170.5          2.07365e-3170.00103306   2.07365e-3170            2.07365e-31767031.5      2.07365e-317
0.00353491   2.07365e-31716274.4      2.07365e-3170.499937     2.07365e-3170.00100997   2.07365e-3170            2.07365e-317196601       2.07365e-317
0.00345679   2.07365e-31719875.7      2.07365e-3170.5          2.07365e-3170.000987654  2.07365e-3170            2.07365e-31746525.6      2.07365e-317
0.00338123   2.07365e-31723491.8      2.07365e-3170.49994      2.07365e-3170.00108683   2.07365e-3170            2.07365e-317136526       2.07365e-317
0.00330813   2.07365e-317-23619.1     2.07365e-3170.5          2.07365e-3170.00106333   2.07365e-3170            2.07365e-317-106717      2.07365e-317
0.00323737   2.07365e-317-18881.4     2.07365e-3170.499942     2.07365e-3170.00104058   2.07365e-3170            2.07365e-317183282       2.07365e-317
0.00328203   2.07365e-317-14156.8     2.07365e-3170.5          2.07365e-3170.00101856   2.07365e-3170            2.07365e-31752134.1      2.07365e-317
0.0032133    2.07365e-317-9441.83     2.07365e-3170.499945     2.07365e-3170.00099723   2.07365e-3170            2.07365e-317153127       2.07365e-317
0.0031467    2.07365e-317-4733.16     2.07365e-3170.5          2.07365e-3170.000976562  2.07365e-3170            2.07365e-317-16173.2     2.07365e-317
0.00308216   2.07365e-317-27.5729     2.07365e-3170.499947     2.07365e-3170.000956531  2.07365e-3170            2.07365e-317-47524.2     2.07365e-317
0.00301958   2.07365e-3174677.98      2.07365e-3170.5          2.07365e-3170.00093711   2.07365e-3170            2.07365e-317-139678      2.07365e-317
0.00295888   2.07365e-3179386.45      2.07365e-3170.499949     2.07365e-3170.000918274  2.07365e-3170            2.07365e-31727606        2.07365e-317

------------------apuissanceb(i,5)------------------
9e-052.07365e-3170.1          2.07365e-3170.0005       2.07365e-3174e-05        2.07365e-3170.1024       2.07365e-31711.8098      2.07365e-317
5.58829e-05  2.07365e-3170.0999994    2.07365e-3170.000372553  2.07365e-3172.48369e-05  2.07365e-3170.127165     2.07365e-31721.9989      2.07365e-317
4.01878e-05  2.07365e-3170.0999992    2.07365e-3170.000289352  2.07365e-3171.60751e-05  2.07365e-3170.164609     2.07365e-31742.7148      2.07365e-317
2.69329e-05  2.07365e-3170.0999992    2.07365e-3170.000226236  2.07365e-3171.34665e-05  2.07365e-3170.220634     2.07365e-31785.8795      2.07365e-317
2.04528e-05  2.07365e-3170.0999993    2.07365e-3170.000182216  2.07365e-3179.29672e-06  2.07365e-3170.304635     2.07365e-317177.864      2.07365e-317
1.44856e-05  2.07365e-3170.0999993    2.07365e-3170.00014749   2.07365e-3176.58436e-06  2.07365e-3170.431513     2.07365e-317377.914      2.07365e-317
1.14441e-05  2.07365e-3170.0999994    2.07365e-3170.00012207   2.07365e-3174.76837e-06  2.07365e-3170.625        2.07365e-317821.051      2.07365e-317
8.45156e-06  2.07365e-3170.0999995    2.07365e-3170.000101419  2.07365e-3173.52148e-06  2.07365e-3170.923135     2.07365e-317-1205.87     2.07365e-317
6.35066e-06  2.07365e-3170.0999996    2.07365e-3178.57339e-05  2.07365e-3172.64611e-06  2.07365e-3171.38732      2.07365e-317-445.353     2.07365e-317
5.25019e-06  2.07365e-3170.0999996    2.07365e-3177.2695e-05   2.07365e-3172.01931e-06  2.07365e-3172.1174       2.07365e-317714.993      2.07365e-317
4.0625e-06   2.07365e-3170.1          2.07365e-3176.25e-05     2.07365e-3171.5625e-06   2.07365e-3173.2768       2.07365e-317317.566      2.07365e-317
3.18308e-06  2.07365e-3170.1          2.07365e-3175.38674e-05  2.07365e-3171.46911e-06  2.07365e-3175.13492      2.07365e-317-305.167     2.07365e-317
2.71653e-06  2.07365e-3170.1          2.07365e-3174.69572e-05  2.07365e-3171.16423e-06  2.07365e-3178.13854      2.07365e-317107.879      2.07365e-317
2.17515e-06  2.07365e-3170.1          2.07365e-3174.10171e-05  2.07365e-3179.32206e-07  2.07365e-31713.0332      2.07365e-317259.138      2.07365e-317
1.75821e-06  2.07365e-3170.0999999    2.07365e-3173.6169e-05   2.07365e-3177.5352e-07   2.07365e-31721.07        2.07365e-31789.0078      2.07365e-317
1.536e-06    2.07365e-3170.0999999    2.07365e-3173.19488e-05  2.07365e-3176.144e-07    2.07365e-31734.3597      2.07365e-317217.724      2.07365e-317
1.26248e-06  2.07365e-3170.0999999    2.07365e-3172.84479e-05  2.07365e-3175.04992e-07  2.07365e-31756.4824      2.07365e-317175.371      2.07365e-317
1.04538e-06  2.07365e-3170.1          2.07365e-3172.53678e-05  2.07365e-3174.1815e-07   2.07365e-31793.5386      2.07365e-317136.316      2.07365e-317
8.71568e-07  2.07365e-3170.1          2.07365e-3172.2777e-05   2.07365e-3173.48627e-07  2.07365e-317-93.5839     2.07365e-31791.3979      2.07365e-317
7.80064e-07  2.07365e-3170.1          2.07365e-3172.04767e-05  2.07365e-3172.92524e-07  2.07365e-31752.3492      2.07365e-31720.672       2.07365e-317
6.58436e-07  2.07365e-3170.1          2.07365e-3171.85185e-05  2.07365e-3172.46914e-07  2.07365e-317-88.3738     2.07365e-31752.3464      2.07365e-317
5.58871e-07  2.07365e-3170.1          2.07365e-3171.67661e-05  2.07365e-3172.09577e-07  2.07365e-3170            2.07365e-317-16.7283     2.07365e-317
4.76837e-07  2.07365e-3170.1          2.07365e-3171.52588e-05  2.07365e-3171.78814e-07  2.07365e-3170            2.07365e-317-42.8186     2.07365e-317
4.34389e-07  2.07365e-3170.1          2.07365e-3171.39005e-05  2.07365e-3171.53314e-07  2.07365e-3170            2.07365e-317-0.390768    2.07365e-317
3.74157e-07  2.07365e-3170.1          2.07365e-3171.27214e-05  2.07365e-3171.54065e-07  2.07365e-3170            2.07365e-317-1.00975     2.07365e-317
3.23675e-07  2.07365e-3170.1          2.07365e-3171.16523e-05  2.07365e-3171.33278e-07  2.07365e-3170            2.07365e-317-2.62054     2.07365e-317
2.97687e-07  2.07365e-3170.1          2.07365e-3171.07167e-05  2.07365e-3171.15767e-07  2.07365e-3170            2.07365e-317-6.82873     2.07365e-317
2.59576e-07  2.07365e-3170.1          2.07365e-3179.86387e-06  2.07365e-3171.00946e-07  2.07365e-3170            2.07365e-317-17.8634     2.07365e-317
2.27172e-07  2.07365e-3170.1          2.07365e-3179.11212e-06  2.07365e-3178.83446e-08  2.07365e-3170            2.07365e-3177.30484      2.07365e-317
1.99503e-07  2.07365e-3170.1          2.07365e-3178.42346e-06  2.07365e-3177.75845e-08  2.07365e-3170            2.07365e-31719.2454      2.07365e-317
1.75781e-07  2.07365e-3170.1          2.07365e-3177.8125e-06   2.07365e-3176.83594e-08  2.07365e-3170            2.07365e-3178.92809      2.07365e-317
1.63996e-07  2.07365e-3170.1          2.07365e-3177.25037e-06  2.07365e-3176.04197e-08  2.07365e-3170            2.07365e-317-13.3982     2.07365e-317
1.45381e-07  2.07365e-3170.1          2.07365e-3176.74873e-06  2.07365e-3175.35614e-08  2.07365e-3170            2.07365e-317-2.76843     2.07365e-317
1.29244e-07  2.07365e-3170.1          2.07365e-3176.28535e-06  2.07365e-3174.76163e-08  2.07365e-3170            2.07365e-317-7.38346     2.07365e-317
1.1521e-07   2.07365e-3170.1          2.07365e-3175.86965e-06  2.07365e-3174.24458e-08  2.07365e-3170            2.07365e-3176.2982       2.07365e-317
1.08385e-07  2.07365e-3170.1          2.07365e-3175.48426e-06  2.07365e-3173.79346e-08  2.07365e-3170            2.07365e-317-6.38894     2.07365e-317
9.71048e-08  2.07365e-3170.1          2.07365e-3175.13685e-06  2.07365e-3173.39867e-08  2.07365e-3170            2.07365e-3173.68101      2.07365e-317
8.72049e-08  2.07365e-3170.1          2.07365e-3174.81371e-06  2.07365e-3173.05217e-08  2.07365e-3170            2.07365e-317-8.80993     2.07365e-317
7.84917e-08  2.07365e-3170.1          2.07365e-3174.52112e-06  2.07365e-3172.74721e-08  2.07365e-3170            2.07365e-317-6.93308     2.07365e-317
7.43428e-08  2.07365e-3170.1          2.07365e-3174.24816e-06  2.07365e-3172.47809e-08  2.07365e-3170            2.07365e-317-3.55698     2.07365e-317
6.72e-08     2.07365e-3170.1          2.07365e-3174e-06        2.07365e-3172.24e-08     2.07365e-3170            2.07365e-3174.09821      2.07365e-317
6.08651e-08  2.07365e-3170.1          2.07365e-3173.76784e-06  2.07365e-3172.02884e-08  2.07365e-3170            2.07365e-317-1.31264     2.07365e-317
5.52335e-08  2.07365e-3170.1          2.07365e-3173.55599e-06  2.07365e-3171.84112e-08  2.07365e-3170            2.07365e-317-3.57356     2.07365e-317
5.02157e-08  2.07365e-3170.1          2.07365e-3173.35728e-06  2.07365e-3171.67386e-08  2.07365e-3170            2.07365e-3170.523492     2.07365e-317
4.79131e-08  2.07365e-3170.1          2.07365e-3173.17533e-06  2.07365e-3171.52451e-08  2.07365e-3170            2.07365e-3171.43035      2.07365e-317
4.37129e-08  2.07365e-3170.1          2.07365e-3173.00427e-06  2.07365e-3171.58956e-08  2.07365e-3170            2.07365e-3173.91488      2.07365e-317
3.99469e-08  2.07365e-3170.1          2.07365e-3172.84712e-06  2.07365e-3171.45261e-08  2.07365e-3170            2.07365e-3172.93414      2.07365e-317
3.65636e-08  2.07365e-3170.1          2.07365e-3172.69906e-06  2.07365e-3171.32958e-08  2.07365e-3170            2.07365e-3170.918761     2.07365e-317
3.35184e-08  2.07365e-3170.1          2.07365e-3172.56263e-06  2.07365e-3171.21885e-08  2.07365e-3170            2.07365e-3172.52673      2.07365e-317
3.21712e-08  2.07365e-3170.1          2.07365e-3172.43382e-06  2.07365e-3171.119e-08    2.07365e-3170            2.07365e-3170.951616     2.07365e-317
2.95782e-08  2.07365e-3170.1          2.07365e-3172.31481e-06  2.07365e-3171.02881e-08  2.07365e-3170            2.07365e-3172.62474      2.07365e-317
2.72319e-08  2.07365e-3170.1          2.07365e-3172.20224e-06  2.07365e-3179.47198e-09  2.07365e-3170            2.07365e-3172.16439      2.07365e-317
2.51055e-08  2.07365e-3170.1          2.07365e-3172.09795e-06  2.07365e-3178.73236e-09  2.07365e-3170            2.07365e-3171.29799      2.07365e-317
2.31753e-08  2.07365e-3170.1          2.07365e-3171.99912e-06  2.07365e-3178.06097e-09  2.07365e-3170            2.07365e-317-0.733109    2.07365e-317
2.23517e-08  2.07365e-3170.1          2.07365e-3171.90735e-06  2.07365e-3177.45058e-09  2.07365e-3170            2.07365e-3171.96721      2.07365e-317
2.06845e-08  2.07365e-3170.1          2.07365e-3171.82023e-06  2.07365e-3176.89482e-09  2.07365e-3170            2.07365e-3171.75978      2.07365e-317
1.91642e-08  2.07365e-3170.1          2.07365e-3171.73915e-06  2.07365e-3176.38808e-09  2.07365e-3170            2.07365e-3171.46176      2.07365e-317
1.77761e-08  2.07365e-3170.1          2.07365e-3171.66207e-06  2.07365e-3175.92538e-09  2.07365e-3170            2.07365e-3170.886483     2.07365e-317
1.65069e-08  2.07365e-3170.1          2.07365e-3171.59017e-06  2.07365e-3175.50231e-09  2.07365e-3170            2.07365e-317-0.484464    2.07365e-317
1.5345e-08   2.07365e-3170.1          2.07365e-3171.52171e-06  2.07365e-3175.11499e-09  2.07365e-3170            2.07365e-317-1.35108     2.07365e-317
1.48748e-08  2.07365e-3170.1          2.07365e-3171.45773e-06  2.07365e-3174.75992e-09  2.07365e-3170            2.07365e-317-1.21642     2.07365e-317
1.38563e-08  2.07365e-3170.1          2.07365e-3171.39672e-06  2.07365e-3174.43403e-09  2.07365e-3170            2.07365e-317-1.01891     2.07365e-317
1.29204e-08  2.07365e-3170.1          2.07365e-3171.33959e-06  2.07365e-3174.13454e-09  2.07365e-3170            2.07365e-317-0.630552    2.07365e-317
1.20594e-08  2.07365e-3170.1          2.07365e-3171.28505e-06  2.07365e-3173.85901e-09  2.07365e-3170            2.07365e-3170.306197     2.07365e-317
-1.20426e-08 2.07365e-3170.1          2.07365e-317-1.31891e-06 2.07365e-317-3.85364e-09 2.07365e-317-0           2.07365e-317-0.917313    2.07365e-317
-1.30078e-08 2.07365e-3170.1          2.07365e-317-1.46312e-06 2.07365e-317-4.1625e-09  2.07365e-317-0           2.07365e-317-0.737779    2.07365e-317
-1.47774e-08 2.07365e-3170.1          2.07365e-317-1.64143e-06 2.07365e-317-4.5469e-09  2.07365e-317-0           2.07365e-3170.0233658    2.07365e-317
-1.63709e-08 2.07365e-3170.1          2.07365e-317-1.86628e-06 2.07365e-317-5.0372e-09  2.07365e-317-0           2.07365e-3170.0776563    2.07365e-317
-1.84686e-08 2.07365e-3170.1          2.07365e-317-2.16083e-06 2.07365e-317-5.68265e-09 2.07365e-317-0           2.07365e-3170.262821     2.07365e-317
-2.1348e-08  2.07365e-3170.1          2.07365e-317-2.56176e-06 2.07365e-317-6.56863e-09 2.07365e-317-0           2.07365e-3170.91139      2.07365e-317
-2.55361e-08 2.07365e-3170.1          2.07365e-317-3.1429e-06  2.07365e-317-7.85725e-09 2.07365e-317-0           2.07365e-317-0.947772    2.07365e-317
-3.34083e-08 2.07365e-3170.1          2.07365e-317-4.05849e-06 2.07365e-317-9.89875e-09 2.07365e-317-0           2.07365e-3171.73228      2.07365e-317
-4.59521e-08 2.07365e-3170.1          2.07365e-317-5.72188e-06 2.07365e-317-1.36154e-08 2.07365e-317-0           2.07365e-317-0.161645    2.07365e-317
-7.58583e-08 2.07365e-3170.1          2.07365e-317-9.67615e-06 2.07365e-317-2.24765e-08 2.07365e-317-0           2.07365e-317-0.800537    2.07365e-317
-2.3926e-07  2.07365e-3170.1          2.07365e-317-3.12633e-05 2.07365e-317-7.08919e-08 2.07365e-317-0           2.07365e-317-7.57477     2.07365e-317
1.90026e-07  2.07365e-3170.1          2.07365e-3172.54213e-05  2.07365e-3175.6304e-08   2.07365e-3170            2.07365e-317-12.1798     2.07365e-317
6.59658e-08  2.07365e-3170.1          2.07365e-3179.03487e-06  2.07365e-3171.95454e-08  2.07365e-3170            2.07365e-317-2.19095     2.07365e-317
3.91735e-08  2.07365e-3170.1          2.07365e-3175.49009e-06  2.07365e-3171.1607e-08   2.07365e-3170            2.07365e-3172.32819      2.07365e-317
2.8503e-08   2.07365e-3170.1          2.07365e-3173.94156e-06  2.07365e-3178.14372e-09  2.07365e-3170            2.07365e-3170.528417     2.07365e-317
2.17207e-08  2.07365e-3170.1          2.07365e-3173.07193e-06  2.07365e-3176.20592e-09  2.07365e-3170            2.07365e-3171.20804      2.07365e-317
1.7392e-08   2.07365e-3170.1          2.07365e-3172.51563e-06  2.07365e-3174.96915e-09  2.07365e-3170            2.07365e-3170.234083     2.07365e-317
1.43933e-08  2.07365e-3170.1          2.07365e-3172.12815e-06  2.07365e-3174.62641e-09  2.07365e-3170            2.07365e-3170.581165     2.07365e-317
-1.40062e-08 2.07365e-3170.1          2.07365e-317-2.11693e-06 2.07365e-317-4.50198e-09 2.07365e-317-0           2.07365e-3170.451825     2.07365e-317
-1.71458e-08 2.07365e-3170.1          2.07365e-317-2.6478e-06  2.07365e-317-5.51116e-09 2.07365e-317-0           2.07365e-317-0.970703    2.07365e-317
-2.31834e-08 2.07365e-3170.1          2.07365e-317-3.53187e-06 2.07365e-317-7.19485e-09 2.07365e-317-0           2.07365e-317-0.368262    2.07365e-317
-3.40326e-08 2.07365e-3170.1          2.07365e-317-5.295e-06   2.07365e-317-1.05618e-08 2.07365e-317-0           2.07365e-317-1.62179     2.07365e-317
-6.64821e-08 2.07365e-3170.1          2.07365e-317-1.05638e-05 2.07365e-317-2.06324e-08 2.07365e-317-0           2.07365e-3170.341699     2.07365e-317
-1.11782e-05 2.07365e-3170.0999998    2.07365e-317-0.00181318  2.07365e-317-3.4691e-06  2.07365e-317-0           2.07365e-317172.358      2.07365e-317
6.45487e-08  2.07365e-3170.1          2.07365e-3171.06884e-05  2.07365e-3172.00323e-08  2.07365e-3170            2.07365e-317-2.98586     2.07365e-317
3.15229e-08  2.07365e-3170.1          2.07365e-3175.32628e-06  2.07365e-3179.78297e-09  2.07365e-3170            2.07365e-3170.294105     2.07365e-317

------------------apuissanceb(2,i)------------------
0.008789062.07365e-3179.76562      2.07365e-3170.0488281    2.07365e-3170.00390625   2.07365e-31710           2.07365e-3171153.3       2.07365e-317
0.00439453   2.07365e-3177.86377      2.07365e-3170.0292969    2.07365e-3170.00195312   2.07365e-31710           2.07365e-3171729.95      2.07365e-317
0.00244141   2.07365e-3176.07495      2.07365e-3170.0175781    2.07365e-3170.000976562  2.07365e-31710           2.07365e-3172594.93      2.07365e-317
0.0012207    2.07365e-3174.53235      2.07365e-3170.0102539    2.07365e-3170.000610352  2.07365e-31710           2.07365e-3173892.39      2.07365e-317
0.000671387  2.07365e-3173.28259      2.07365e-3170.00598145   2.07365e-3170.000305176  2.07365e-31710           2.07365e-3175838.59      2.07365e-317
0.000335693  2.07365e-3172.31741      2.07365e-3170.00341797   2.07365e-3170.000152588  2.07365e-31710           2.07365e-3178757.88      2.07365e-317
0.000183105  2.07365e-3171.59999      2.07365e-3170.00195312   2.07365e-3177.62939e-05  2.07365e-31710           2.07365e-31713136.8      2.07365e-317
9.15527e-05  2.07365e-3171.08326      2.07365e-3170.00109863   2.07365e-3173.8147e-05   2.07365e-31710           2.07365e-317-13062.8     2.07365e-317
4.57764e-05  2.07365e-3170.72081      2.07365e-3170.000617981  2.07365e-3171.90735e-05  2.07365e-31710           2.07365e-317-3210.16     2.07365e-317
2.47955e-05  2.07365e-3170.472277     2.07365e-3170.000343323  2.07365e-3179.53674e-06  2.07365e-31710           2.07365e-3173376.76      2.07365e-317
1.23978e-05  2.07365e-3170.305176     2.07365e-3170.000190735  2.07365e-3174.76837e-06  2.07365e-31710           2.07365e-317969.135      2.07365e-317
6.19888e-06  2.07365e-3170.194745     2.07365e-3170.000104904  2.07365e-3172.86102e-06  2.07365e-31710           2.07365e-317-594.298     2.07365e-317
3.33786e-06  2.07365e-3170.122872     2.07365e-3175.76973e-05  2.07365e-3171.43051e-06  2.07365e-31710           2.07365e-317132.553      2.07365e-317
1.66893e-06  2.07365e-3170.0767272    2.07365e-3173.14713e-05  2.07365e-3177.15256e-07  2.07365e-31710           2.07365e-317198.829      2.07365e-317
8.34465e-07  2.07365e-3170.0474609    2.07365e-3171.71661e-05  2.07365e-3173.57628e-07  2.07365e-31710           2.07365e-31742.2439      2.07365e-317
4.47035e-07  2.07365e-3170.0291038    2.07365e-3179.29832e-06  2.07365e-3171.78814e-07  2.07365e-31710           2.07365e-31763.3659      2.07365e-317
2.23517e-07  2.07365e-3170.0177046    2.07365e-3175.03659e-06  2.07365e-3178.9407e-08   2.07365e-31710           2.07365e-31731.0488      2.07365e-317
1.11759e-07  2.07365e-3170.0106908    2.07365e-3172.71201e-06  2.07365e-3174.47035e-08  2.07365e-31710           2.07365e-31714.5732      2.07365e-317
5.58794e-08  2.07365e-3170.00641136   2.07365e-3171.46031e-06  2.07365e-3172.23517e-08  2.07365e-317-6           2.07365e-3175.85985      2.07365e-317
2.98023e-08  2.07365e-3170.0038205    2.07365e-3177.82311e-07  2.07365e-3171.11759e-08  2.07365e-3172            2.07365e-3170.789772     2.07365e-317
1.49012e-08  2.07365e-3170.00226311   2.07365e-3174.19095e-07  2.07365e-3175.58794e-09  2.07365e-317-2           2.07365e-3171.18466      2.07365e-317
-7.45058e-09 2.07365e-317-0.00133315  2.07365e-317-2.23517e-07 2.07365e-317-2.79397e-09 2.07365e-317-0           2.07365e-3170.223013     2.07365e-317
inf          2.07365e-317inf          2.07365e-317inf          2.07365e-317inf          2.07365e-317-nan         2.07365e-317-inf         2.07365e-317
inf          2.07365e-317inf          2.07365e-317inf          2.07365e-317inf          2.07365e-317-nan         2.07365e-317-inf         2.07365e-317
inf          2.07365e-317inf          2.07365e-317inf          2.07365e-317inf          2.07365e-317-nan         2.07365e-317-inf         2.07365e-317
inf          2.07365e-317inf          2.07365e-317inf          2.07365e-317inf          2.07365e-317-nan         2.07365e-317-inf         2.07365e-317
inf          2.07365e-317inf          2.07365e-317inf          2.07365e-317inf          2.07365e-317-nan         2.07365e-317-inf         2.07365e-317
inf          2.07365e-317inf          2.07365e-317inf          2.07365e-317inf          2.07365e-317-nan         2.07365e-317-inf         2.07365e-317
inf          2.07365e-317inf          2.07365e-317inf          2.07365e-317inf          2.07365e-317-nan         2.07365e-317inf          2.07365e-317
inf          2.07365e-317inf          2.07365e-317inf          2.07365e-317inf          2.07365e-317-nan         2.07365e-317inf          2.07365e-317
inf          2.07365e-317inf          2.07365e-317inf          2.07365e-317inf          2.07365e-317-nan         2.07365e-317inf          2.07365e-317
inf          2.07365e-317inf          2.07365e-317inf          2.07365e-317inf          2.07365e-317-nan         2.07365e-317-inf         2.07365e-317
inf          2.07365e-317inf          2.07365e-317inf          2.07365e-317inf          2.07365e-317-nan         2.07365e-317-inf         2.07365e-317
inf          2.07365e-317inf          2.07365e-317inf          2.07365e-317inf          2.07365e-317-nan         2.07365e-317-inf         2.07365e-317
inf          2.07365e-317inf          2.07365e-317inf          2.07365e-317inf          2.07365e-317-nan         2.07365e-317inf          2.07365e-317
inf          2.07365e-317inf          2.07365e-317inf          2.07365e-317inf          2.07365e-317-nan         2.07365e-317-inf         2.07365e-317
inf          2.07365e-317inf          2.07365e-317inf          2.07365e-317inf          2.07365e-317-nan         2.07365e-317inf          2.07365e-317
inf          2.07365e-317inf          2.07365e-317inf          2.07365e-317inf          2.07365e-317-nan         2.07365e-317-inf         2.07365e-317
inf          2.07365e-317inf          2.07365e-317inf          2.07365e-317inf          2.07365e-317-nan         2.07365e-317-inf         2.07365e-317
inf          2.07365e-317inf          2.07365e-317inf          2.07365e-317inf          2.07365e-317-nan         2.07365e-317-inf         2.07365e-317
inf          2.07365e-317inf          2.07365e-317inf          2.07365e-317inf          2.07365e-317-nan         2.07365e-317inf          2.07365e-317
inf          2.07365e-317inf          2.07365e-317inf          2.07365e-317inf          2.07365e-317-nan         2.07365e-317-inf         2.07365e-317
inf          2.07365e-317inf          2.07365e-317inf          2.07365e-317inf          2.07365e-317-nan         2.07365e-317-inf         2.07365e-317
inf          2.07365e-317inf          2.07365e-317inf          2.07365e-317inf          2.07365e-317-nan         2.07365e-317inf          2.07365e-317
inf          2.07365e-317inf          2.07365e-317inf          2.07365e-317inf          2.07365e-317-nan         2.07365e-317inf          2.07365e-317
inf          2.07365e-317inf          2.07365e-317inf          2.07365e-317inf          2.07365e-317-nan         2.07365e-317inf          2.07365e-317
inf          2.07365e-317inf          2.07365e-317inf          2.07365e-317inf          2.07365e-317-nan         2.07365e-317inf          2.07365e-317
inf          2.07365e-317inf          2.07365e-317inf          2.07365e-317inf          2.07365e-317-nan         2.07365e-317inf          2.07365e-317
inf          2.07365e-317inf          2.07365e-317inf          2.07365e-317inf          2.07365e-317-nan         2.07365e-317inf          2.07365e-317
inf          2.07365e-317inf          2.07365e-317inf          2.07365e-317inf          2.07365e-317-nan         2.07365e-317inf          2.07365e-317
inf          2.07365e-317inf          2.07365e-317inf          2.07365e-317inf          2.07365e-317-nan         2.07365e-317inf          2.07365e-317
inf          2.07365e-317inf          2.07365e-317inf          2.07365e-317inf          2.07365e-317-nan         2.07365e-317inf          2.07365e-317
inf          2.07365e-317inf          2.07365e-317inf          2.07365e-317inf          2.07365e-317-nan         2.07365e-317inf          2.07365e-317
inf          2.07365e-317inf          2.07365e-317inf          2.07365e-317inf          2.07365e-317-nan         2.07365e-317-inf         2.07365e-317
inf          2.07365e-317inf          2.07365e-317inf          2.07365e-317inf          2.07365e-317-nan         2.07365e-317inf          2.07365e-317
inf          2.07365e-317inf          2.07365e-317inf          2.07365e-317inf          2.07365e-317-nan         2.07365e-317inf          2.07365e-317
inf          2.07365e-317inf          2.07365e-317inf          2.07365e-317inf          2.07365e-317-nan         2.07365e-317inf          2.07365e-317
inf          2.07365e-317inf          2.07365e-317inf          2.07365e-317inf          2.07365e-317-nan         2.07365e-317inf          2.07365e-317
inf          2.07365e-317inf          2.07365e-317inf          2.07365e-317inf          2.07365e-317-nan         2.07365e-317-inf         2.07365e-317
inf          2.07365e-317inf          2.07365e-317inf          2.07365e-317inf          2.07365e-317-nan         2.07365e-317-inf         2.07365e-317
inf          2.07365e-317inf          2.07365e-317inf          2.07365e-317inf          2.07365e-317-nan         2.07365e-317-inf         2.07365e-317
inf          2.07365e-317inf          2.07365e-317inf          2.07365e-317inf          2.07365e-317-nan         2.07365e-317-inf         2.07365e-317
inf          2.07365e-317inf          2.07365e-317inf          2.07365e-317inf          2.07365e-317-nan         2.07365e-317-inf         2.07365e-317
inf          2.07365e-317inf          2.07365e-317inf          2.07365e-317inf          2.07365e-317-nan         2.07365e-317inf          2.07365e-317
inf          2.07365e-317-inf         2.07365e-317inf          2.07365e-317inf          2.07365e-317-nan         2.07365e-317inf          2.07365e-317
inf          2.07365e-317-inf         2.07365e-317inf          2.07365e-317inf          2.07365e-317-nan         2.07365e-317inf          2.07365e-317
inf          2.07365e-317-inf         2.07365e-317inf          2.07365e-317inf          2.07365e-317-nan         2.07365e-317-inf         2.07365e-317
inf          2.07365e-317-inf         2.07365e-317inf          2.07365e-317inf          2.07365e-317-nan         2.07365e-317-inf         2.07365e-317
inf          2.07365e-317-inf         2.07365e-317inf          2.07365e-317inf          2.07365e-317-nan         2.07365e-317-inf         2.07365e-317
inf          2.07365e-317-inf         2.07365e-317inf          2.07365e-317inf          2.07365e-317-nan         2.07365e-317-inf         2.07365e-317
inf          2.07365e-317-inf         2.07365e-317inf          2.07365e-317inf          2.07365e-317-nan         2.07365e-317inf          2.07365e-317
inf          2.07365e-317-inf         2.07365e-317inf          2.07365e-317inf          2.07365e-317-nan         2.07365e-317-inf         2.07365e-317
inf          2.07365e-317-inf         2.07365e-317inf          2.07365e-317inf          2.07365e-317-nan         2.07365e-317inf          2.07365e-317
inf          2.07365e-317-inf         2.07365e-317inf          2.07365e-317inf          2.07365e-317-nan         2.07365e-317inf          2.07365e-317
inf          2.07365e-317-inf         2.07365e-317inf          2.07365e-317inf          2.07365e-317-nan         2.07365e-317inf          2.07365e-317
inf          2.07365e-317inf          2.07365e-317inf          2.07365e-317inf          2.07365e-317-nan         2.07365e-317-inf         2.07365e-317
inf          2.07365e-317inf          2.07365e-317inf          2.07365e-317inf          2.07365e-317-nan         2.07365e-317-inf         2.07365e-317
inf          2.07365e-317inf          2.07365e-317inf          2.07365e-317inf          2.07365e-317-nan         2.07365e-317inf          2.07365e-317
inf          2.07365e-317inf          2.07365e-317inf          2.07365e-317inf          2.07365e-317-nan         2.07365e-317inf          2.07365e-317
inf          2.07365e-317inf          2.07365e-317inf          2.07365e-317inf          2.07365e-317-nan         2.07365e-317inf          2.07365e-317
inf          2.07365e-317inf          2.07365e-317inf          2.07365e-317inf          2.07365e-317-nan         2.07365e-317inf          2.07365e-317
inf          2.07365e-317inf          2.07365e-317inf          2.07365e-317inf          2.07365e-317-nan         2.07365e-317inf          2.07365e-317
inf          2.07365e-317-inf         2.07365e-317inf          2.07365e-317inf          2.07365e-317-nan         2.07365e-317-inf         2.07365e-317
inf          2.07365e-317-inf         2.07365e-317inf          2.07365e-317inf          2.07365e-317-nan         2.07365e-317inf          2.07365e-317
inf          2.07365e-317-inf         2.07365e-317inf          2.07365e-317inf          2.07365e-317-nan         2.07365e-317inf          2.07365e-317
inf          2.07365e-317-inf         2.07365e-317inf          2.07365e-317inf          2.07365e-317-nan         2.07365e-317inf          2.07365e-317
inf          2.07365e-317-inf         2.07365e-317inf          2.07365e-317inf          2.07365e-317-nan         2.07365e-317-inf         2.07365e-317
inf          2.07365e-317-inf         2.07365e-317inf          2.07365e-317inf          2.07365e-317-nan         2.07365e-317-inf         2.07365e-317
inf          2.07365e-317inf          2.07365e-317inf          2.07365e-317inf          2.07365e-317-nan         2.07365e-317-inf         2.07365e-317
inf          2.07365e-317inf          2.07365e-317inf          2.07365e-317inf          2.07365e-317-nan         2.07365e-317inf          2.07365e-317

------------------apuissanceb(3,i)------------------
0.0001524162.07365e-3170.169351     2.07365e-3170.000846754  2.07365e-3176.77404e-05  2.07365e-3170.173415     2.07365e-31720           2.07365e-317
5.08053e-05  2.07365e-3170.0909132    2.07365e-3170.000338702  2.07365e-3172.25801e-05  2.07365e-3170.11561      2.07365e-31720           2.07365e-317
1.88168e-05  2.07365e-3170.0468218    2.07365e-3170.000135481  2.07365e-3177.52671e-06  2.07365e-3170.0770735    2.07365e-31720           2.07365e-317
6.27225e-06  2.07365e-3170.0232883    2.07365e-3175.26869e-05  2.07365e-3173.13613e-06  2.07365e-3170.0513823    2.07365e-31720           2.07365e-317
2.29983e-06  2.07365e-3170.0112445    2.07365e-3172.04894e-05  2.07365e-3171.04538e-06  2.07365e-3170.0342549    2.07365e-31720           2.07365e-317
7.66609e-07  2.07365e-3170.00529218   2.07365e-3177.80547e-06  2.07365e-3173.48459e-07  2.07365e-3170.0228366    2.07365e-31720           2.07365e-317
2.78767e-07  2.07365e-3170.00243589   2.07365e-3172.97351e-06  2.07365e-3171.16153e-07  2.07365e-3170.0152244    2.07365e-31720           2.07365e-317
9.29223e-08  2.07365e-3170.00109946   2.07365e-3171.11507e-06  2.07365e-3173.87176e-08  2.07365e-3170.0101496    2.07365e-317-13.2582     2.07365e-317
3.09741e-08  2.07365e-3170.000487728  2.07365e-3174.1815e-07   2.07365e-3171.29059e-08  2.07365e-3170.00676639   2.07365e-317-2.17212     2.07365e-317
1.11851e-08  2.07365e-3170.000213041  2.07365e-3171.5487e-07   2.07365e-3174.30196e-09  2.07365e-3170.00451093   2.07365e-3171.52323      2.07365e-317
-1.60855e-08 2.07365e-317-0.00039595  2.07365e-317-2.47469e-07 2.07365e-317-6.18672e-09 2.07365e-317-0.0129745   2.07365e-317-1.2574      2.07365e-317
6.95032e-09  2.07365e-3170.000218352  2.07365e-3171.17621e-07  2.07365e-3173.20784e-09  2.07365e-3170.0112122    2.07365e-317-0.666339    2.07365e-317
1.0636e-08   2.07365e-3170.000391527  2.07365e-3171.8385e-07   2.07365e-3174.55827e-09  2.07365e-3170.0318646    2.07365e-3170.422375     2.07365e-317
-4.04505e-08 2.07365e-317-0.00185967  2.07365e-317-7.62782e-07 2.07365e-317-1.73359e-08 2.07365e-317-0.242374    2.07365e-317-4.81911     2.07365e-317
-1.34835e-08 2.07365e-317-0.000766886 2.07365e-317-2.77375e-07 2.07365e-317-5.77865e-09 2.07365e-317-0.161583    2.07365e-317-0.682589    2.07365e-317
1.27113e-08  2.07365e-3170.000827558  2.07365e-3172.64395e-07  2.07365e-3175.08452e-09  2.07365e-3170.284347     2.07365e-3171.80179      2.07365e-317
-1.98725e-08 2.07365e-317-0.00157409  2.07365e-317-4.47794e-07 2.07365e-317-7.94901e-09 2.07365e-317-0.889082    2.07365e-317-2.76049     2.07365e-317
7.38722e-09  2.07365e-3170.000706656  2.07365e-3171.79263e-07  2.07365e-3172.95489e-09  2.07365e-3170.660997     2.07365e-3170.963286     2.07365e-317
8.34893e-09  2.07365e-3170.000957921  2.07365e-3172.18185e-07  2.07365e-3173.33957e-09  2.07365e-317-0.89646     2.07365e-3170.87552      2.07365e-317
1.46126e-08  2.07365e-3170.00187326   2.07365e-3173.83582e-07  2.07365e-3175.47974e-09  2.07365e-3170.980638     2.07365e-3170.38724      2.07365e-317
-1.58394e-08 2.07365e-317-0.0024056   2.07365e-317-4.45482e-07 2.07365e-317-5.93976e-09 2.07365e-3172.12592      2.07365e-317-1.25925     2.07365e-317
1.26528e-08  2.07365e-3170.00226399   2.07365e-3173.79583e-07  2.07365e-3174.74479e-09  2.07365e-3170            2.07365e-317-0.378728    2.07365e-317
-3.19148e-08 2.07365e-317-0.00669302  2.07365e-317-1.02127e-06 2.07365e-317-1.19681e-08 2.07365e-317-0           2.07365e-3172.86586      2.07365e-317
-1.13032e-08 2.07365e-317-0.00260208  2.07365e-317-3.61701e-07 2.07365e-317-3.98935e-09 2.07365e-317-0           2.07365e-3170.0101681    2.07365e-317
-7.83257e-08 2.07365e-317-0.0209339   2.07365e-317-2.66308e-06 2.07365e-317-3.22518e-08 2.07365e-317-0           2.07365e-3170.211381     2.07365e-317
-2.61086e-08 2.07365e-317-0.0080663   2.07365e-317-9.39909e-07 2.07365e-317-1.07506e-08 2.07365e-317-0           2.07365e-3170.211381     2.07365e-317
-9.21479e-09 2.07365e-317-0.00309546  2.07365e-317-3.31733e-07 2.07365e-317-3.58353e-09 2.07365e-317-0           2.07365e-3170.211381     2.07365e-317
-1.15003e-08 2.07365e-317-0.00443043  2.07365e-317-4.37012e-07 2.07365e-317-4.47234e-09 2.07365e-317-0           2.07365e-3170.791428     2.07365e-317
-4.49375e-08 2.07365e-317-0.0197813   2.07365e-317-1.80249e-06 2.07365e-317-1.74757e-08 2.07365e-317-0           2.07365e-317-1.44499     2.07365e-317
-1.49792e-08 2.07365e-317-0.00750823  2.07365e-317-6.32453e-07 2.07365e-317-5.82523e-09 2.07365e-317-0           2.07365e-317-1.44499     2.07365e-317
2.60886e-08  2.07365e-3170.0148415    2.07365e-3171.15949e-06  2.07365e-3171.01456e-08  2.07365e-3170            2.07365e-3171.32506      2.07365e-317
9.17932e-09  2.07365e-3170.00559727   2.07365e-3174.05822e-07  2.07365e-3173.38185e-09  2.07365e-3170            2.07365e-317-0.74993     2.07365e-317
9.92351e-09  2.07365e-3170.00682587   2.07365e-3174.6066e-07   2.07365e-3173.65603e-09  2.07365e-3170            2.07365e-317-0.18897     2.07365e-317
1.31128e-08  2.07365e-3170.0101457    2.07365e-3176.37696e-07  2.07365e-3174.83103e-09  2.07365e-3170            2.07365e-317-0.749106    2.07365e-317
3.6585e-07   2.07365e-3170.317551     2.07365e-3171.86391e-05  2.07365e-3171.34787e-07  2.07365e-3170            2.07365e-31720           2.07365e-317
1.28369e-07  2.07365e-3170.118438     2.07365e-3176.49545e-06  2.07365e-3174.4929e-08   2.07365e-3170            2.07365e-317-7.56693     2.07365e-317
4.27895e-08  2.07365e-3170.0440653    2.07365e-3172.26357e-06  2.07365e-3171.49763e-08  2.07365e-3170            2.07365e-3171.62205      2.07365e-317
1.42632e-08  2.07365e-3170.0163559    2.07365e-3177.87327e-07  2.07365e-3174.99211e-09  2.07365e-3170            2.07365e-317-1.44095     2.07365e-317
-2.26427e-07 2.07365e-317-0.288472    2.07365e-317-1.30422e-05 2.07365e-317-7.92494e-08 2.07365e-317-0           2.07365e-31720           2.07365e-317
-7.92494e-08 2.07365e-317-0.1066      2.07365e-317-4.52854e-06 2.07365e-317-2.64165e-08 2.07365e-317-0           2.07365e-3173.79174      2.07365e-317
-2.64165e-08 2.07365e-317-0.0393102   2.07365e-317-1.57241e-06 2.07365e-317-8.80549e-09 2.07365e-317-0           2.07365e-317-1.61102     2.07365e-317
1.09942e-08  2.07365e-3170.0180633    2.07365e-3176.80596e-07  2.07365e-3173.66475e-09  2.07365e-3170            2.07365e-317-0.237106    2.07365e-317
1.4631e-08   2.07365e-3170.0264894    2.07365e-3179.4196e-07   2.07365e-3174.87701e-09  2.07365e-3170            2.07365e-317-0.946616    2.07365e-317
1.91849e-06  2.07365e-3173.8205       2.07365e-3170.000128265  2.07365e-3176.39497e-07  2.07365e-3170            2.07365e-31720           2.07365e-317
6.69949e-07  2.07365e-3171.39826      2.07365e-3174.43994e-05  2.07365e-3172.13166e-07  2.07365e-3170            2.07365e-31720           2.07365e-317
2.23316e-07  2.07365e-3170.510871     2.07365e-3171.53479e-05  2.07365e-3178.1206e-08   2.07365e-3170            2.07365e-31720           2.07365e-317
7.44388e-08  2.07365e-3170.186345     2.07365e-3175.30546e-06  2.07365e-3172.70687e-08  2.07365e-3170            2.07365e-3175.46762      2.07365e-317
2.48129e-08  2.07365e-3170.0678625    2.07365e-3171.83165e-06  2.07365e-3179.02289e-09  2.07365e-3170            2.07365e-3170.623494     2.07365e-317
-1.34551e-08 2.07365e-317-0.0401425   2.07365e-317-1.02871e-06 2.07365e-317-4.89277e-09 2.07365e-317-0           2.07365e-317-1.01429     2.07365e-317
-3.76908e-08 2.07365e-317-0.117157    2.07365e-317-2.85139e-06 2.07365e-317-1.31098e-08 2.07365e-317-0           2.07365e-317-1.11488     2.07365e-317
-1.25636e-08 2.07365e-317-0.0424759   2.07365e-317-9.83238e-07 2.07365e-317-4.36995e-09 2.07365e-317-0           2.07365e-317-1.11488     2.07365e-317
-1.92133e-08 2.07365e-317-0.0705542   2.07365e-317-1.55377e-06 2.07365e-317-6.68288e-09 2.07365e-317-0           2.07365e-317-1.52707     2.07365e-317
3.26843e-08  2.07365e-3170.130188     2.07365e-3172.73127e-06  2.07365e-3171.13685e-08  2.07365e-3170            2.07365e-3171.68983      2.07365e-317
1.08948e-08  2.07365e-3170.0470103    2.07365e-3179.39792e-07  2.07365e-3173.78948e-09  2.07365e-3170            2.07365e-317-0.344636    2.07365e-317
1.17742e-08  2.07365e-3170.052677     2.07365e-3171.00473e-06  2.07365e-3173.92474e-09  2.07365e-3170            2.07365e-3171.03627      2.07365e-317
1.31862e-08  2.07365e-3170.0637494    2.07365e-3171.16039e-06  2.07365e-3174.39541e-09  2.07365e-3170            2.07365e-3171.12185      2.07365e-317
2.0596e-08   2.07365e-3170.107471     2.07365e-3171.86909e-06  2.07365e-3176.86535e-09  2.07365e-3170            2.07365e-3171.57097      2.07365e-317
-3.00319e-08 2.07365e-317-0.168945    2.07365e-317-2.80798e-06 2.07365e-317-1.00106e-08 2.07365e-317-0           2.07365e-317-1.49767     2.07365e-317
1.26481e-08  2.07365e-3170.076623     2.07365e-3171.21843e-06  2.07365e-3174.21604e-09  2.07365e-3170            2.07365e-317-0.371211    2.07365e-317
1.71725e-08  2.07365e-3170.11191      2.07365e-3171.70294e-06  2.07365e-3175.72417e-09  2.07365e-3170            2.07365e-317-1.51199     2.07365e-317
-2.44566e-07 2.07365e-317-1.64417     2.07365e-317-2.39675e-05 2.07365e-317-7.82611e-08 2.07365e-317-0           2.07365e-31720           2.07365e-317
-8.1522e-08  2.07365e-317-0.588338    2.07365e-317-8.21742e-06 2.07365e-317-2.6087e-08  2.07365e-317-0           2.07365e-3175.99462      2.07365e-317
-2.7174e-08  2.07365e-317-0.210318    2.07365e-317-2.8174e-06  2.07365e-317-8.69568e-09 2.07365e-317-0           2.07365e-3171.32616      2.07365e-317
1.62869e-08  2.07365e-3170.135056     2.07365e-3171.73553e-06  2.07365e-3175.2118e-09   2.07365e-3170            2.07365e-3170.413536     2.07365e-317
8.06546e-08  2.07365e-317-0.669743    2.07365e-3178.83329e-06  2.07365e-3172.58095e-08  2.07365e-3170            2.07365e-3176.14364      2.07365e-317
2.68849e-08  2.07365e-317-0.206682    2.07365e-3173.02401e-06  2.07365e-3178.60316e-09  2.07365e-3170            2.07365e-3171.52486      2.07365e-317
-1.72724e-08 2.07365e-3170.116884     2.07365e-317-1.91856e-06 2.07365e-317-5.31458e-09 2.07365e-317-0           2.07365e-3170.0273108    2.07365e-317
-1.17692e-07 2.07365e-3170.718911     2.07365e-317-1.34169e-05 2.07365e-317-3.6213e-08  2.07365e-317-0           2.07365e-3170.55828      2.07365e-317
-3.92308e-08 2.07365e-3170.212419     2.07365e-317-4.59e-06    2.07365e-317-1.2071e-08  2.07365e-317-0           2.07365e-3170.55828      2.07365e-317
-1.30769e-08 2.07365e-3170.0612559    2.07365e-317-1.56923e-06 2.07365e-317-4.02367e-09 2.07365e-317-0           2.07365e-3170.55828      2.07365e-317
-1.55713e-08 2.07365e-3170.0609777    2.07365e-317-1.91647e-06 2.07365e-317-4.79117e-09 2.07365e-317-0           2.07365e-317-0.577929    2.07365e-317
-3.78022e-08 2.07365e-3170.113152     2.07365e-317-4.59226e-06 2.07365e-317-1.12006e-08 2.07365e-317-0           2.07365e-3171.96011      2.07365e-317
-1.26007e-08 2.07365e-3170.0274214    2.07365e-317-1.56902e-06 2.07365e-317-3.73355e-09 2.07365e-317-0           2.07365e-317-0.0443253   2.07365e-317
-1.26568e-08 2.07365e-3170.0166848    2.07365e-317-1.61445e-06 2.07365e-317-3.75017e-09 2.07365e-317-0           2.07365e-317-0.133568    2.07365e-317
-1.28282e-08 2.07365e-3170.0053616    2.07365e-317-1.67621e-06 2.07365e-317-3.80094e-09 2.07365e-317-0           2.07365e-317-0.406129    2.07365e-317
-1.33712e-08 2.07365e-317-0.00703652  2.07365e-317-1.78877e-06 2.07365e-317-3.96184e-09 2.07365e-317-0           2.07365e-3170.857033     2.07365e-317
-1.53163e-08 2.07365e-317-0.0232186   2.07365e-317-2.09777e-06 2.07365e-317-4.53817e-09 2.07365e-317-0           2.07365e-3170.508706     2.07365e-317
-2.71764e-08 2.07365e-317-0.0693746   2.07365e-317-3.80873e-06 2.07365e-317-8.05228e-09 2.07365e-317-0           2.07365e-317-1.61517     2.07365e-317
2.13018e-08  2.07365e-3170.0747351    2.07365e-3172.94573e-06  2.07365e-3176.08622e-09  2.07365e-3170            2.07365e-3170.394913     2.07365e-317
-7.96285e-08 2.07365e-317-0.366602    2.07365e-317-1.12617e-05 2.07365e-317-2.2751e-08  2.07365e-317-0           2.07365e-317-4.42869     2.07365e-317
-2.65428e-08 2.07365e-317-0.152615    2.07365e-317-3.83923e-06 2.07365e-317-7.58366e-09 2.07365e-317-0           2.07365e-317-0.357245    2.07365e-317
2.47728e-08  2.07365e-3170.172114     2.07365e-3173.66284e-06  2.07365e-3177.9627e-09   2.07365e-3170            2.07365e-3171.00027      2.07365e-317
-3.09681e-08 2.07365e-3170.221103     2.07365e-317-4.68061e-06 2.07365e-317-9.95403e-09 2.07365e-317-0           2.07365e-3170.999001     2.07365e-317
1.76935e-08  2.07365e-317-0.103194    2.07365e-3172.73239e-06  2.07365e-3175.68721e-09  2.07365e-3170            2.07365e-3171.00171      2.07365e-317
6.40842e-08  2.07365e-317-0.276423    2.07365e-3179.7629e-06   2.07365e-3171.98882e-08  2.07365e-3170            2.07365e-3171.01796      2.07365e-317
2.13614e-08  2.07365e-317-0.0627675   2.07365e-3173.32354e-06  2.07365e-3176.6294e-09   2.07365e-3170            2.07365e-3171.01796      2.07365e-317
-1.30512e-07 2.07365e-3170.196312     2.07365e-317-2.0738e-05  2.07365e-317-4.05039e-08 2.07365e-317-0           2.07365e-3170.670798     2.07365e-317
-4.35042e-08 2.07365e-3170.000389187  2.07365e-317-7.05668e-06 2.07365e-317-1.35013e-08 2.07365e-317-0           2.07365e-3170.670798     2.07365e-317
-1.45014e-08 2.07365e-317-0.0224658   2.07365e-317-2.40123e-06 2.07365e-317-4.50043e-09 2.07365e-317-0           2.07365e-3170.670798     2.07365e-317
-1.70142e-08 2.07365e-317-0.0539741   2.07365e-317-2.87481e-06 2.07365e-317-5.28027e-09 2.07365e-317-0           2.07365e-317-0.15874     2.07365e-317
