
------------------log(i)------------------
2.52.07365e-317a           122.07365e-317b           22.07365e-317c           12.07365e-317d           402.07365e-317e           2702.07365e-317f           
32.07365e-317a           512.07365e-317b           42.07365e-317c           12.07365e-317d           802.07365e-317e           8102.07365e-317f           
22.07365e-317a           1042.07365e-317b           42.07365e-317c           12.07365e-317d           106.6672.07365e-317e           16202.07365e-317f           
2.333332.07365e-317a           2592.07365e-317b           62.07365e-317c           12.07365e-317d           213.3332.07365e-317e           48602.07365e-317f           
2.333332.07365e-317a           5602.07365e-317b           82.07365e-317c           12.07365e-317d           426.6672.07365e-317e           145802.07365e-317f           
22.07365e-317a           8192.07365e-317b           82.07365e-317c           12.07365e-317d           6402.07365e-317e           328052.07365e-317f           
2.252.07365e-317a           14762.07365e-317b           102.07365e-317c           12.07365e-317d           12802.07365e-317e           984152.07365e-317f           

------------------sqrt(i)------------------
52.07365e-31724           2.07365e-3174            2.07365e-3172            2.07365e-31780           2.07365e-317540          2.07365e-317
3            2.07365e-31751           2.07365e-3174            2.07365e-3171            2.07365e-31780           2.07365e-317810          2.07365e-317
3            2.07365e-317156          2.07365e-3176            2.07365e-3171            2.07365e-317160          2.07365e-3172430         2.07365e-317
3            2.07365e-317388          2.07365e-3179            2.07365e-3171            2.07365e-317320          2.07365e-3177290         2.07365e-317
3            2.07365e-317840          2.07365e-31712           2.07365e-3171            2.07365e-317640          2.07365e-31721870        2.07365e-317
4            2.07365e-3171638         2.07365e-31716           2.07365e-3172            2.07365e-3171280         2.07365e-31765610        2.07365e-317
3            2.07365e-3171968         2.07365e-31713           2.07365e-3171            2.07365e-3171706         2.07365e-317131220       2.07365e-317

------------------apuissanceb(i,2)------------------
0.5555562.07365e-3172.66667      2.07365e-3170.444444     2.07365e-3170.222222     2.07365e-3178.88889      2.07365e-31760           2.07365e-317
0.375        2.07365e-3176.375        2.07365e-3170.5          2.07365e-3170.125        2.07365e-31710           2.07365e-317101.25       2.07365e-317
0.24         2.07365e-31712.48        2.07365e-3170.48         2.07365e-3170.12         2.07365e-31712.8         2.07365e-317194.4        2.07365e-317
0.194444     2.07365e-31721.5833      2.07365e-3170.5          2.07365e-3170.0833333    2.07365e-31717.7778      2.07365e-317405          2.07365e-317
0.142857     2.07365e-31734.2857      2.07365e-3170.489796     2.07365e-3170.0612245    2.07365e-31726.1224      2.07365e-317892.653      2.07365e-317
0.125        2.07365e-31751.1875      2.07365e-3170.5          2.07365e-3170.0625       2.07365e-31740           2.07365e-3172050.31      2.07365e-317
0.111111     2.07365e-31772.8889      2.07365e-3170.493827     2.07365e-3170.0493827    2.07365e-31763.2099      2.07365e-3174860         2.07365e-317

------------------apuissanceb(i,5)------------------
0.02057612.07365e-3170.0987654    2.07365e-3170.0164609    2.07365e-3170.00823045   2.07365e-3170.329218     2.07365e-3172.22222      2.07365e-317
0.00585938   2.07365e-3170.0996094    2.07365e-3170.0078125    2.07365e-3170.00195312   2.07365e-3170.15625      2.07365e-3171.58203      2.07365e-317
0.00192      2.07365e-3170.09984      2.07365e-3170.00384      2.07365e-3170.00096      2.07365e-3170.1024       2.07365e-3171.5552       2.07365e-317
0.000900206  2.07365e-3170.0999228    2.07365e-3170.00231481   2.07365e-3170.000385802  2.07365e-3170.0823045    2.07365e-3171.875        2.07365e-317
0.000416493  2.07365e-3170.0999584    2.07365e-3170.00142798   2.07365e-3170.000178497  2.07365e-3170.0761587    2.07365e-3172.60249      2.07365e-317
0.000244141  2.07365e-3170.0999756    2.07365e-3170.000976562  2.07365e-3170.00012207   2.07365e-3170.078125     2.07365e-3174.00452      2.07365e-317
0.000152416  2.07365e-3170.0999848    2.07365e-3170.000677404  2.07365e-3176.77404e-05  2.07365e-3170.0867076    2.07365e-3176.66667      2.07365e-317

------------------apuissanceb(2,i)------------------
0.6252.07365e-3173            2.07365e-3170.5          2.07365e-3170.25         2.07365e-31710           2.07365e-31767.5         2.07365e-317
0.375        2.07365e-3176.375        2.07365e-3170.5          2.07365e-3170.125        2.07365e-31710           2.07365e-317101.25       2.07365e-317
0.1875       2.07365e-3179.75         2.07365e-3170.375        2.07365e-3170.09375      2.07365e-31710           2.07365e-317151.875      2.07365e-317
0.109375     2.07365e-31712.1406      2.07365e-3170.28125      2.07365e-3170.046875     2.07365e-31710           2.07365e-317227.812      2.07365e-317
0.0546875    2.07365e-31713.125       2.07365e-3170.1875       2.07365e-3170.0234375    2.07365e-31710           2.07365e-317341.719      2.07365e-317
0.03125      2.07365e-31712.7969      2.07365e-3170.125        2.07365e-3170.015625     2.07365e-31710           2.07365e-317512.578      2.07365e-317
0.0175781    2.07365e-31711.5312      2.07365e-3170.078125     2.07365e-3170.0078125    2.07365e-31710           2.07365e-317768.867      2.07365e-317

------------------apuissanceb(3,i)------------------
0.1851852.07365e-3170.888889     2.07365e-3170.148148     2.07365e-3170.0740741    2.07365e-3172.96296      2.07365e-31720           2.07365e-317
0.0740741    2.07365e-3171.25926      2.07365e-3170.0987654    2.07365e-3170.0246914    2.07365e-3171.97531      2.07365e-31720           2.07365e-317
0.0246914    2.07365e-3171.28395      2.07365e-3170.0493827    2.07365e-3170.0123457    2.07365e-3171.31687      2.07365e-31720           2.07365e-317
0.00960219   2.07365e-3171.06584      2.07365e-3170.0246914    2.07365e-3170.00411523   2.07365e-3170.877915     2.07365e-31720           2.07365e-317
0.00320073   2.07365e-3170.768176     2.07365e-3170.0109739    2.07365e-3170.00137174   2.07365e-3170.585277     2.07365e-31720           2.07365e-317
0.00121933   2.07365e-3170.499314     2.07365e-3170.00487731   2.07365e-3170.000609663  2.07365e-3170.390184     2.07365e-31720           2.07365e-317
0.000457247  2.07365e-3170.299954     2.07365e-3170.00203221   2.07365e-3170.000203221  2.07365e-3170.260123     2.07365e-31720           2.07365e-317
