\relax 
\catcode`:\active
\catcode`;\active
\catcode`!\active
\catcode`?\active
\select@language{french}
\@writefile{toc}{\select@language{french}}
\@writefile{lof}{\select@language{french}}
\@writefile{lot}{\select@language{french}}
\@writefile{toc}{\contentsline {section}{\numberline {1}Syst\`{e}me lin\'{e}aire continu}{1}}
\newlabel{eqP}{{1}{1}}
\newlabel{eqZ}{{4}{1}}
\@writefile{toc}{\contentsline {section}{\numberline {2}Correcteur de Zdan}{2}}
\@writefile{toc}{\contentsline {section}{\numberline {3}Correcteur \`{a} r\'{e}ponse plate}{2}}
\@writefile{toc}{\contentsline {section}{\numberline {4}Correcteur RST}{3}}
