%!PS-Adobe-3.0
%%BoundingBox: 0 0 612 792

99 790 3 0 360 arc
0 setgray
fill
stroke

201 332 3 0 360 arc
0 setgray
fill
stroke

110 29 3 0 360 arc
0 setgray
fill
stroke

147 261 3 0 360 arc
0 setgray
fill
stroke

152 703 3 0 360 arc
0 setgray
fill
stroke

399 159 3 0 360 arc
0 setgray
fill
stroke

451 324 3 0 360 arc
0 setgray
fill
stroke

122 725 3 0 360 arc
0 setgray
fill
stroke

534 37 3 0 360 arc
0 setgray
fill
stroke

275 351 3 0 360 arc
0 setgray
fill
stroke

183 62 3 0 360 arc
0 setgray
fill
stroke

183 408 3 0 360 arc
0 setgray
fill
stroke

269 96 3 0 360 arc
0 setgray
fill
stroke

381 177 3 0 360 arc
0 setgray
fill
stroke

82 234 3 0 360 arc
0 setgray
fill
stroke

215 665 3 0 360 arc
0 setgray
fill
stroke

340 560 3 0 360 arc
0 setgray
fill
stroke

206 394 3 0 360 arc
0 setgray
fill
stroke

29 153 3 0 360 arc
0 setgray
fill
stroke

24 686 3 0 360 arc
0 setgray
fill
stroke

152 459 3 0 360 arc
0 setgray
fill
stroke

449 783 3 0 360 arc
0 setgray
fill
stroke

27 84 3 0 360 arc
0 setgray
fill
stroke

69 418 3 0 360 arc
0 setgray
fill
stroke

517 432 3 0 360 arc
0 setgray
fill
stroke

425 105 3 0 360 arc
0 setgray
fill
stroke

223 284 3 0 360 arc
0 setgray
fill
stroke

513 688 3 0 360 arc
0 setgray
fill
stroke

505 66 3 0 360 arc
0 setgray
fill
stroke

433 135 3 0 360 arc
0 setgray
fill
stroke

209 252 3 0 360 arc
0 setgray
fill
stroke

512 133 3 0 360 arc
0 setgray
fill
stroke

324 14 3 0 360 arc
0 setgray
fill
stroke

132 210 3 0 360 arc
0 setgray
fill
stroke

204 192 3 0 360 arc
0 setgray
fill
stroke

408 624 3 0 360 arc
0 setgray
fill
stroke

579 749 3 0 360 arc
0 setgray
fill
stroke

220 443 3 0 360 arc
0 setgray
fill
stroke

561 341 3 0 360 arc
0 setgray
fill
stroke

301 755 3 0 360 arc
0 setgray
fill
stroke

377 438 3 0 360 arc
0 setgray
fill
stroke

300 76 3 0 360 arc
0 setgray
fill
stroke

595 381 3 0 360 arc
0 setgray
fill
stroke

224 704 3 0 360 arc
0 setgray
fill
stroke

356 45 3 0 360 arc
0 setgray
fill
stroke

335 149 3 0 360 arc
0 setgray
fill
stroke

81 647 3 0 360 arc
0 setgray
fill
stroke

246 710 3 0 360 arc
0 setgray
fill
stroke

86 18 3 0 360 arc
0 setgray
fill
stroke

20 630 3 0 360 arc
0 setgray
fill
stroke

406 32 3 0 360 arc
0 setgray
fill
stroke

390 462 3 0 360 arc
0 setgray
fill
stroke

545 86 3 0 360 arc
0 setgray
fill
stroke

113 223 3 0 360 arc
0 setgray
fill
stroke

31 774 3 0 360 arc
0 setgray
fill
stroke

222 209 3 0 360 arc
0 setgray
fill
stroke

400 54 3 0 360 arc
0 setgray
fill
stroke

141 743 3 0 360 arc
0 setgray
fill
stroke

595 258 3 0 360 arc
0 setgray
fill
stroke

131 283 3 0 360 arc
0 setgray
fill
stroke

283 502 3 0 360 arc
0 setgray
fill
stroke

36 401 3 0 360 arc
0 setgray
fill
stroke

574 715 3 0 360 arc
0 setgray
fill
stroke

31 28 3 0 360 arc
0 setgray
fill
stroke

533 247 3 0 360 arc
0 setgray
fill
stroke

566 544 3 0 360 arc
0 setgray
fill
stroke

223 720 3 0 360 arc
0 setgray
fill
stroke

446 460 3 0 360 arc
0 setgray
fill
stroke

87 127 3 0 360 arc
0 setgray
fill
stroke

395 242 3 0 360 arc
0 setgray
fill
stroke

361 669 3 0 360 arc
0 setgray
fill
stroke

271 329 3 0 360 arc
0 setgray
fill
stroke

271 537 3 0 360 arc
0 setgray
fill
stroke

405 759 3 0 360 arc
0 setgray
fill
stroke

523 536 3 0 360 arc
0 setgray
fill
stroke

338 698 3 0 360 arc
0 setgray
fill
stroke

391 483 3 0 360 arc
0 setgray
fill
stroke

559 405 3 0 360 arc
0 setgray
fill
stroke

530 426 3 0 360 arc
0 setgray
fill
stroke

17 739 3 0 360 arc
0 setgray
fill
stroke

257 691 3 0 360 arc
0 setgray
fill
stroke

39 352 3 0 360 arc
0 setgray
fill
stroke

187 305 3 0 360 arc
0 setgray
fill
stroke

253 434 3 0 360 arc
0 setgray
fill
stroke

304 504 3 0 360 arc
0 setgray
fill
stroke

137 141 3 0 360 arc
0 setgray
fill
stroke

398 136 3 0 360 arc
0 setgray
fill
stroke

559 705 3 0 360 arc
0 setgray
fill
stroke

565 352 3 0 360 arc
0 setgray
fill
stroke

184 476 3 0 360 arc
0 setgray
fill
stroke

148 323 3 0 360 arc
0 setgray
fill
stroke

59 735 3 0 360 arc
0 setgray
fill
stroke

158 490 3 0 360 arc
0 setgray
fill
stroke

508 20 3 0 360 arc
0 setgray
fill
stroke

213 381 3 0 360 arc
0 setgray
fill
stroke

399 198 3 0 360 arc
0 setgray
fill
stroke

368 59 3 0 360 arc
0 setgray
fill
stroke

83 500 3 0 360 arc
0 setgray
fill
stroke

56 172 3 0 360 arc
0 setgray
fill
stroke

574 197 3 0 360 arc
0 setgray
fill
stroke

116 619 3 0 360 arc
0 setgray
fill
stroke

158 658 3 0 360 arc
0 setgray
fill
stroke

252 609 3 0 360 arc
0 setgray
fill
stroke

444 437 3 0 360 arc
0 setgray
fill
stroke

329 644 3 0 360 arc
0 setgray
fill
stroke

426 658 3 0 360 arc
0 setgray
fill
stroke

283 305 3 0 360 arc
0 setgray
fill
stroke

149 781 3 0 360 arc
0 setgray
fill
stroke

235 550 3 0 360 arc
0 setgray
fill
stroke

261 520 3 0 360 arc
0 setgray
fill
stroke

571 569 3 0 360 arc
0 setgray
fill
stroke

179 220 3 0 360 arc
0 setgray
fill
stroke

232 278 3 0 360 arc
0 setgray
fill
stroke

16 592 3 0 360 arc
0 setgray
fill
stroke

342 662 3 0 360 arc
0 setgray
fill
stroke

393 134 3 0 360 arc
0 setgray
fill
stroke

562 336 3 0 360 arc
0 setgray
fill
stroke

233 254 3 0 360 arc
0 setgray
fill
stroke

529 173 3 0 360 arc
0 setgray
fill
stroke

151 515 3 0 360 arc
0 setgray
fill
stroke


152 703 moveto
152 703 lineto
stroke

122 725 moveto
152 703 lineto
stroke

24 686 moveto
152 703 lineto
stroke

224 704 moveto
152 703 lineto
stroke

81 647 moveto
152 703 lineto
stroke

31 774 moveto
152 703 lineto
stroke

141 743 moveto
152 703 lineto
stroke

223 720 moveto
152 703 lineto
stroke

17 739 moveto
152 703 lineto
stroke

59 735 moveto
152 703 lineto
stroke

158 658 moveto
152 703 lineto
stroke

149 781 moveto
152 703 lineto
stroke

147 261 moveto
147 261 lineto
stroke

275 351 moveto
147 261 lineto
stroke

183 408 moveto
147 261 lineto
stroke

82 234 moveto
147 261 lineto
stroke

206 394 moveto
147 261 lineto
stroke

152 459 moveto
147 261 lineto
stroke

69 418 moveto
147 261 lineto
stroke

223 284 moveto
147 261 lineto
stroke

209 252 moveto
147 261 lineto
stroke

132 210 moveto
147 261 lineto
stroke

204 192 moveto
147 261 lineto
stroke

220 443 moveto
147 261 lineto
stroke

113 223 moveto
147 261 lineto
stroke

222 209 moveto
147 261 lineto
stroke

131 283 moveto
147 261 lineto
stroke

271 329 moveto
147 261 lineto
stroke

187 305 moveto
147 261 lineto
stroke

253 434 moveto
147 261 lineto
stroke

184 476 moveto
147 261 lineto
stroke

148 323 moveto
147 261 lineto
stroke

213 381 moveto
147 261 lineto
stroke

283 305 moveto
147 261 lineto
stroke

179 220 moveto
147 261 lineto
stroke

232 278 moveto
147 261 lineto
stroke

233 254 moveto
147 261 lineto
stroke

183 62 moveto
183 62 lineto
stroke

29 153 moveto
183 62 lineto
stroke

27 84 moveto
183 62 lineto
stroke

86 18 moveto
183 62 lineto
stroke

31 28 moveto
183 62 lineto
stroke

87 127 moveto
183 62 lineto
stroke

137 141 moveto
183 62 lineto
stroke

56 172 moveto
183 62 lineto
stroke

201 332 moveto
201 332 lineto
stroke

275 351 moveto
201 332 lineto
stroke

183 408 moveto
201 332 lineto
stroke

82 234 moveto
201 332 lineto
stroke

206 394 moveto
201 332 lineto
stroke

223 284 moveto
201 332 lineto
stroke

209 252 moveto
201 332 lineto
stroke

132 210 moveto
201 332 lineto
stroke

204 192 moveto
201 332 lineto
stroke

113 223 moveto
201 332 lineto
stroke

222 209 moveto
201 332 lineto
stroke

131 283 moveto
201 332 lineto
stroke

87 127 moveto
201 332 lineto
stroke

271 329 moveto
201 332 lineto
stroke

39 352 moveto
201 332 lineto
stroke

187 305 moveto
201 332 lineto
stroke

137 141 moveto
201 332 lineto
stroke

148 323 moveto
201 332 lineto
stroke

213 381 moveto
201 332 lineto
stroke

56 172 moveto
201 332 lineto
stroke

283 305 moveto
201 332 lineto
stroke

179 220 moveto
201 332 lineto
stroke

232 278 moveto
201 332 lineto
stroke

233 254 moveto
201 332 lineto
stroke

99 790 moveto
99 790 lineto
stroke

122 725 moveto
99 790 lineto
stroke

215 665 moveto
99 790 lineto
stroke

24 686 moveto
99 790 lineto
stroke

301 755 moveto
99 790 lineto
stroke

224 704 moveto
99 790 lineto
stroke

81 647 moveto
99 790 lineto
stroke

246 710 moveto
99 790 lineto
stroke

20 630 moveto
99 790 lineto
stroke

31 774 moveto
99 790 lineto
stroke

141 743 moveto
99 790 lineto
stroke

223 720 moveto
99 790 lineto
stroke

17 739 moveto
99 790 lineto
stroke

257 691 moveto
99 790 lineto
stroke

59 735 moveto
99 790 lineto
stroke

116 619 moveto
99 790 lineto
stroke

158 658 moveto
99 790 lineto
stroke

252 609 moveto
99 790 lineto
stroke

149 781 moveto
99 790 lineto
stroke

269 96 moveto
269 96 lineto
stroke

381 177 moveto
269 96 lineto
stroke

425 105 moveto
269 96 lineto
stroke

505 66 moveto
269 96 lineto
stroke

433 135 moveto
269 96 lineto
stroke

512 133 moveto
269 96 lineto
stroke

300 76 moveto
269 96 lineto
stroke

356 45 moveto
269 96 lineto
stroke

335 149 moveto
269 96 lineto
stroke

406 32 moveto
269 96 lineto
stroke

400 54 moveto
269 96 lineto
stroke

395 242 moveto
269 96 lineto
stroke

398 136 moveto
269 96 lineto
stroke

399 198 moveto
269 96 lineto
stroke

368 59 moveto
269 96 lineto
stroke

393 134 moveto
269 96 lineto
stroke

529 173 moveto
269 96 lineto
stroke

517 432 moveto
517 432 lineto
stroke

561 341 moveto
517 432 lineto
stroke

377 438 moveto
517 432 lineto
stroke

595 381 moveto
517 432 lineto
stroke

390 462 moveto
517 432 lineto
stroke

533 247 moveto
517 432 lineto
stroke

446 460 moveto
517 432 lineto
stroke

395 242 moveto
517 432 lineto
stroke

559 405 moveto
517 432 lineto
stroke

530 426 moveto
517 432 lineto
stroke

565 352 moveto
517 432 lineto
stroke

399 198 moveto
517 432 lineto
stroke

444 437 moveto
517 432 lineto
stroke

562 336 moveto
517 432 lineto
stroke

99 790 moveto
99 790 lineto
stroke

152 703 moveto
99 790 lineto
stroke

215 665 moveto
99 790 lineto
stroke

24 686 moveto
99 790 lineto
stroke

224 704 moveto
99 790 lineto
stroke

81 647 moveto
99 790 lineto
stroke

246 710 moveto
99 790 lineto
stroke

20 630 moveto
99 790 lineto
stroke

31 774 moveto
99 790 lineto
stroke

141 743 moveto
99 790 lineto
stroke

223 720 moveto
99 790 lineto
stroke

17 739 moveto
99 790 lineto
stroke

257 691 moveto
99 790 lineto
stroke

59 735 moveto
99 790 lineto
stroke

116 619 moveto
99 790 lineto
stroke

158 658 moveto
99 790 lineto
stroke

149 781 moveto
99 790 lineto
stroke

425 105 moveto
425 105 lineto
stroke

505 66 moveto
425 105 lineto
stroke

433 135 moveto
425 105 lineto
stroke

512 133 moveto
425 105 lineto
stroke

406 32 moveto
425 105 lineto
stroke

545 86 moveto
425 105 lineto
stroke

400 54 moveto
425 105 lineto
stroke

508 20 moveto
425 105 lineto
stroke

529 173 moveto
425 105 lineto
stroke

201 332 moveto
201 332 lineto
stroke

147 261 moveto
201 332 lineto
stroke

183 408 moveto
201 332 lineto
stroke

206 394 moveto
201 332 lineto
stroke

223 284 moveto
201 332 lineto
stroke

209 252 moveto
201 332 lineto
stroke

220 443 moveto
201 332 lineto
stroke

377 438 moveto
201 332 lineto
stroke

222 209 moveto
201 332 lineto
stroke

283 502 moveto
201 332 lineto
stroke

271 329 moveto
201 332 lineto
stroke

187 305 moveto
201 332 lineto
stroke

253 434 moveto
201 332 lineto
stroke

304 504 moveto
201 332 lineto
stroke

184 476 moveto
201 332 lineto
stroke

148 323 moveto
201 332 lineto
stroke

213 381 moveto
201 332 lineto
stroke

283 305 moveto
201 332 lineto
stroke

232 278 moveto
201 332 lineto
stroke

233 254 moveto
201 332 lineto
stroke

110 29 moveto
110 29 lineto
stroke

269 96 moveto
110 29 lineto
stroke

27 84 moveto
110 29 lineto
stroke

324 14 moveto
110 29 lineto
stroke

132 210 moveto
110 29 lineto
stroke

204 192 moveto
110 29 lineto
stroke

300 76 moveto
110 29 lineto
stroke

86 18 moveto
110 29 lineto
stroke

222 209 moveto
110 29 lineto
stroke

31 28 moveto
110 29 lineto
stroke

87 127 moveto
110 29 lineto
stroke

137 141 moveto
110 29 lineto
stroke

179 220 moveto
110 29 lineto
stroke

201 332 moveto
201 332 lineto
stroke

147 261 moveto
201 332 lineto
stroke

275 351 moveto
201 332 lineto
stroke

206 394 moveto
201 332 lineto
stroke

152 459 moveto
201 332 lineto
stroke

69 418 moveto
201 332 lineto
stroke

223 284 moveto
201 332 lineto
stroke

220 443 moveto
201 332 lineto
stroke

131 283 moveto
201 332 lineto
stroke

283 502 moveto
201 332 lineto
stroke

36 401 moveto
201 332 lineto
stroke

271 329 moveto
201 332 lineto
stroke

271 537 moveto
201 332 lineto
stroke

39 352 moveto
201 332 lineto
stroke

187 305 moveto
201 332 lineto
stroke

253 434 moveto
201 332 lineto
stroke

304 504 moveto
201 332 lineto
stroke

184 476 moveto
201 332 lineto
stroke

148 323 moveto
201 332 lineto
stroke

158 490 moveto
201 332 lineto
stroke

213 381 moveto
201 332 lineto
stroke

83 500 moveto
201 332 lineto
stroke

283 305 moveto
201 332 lineto
stroke

235 550 moveto
201 332 lineto
stroke

261 520 moveto
201 332 lineto
stroke

232 278 moveto
201 332 lineto
stroke

151 515 moveto
201 332 lineto
stroke

399 159 moveto
399 159 lineto
stroke

183 62 moveto
399 159 lineto
stroke

381 177 moveto
399 159 lineto
stroke

425 105 moveto
399 159 lineto
stroke

324 14 moveto
399 159 lineto
stroke

204 192 moveto
399 159 lineto
stroke

300 76 moveto
399 159 lineto
stroke

356 45 moveto
399 159 lineto
stroke

335 149 moveto
399 159 lineto
stroke

406 32 moveto
399 159 lineto
stroke

222 209 moveto
399 159 lineto
stroke

400 54 moveto
399 159 lineto
stroke

137 141 moveto
399 159 lineto
stroke

398 136 moveto
399 159 lineto
stroke

368 59 moveto
399 159 lineto
stroke

179 220 moveto
399 159 lineto
stroke

393 134 moveto
399 159 lineto
stroke

399 159 moveto
399 159 lineto
stroke

269 96 moveto
399 159 lineto
stroke

425 105 moveto
399 159 lineto
stroke

433 135 moveto
399 159 lineto
stroke

512 133 moveto
399 159 lineto
stroke

300 76 moveto
399 159 lineto
stroke

356 45 moveto
399 159 lineto
stroke

335 149 moveto
399 159 lineto
stroke

406 32 moveto
399 159 lineto
stroke

400 54 moveto
399 159 lineto
stroke

395 242 moveto
399 159 lineto
stroke

398 136 moveto
399 159 lineto
stroke

399 198 moveto
399 159 lineto
stroke

368 59 moveto
399 159 lineto
stroke

393 134 moveto
399 159 lineto
stroke

529 173 moveto
399 159 lineto
stroke

201 332 moveto
201 332 lineto
stroke

147 261 moveto
201 332 lineto
stroke

29 153 moveto
201 332 lineto
stroke

223 284 moveto
201 332 lineto
stroke

209 252 moveto
201 332 lineto
stroke

132 210 moveto
201 332 lineto
stroke

204 192 moveto
201 332 lineto
stroke

113 223 moveto
201 332 lineto
stroke

222 209 moveto
201 332 lineto
stroke

131 283 moveto
201 332 lineto
stroke

87 127 moveto
201 332 lineto
stroke

39 352 moveto
201 332 lineto
stroke

187 305 moveto
201 332 lineto
stroke

137 141 moveto
201 332 lineto
stroke

148 323 moveto
201 332 lineto
stroke

56 172 moveto
201 332 lineto
stroke

179 220 moveto
201 332 lineto
stroke

232 278 moveto
201 332 lineto
stroke

233 254 moveto
201 332 lineto
stroke

152 703 moveto
152 703 lineto
stroke

122 725 moveto
152 703 lineto
stroke

301 755 moveto
152 703 lineto
stroke

224 704 moveto
152 703 lineto
stroke

81 647 moveto
152 703 lineto
stroke

246 710 moveto
152 703 lineto
stroke

141 743 moveto
152 703 lineto
stroke

223 720 moveto
152 703 lineto
stroke

361 669 moveto
152 703 lineto
stroke

271 537 moveto
152 703 lineto
stroke

338 698 moveto
152 703 lineto
stroke

257 691 moveto
152 703 lineto
stroke

116 619 moveto
152 703 lineto
stroke

158 658 moveto
152 703 lineto
stroke

252 609 moveto
152 703 lineto
stroke

329 644 moveto
152 703 lineto
stroke

149 781 moveto
152 703 lineto
stroke

235 550 moveto
152 703 lineto
stroke

261 520 moveto
152 703 lineto
stroke

342 662 moveto
152 703 lineto
stroke

408 624 moveto
408 624 lineto
stroke

377 438 moveto
408 624 lineto
stroke

390 462 moveto
408 624 lineto
stroke

283 502 moveto
408 624 lineto
stroke

446 460 moveto
408 624 lineto
stroke

361 669 moveto
408 624 lineto
stroke

271 537 moveto
408 624 lineto
stroke

338 698 moveto
408 624 lineto
stroke

391 483 moveto
408 624 lineto
stroke

257 691 moveto
408 624 lineto
stroke

253 434 moveto
408 624 lineto
stroke

304 504 moveto
408 624 lineto
stroke

252 609 moveto
408 624 lineto
stroke

329 644 moveto
408 624 lineto
stroke

426 658 moveto
408 624 lineto
stroke

235 550 moveto
408 624 lineto
stroke

261 520 moveto
408 624 lineto
stroke

342 662 moveto
408 624 lineto
stroke

201 332 moveto
201 332 lineto
stroke

147 261 moveto
201 332 lineto
stroke

275 351 moveto
201 332 lineto
stroke

183 408 moveto
201 332 lineto
stroke

152 459 moveto
201 332 lineto
stroke

69 418 moveto
201 332 lineto
stroke

223 284 moveto
201 332 lineto
stroke

209 252 moveto
201 332 lineto
stroke

220 443 moveto
201 332 lineto
stroke

131 283 moveto
201 332 lineto
stroke

283 502 moveto
201 332 lineto
stroke

271 329 moveto
201 332 lineto
stroke

271 537 moveto
201 332 lineto
stroke

187 305 moveto
201 332 lineto
stroke

253 434 moveto
201 332 lineto
stroke

304 504 moveto
201 332 lineto
stroke

184 476 moveto
201 332 lineto
stroke

148 323 moveto
201 332 lineto
stroke

158 490 moveto
201 332 lineto
stroke

213 381 moveto
201 332 lineto
stroke

283 305 moveto
201 332 lineto
stroke

261 520 moveto
201 332 lineto
stroke

232 278 moveto
201 332 lineto
stroke

233 254 moveto
201 332 lineto
stroke

151 515 moveto
201 332 lineto
stroke

110 29 moveto
110 29 lineto
stroke

82 234 moveto
110 29 lineto
stroke

27 84 moveto
110 29 lineto
stroke

132 210 moveto
110 29 lineto
stroke

86 18 moveto
110 29 lineto
stroke

113 223 moveto
110 29 lineto
stroke

31 28 moveto
110 29 lineto
stroke

87 127 moveto
110 29 lineto
stroke

137 141 moveto
110 29 lineto
stroke

56 172 moveto
110 29 lineto
stroke

99 790 moveto
99 790 lineto
stroke

152 703 moveto
99 790 lineto
stroke

122 725 moveto
99 790 lineto
stroke

81 647 moveto
99 790 lineto
stroke

20 630 moveto
99 790 lineto
stroke

31 774 moveto
99 790 lineto
stroke

141 743 moveto
99 790 lineto
stroke

17 739 moveto
99 790 lineto
stroke

59 735 moveto
99 790 lineto
stroke

116 619 moveto
99 790 lineto
stroke

158 658 moveto
99 790 lineto
stroke

149 781 moveto
99 790 lineto
stroke

16 592 moveto
99 790 lineto
stroke

201 332 moveto
201 332 lineto
stroke

183 408 moveto
201 332 lineto
stroke

206 394 moveto
201 332 lineto
stroke

69 418 moveto
201 332 lineto
stroke

220 443 moveto
201 332 lineto
stroke

283 502 moveto
201 332 lineto
stroke

36 401 moveto
201 332 lineto
stroke

271 537 moveto
201 332 lineto
stroke

39 352 moveto
201 332 lineto
stroke

187 305 moveto
201 332 lineto
stroke

253 434 moveto
201 332 lineto
stroke

184 476 moveto
201 332 lineto
stroke

148 323 moveto
201 332 lineto
stroke

158 490 moveto
201 332 lineto
stroke

213 381 moveto
201 332 lineto
stroke

83 500 moveto
201 332 lineto
stroke

235 550 moveto
201 332 lineto
stroke

261 520 moveto
201 332 lineto
stroke

151 515 moveto
201 332 lineto
stroke

513 688 moveto
513 688 lineto
stroke

579 749 moveto
513 688 lineto
stroke

301 755 moveto
513 688 lineto
stroke

574 715 moveto
513 688 lineto
stroke

361 669 moveto
513 688 lineto
stroke

405 759 moveto
513 688 lineto
stroke

338 698 moveto
513 688 lineto
stroke

559 705 moveto
513 688 lineto
stroke

426 658 moveto
513 688 lineto
stroke

110 29 moveto
110 29 lineto
stroke

183 62 moveto
110 29 lineto
stroke

29 153 moveto
110 29 lineto
stroke

86 18 moveto
110 29 lineto
stroke

31 28 moveto
110 29 lineto
stroke

87 127 moveto
110 29 lineto
stroke

137 141 moveto
110 29 lineto
stroke

56 172 moveto
110 29 lineto
stroke

201 332 moveto
201 332 lineto
stroke

183 408 moveto
201 332 lineto
stroke

206 394 moveto
201 332 lineto
stroke

152 459 moveto
201 332 lineto
stroke

220 443 moveto
201 332 lineto
stroke

131 283 moveto
201 332 lineto
stroke

36 401 moveto
201 332 lineto
stroke

39 352 moveto
201 332 lineto
stroke

184 476 moveto
201 332 lineto
stroke

148 323 moveto
201 332 lineto
stroke

158 490 moveto
201 332 lineto
stroke

213 381 moveto
201 332 lineto
stroke

83 500 moveto
201 332 lineto
stroke

151 515 moveto
201 332 lineto
stroke

451 324 moveto
451 324 lineto
stroke

561 341 moveto
451 324 lineto
stroke

377 438 moveto
451 324 lineto
stroke

595 381 moveto
451 324 lineto
stroke

390 462 moveto
451 324 lineto
stroke

566 544 moveto
451 324 lineto
stroke

446 460 moveto
451 324 lineto
stroke

523 536 moveto
451 324 lineto
stroke

391 483 moveto
451 324 lineto
stroke

559 405 moveto
451 324 lineto
stroke

530 426 moveto
451 324 lineto
stroke

565 352 moveto
451 324 lineto
stroke

444 437 moveto
451 324 lineto
stroke

571 569 moveto
451 324 lineto
stroke

562 336 moveto
451 324 lineto
stroke

399 159 moveto
399 159 lineto
stroke

534 37 moveto
399 159 lineto
stroke

269 96 moveto
399 159 lineto
stroke

381 177 moveto
399 159 lineto
stroke

505 66 moveto
399 159 lineto
stroke

433 135 moveto
399 159 lineto
stroke

512 133 moveto
399 159 lineto
stroke

324 14 moveto
399 159 lineto
stroke

300 76 moveto
399 159 lineto
stroke

356 45 moveto
399 159 lineto
stroke

335 149 moveto
399 159 lineto
stroke

406 32 moveto
399 159 lineto
stroke

545 86 moveto
399 159 lineto
stroke

400 54 moveto
399 159 lineto
stroke

395 242 moveto
399 159 lineto
stroke

398 136 moveto
399 159 lineto
stroke

508 20 moveto
399 159 lineto
stroke

399 198 moveto
399 159 lineto
stroke

368 59 moveto
399 159 lineto
stroke

393 134 moveto
399 159 lineto
stroke

529 173 moveto
399 159 lineto
stroke

201 332 moveto
201 332 lineto
stroke

147 261 moveto
201 332 lineto
stroke

275 351 moveto
201 332 lineto
stroke

183 408 moveto
201 332 lineto
stroke

82 234 moveto
201 332 lineto
stroke

206 394 moveto
201 332 lineto
stroke

209 252 moveto
201 332 lineto
stroke

132 210 moveto
201 332 lineto
stroke

204 192 moveto
201 332 lineto
stroke

113 223 moveto
201 332 lineto
stroke

222 209 moveto
201 332 lineto
stroke

131 283 moveto
201 332 lineto
stroke

271 329 moveto
201 332 lineto
stroke

187 305 moveto
201 332 lineto
stroke

253 434 moveto
201 332 lineto
stroke

148 323 moveto
201 332 lineto
stroke

213 381 moveto
201 332 lineto
stroke

283 305 moveto
201 332 lineto
stroke

179 220 moveto
201 332 lineto
stroke

232 278 moveto
201 332 lineto
stroke

233 254 moveto
201 332 lineto
stroke

449 783 moveto
449 783 lineto
stroke

408 624 moveto
449 783 lineto
stroke

579 749 moveto
449 783 lineto
stroke

574 715 moveto
449 783 lineto
stroke

566 544 moveto
449 783 lineto
stroke

361 669 moveto
449 783 lineto
stroke

405 759 moveto
449 783 lineto
stroke

523 536 moveto
449 783 lineto
stroke

559 705 moveto
449 783 lineto
stroke

426 658 moveto
449 783 lineto
stroke

571 569 moveto
449 783 lineto
stroke

399 159 moveto
399 159 lineto
stroke

534 37 moveto
399 159 lineto
stroke

425 105 moveto
399 159 lineto
stroke

433 135 moveto
399 159 lineto
stroke

512 133 moveto
399 159 lineto
stroke

356 45 moveto
399 159 lineto
stroke

406 32 moveto
399 159 lineto
stroke

545 86 moveto
399 159 lineto
stroke

400 54 moveto
399 159 lineto
stroke

398 136 moveto
399 159 lineto
stroke

508 20 moveto
399 159 lineto
stroke

368 59 moveto
399 159 lineto
stroke

574 197 moveto
399 159 lineto
stroke

393 134 moveto
399 159 lineto
stroke

529 173 moveto
399 159 lineto
stroke

399 159 moveto
399 159 lineto
stroke

534 37 moveto
399 159 lineto
stroke

381 177 moveto
399 159 lineto
stroke

425 105 moveto
399 159 lineto
stroke

505 66 moveto
399 159 lineto
stroke

512 133 moveto
399 159 lineto
stroke

300 76 moveto
399 159 lineto
stroke

356 45 moveto
399 159 lineto
stroke

335 149 moveto
399 159 lineto
stroke

406 32 moveto
399 159 lineto
stroke

545 86 moveto
399 159 lineto
stroke

400 54 moveto
399 159 lineto
stroke

533 247 moveto
399 159 lineto
stroke

395 242 moveto
399 159 lineto
stroke

398 136 moveto
399 159 lineto
stroke

508 20 moveto
399 159 lineto
stroke

399 198 moveto
399 159 lineto
stroke

368 59 moveto
399 159 lineto
stroke

574 197 moveto
399 159 lineto
stroke

393 134 moveto
399 159 lineto
stroke

529 173 moveto
399 159 lineto
stroke

201 332 moveto
201 332 lineto
stroke

147 261 moveto
201 332 lineto
stroke

275 351 moveto
201 332 lineto
stroke

82 234 moveto
201 332 lineto
stroke

206 394 moveto
201 332 lineto
stroke

223 284 moveto
201 332 lineto
stroke

132 210 moveto
201 332 lineto
stroke

204 192 moveto
201 332 lineto
stroke

113 223 moveto
201 332 lineto
stroke

222 209 moveto
201 332 lineto
stroke

131 283 moveto
201 332 lineto
stroke

271 329 moveto
201 332 lineto
stroke

187 305 moveto
201 332 lineto
stroke

137 141 moveto
201 332 lineto
stroke

148 323 moveto
201 332 lineto
stroke

213 381 moveto
201 332 lineto
stroke

283 305 moveto
201 332 lineto
stroke

179 220 moveto
201 332 lineto
stroke

232 278 moveto
201 332 lineto
stroke

233 254 moveto
201 332 lineto
stroke

399 159 moveto
399 159 lineto
stroke

534 37 moveto
399 159 lineto
stroke

381 177 moveto
399 159 lineto
stroke

425 105 moveto
399 159 lineto
stroke

505 66 moveto
399 159 lineto
stroke

433 135 moveto
399 159 lineto
stroke

406 32 moveto
399 159 lineto
stroke

545 86 moveto
399 159 lineto
stroke

400 54 moveto
399 159 lineto
stroke

595 258 moveto
399 159 lineto
stroke

533 247 moveto
399 159 lineto
stroke

398 136 moveto
399 159 lineto
stroke

508 20 moveto
399 159 lineto
stroke

399 198 moveto
399 159 lineto
stroke

574 197 moveto
399 159 lineto
stroke

393 134 moveto
399 159 lineto
stroke

529 173 moveto
399 159 lineto
stroke

183 62 moveto
183 62 lineto
stroke

269 96 moveto
183 62 lineto
stroke

425 105 moveto
183 62 lineto
stroke

300 76 moveto
183 62 lineto
stroke

356 45 moveto
183 62 lineto
stroke

335 149 moveto
183 62 lineto
stroke

406 32 moveto
183 62 lineto
stroke

400 54 moveto
183 62 lineto
stroke

398 136 moveto
183 62 lineto
stroke

368 59 moveto
183 62 lineto
stroke

393 134 moveto
183 62 lineto
stroke

201 332 moveto
201 332 lineto
stroke

147 261 moveto
201 332 lineto
stroke

183 62 moveto
201 332 lineto
stroke

82 234 moveto
201 332 lineto
stroke

29 153 moveto
201 332 lineto
stroke

223 284 moveto
201 332 lineto
stroke

209 252 moveto
201 332 lineto
stroke

204 192 moveto
201 332 lineto
stroke

113 223 moveto
201 332 lineto
stroke

222 209 moveto
201 332 lineto
stroke

131 283 moveto
201 332 lineto
stroke

87 127 moveto
201 332 lineto
stroke

187 305 moveto
201 332 lineto
stroke

137 141 moveto
201 332 lineto
stroke

148 323 moveto
201 332 lineto
stroke

56 172 moveto
201 332 lineto
stroke

179 220 moveto
201 332 lineto
stroke

232 278 moveto
201 332 lineto
stroke

233 254 moveto
201 332 lineto
stroke

201 332 moveto
201 332 lineto
stroke

147 261 moveto
201 332 lineto
stroke

183 62 moveto
201 332 lineto
stroke

269 96 moveto
201 332 lineto
stroke

82 234 moveto
201 332 lineto
stroke

223 284 moveto
201 332 lineto
stroke

209 252 moveto
201 332 lineto
stroke

132 210 moveto
201 332 lineto
stroke

300 76 moveto
201 332 lineto
stroke

335 149 moveto
201 332 lineto
stroke

113 223 moveto
201 332 lineto
stroke

222 209 moveto
201 332 lineto
stroke

131 283 moveto
201 332 lineto
stroke

87 127 moveto
201 332 lineto
stroke

271 329 moveto
201 332 lineto
stroke

187 305 moveto
201 332 lineto
stroke

137 141 moveto
201 332 lineto
stroke

148 323 moveto
201 332 lineto
stroke

56 172 moveto
201 332 lineto
stroke

283 305 moveto
201 332 lineto
stroke

179 220 moveto
201 332 lineto
stroke

232 278 moveto
201 332 lineto
stroke

233 254 moveto
201 332 lineto
stroke

340 560 moveto
340 560 lineto
stroke

513 688 moveto
340 560 lineto
stroke

361 669 moveto
340 560 lineto
stroke

405 759 moveto
340 560 lineto
stroke

523 536 moveto
340 560 lineto
stroke

338 698 moveto
340 560 lineto
stroke

391 483 moveto
340 560 lineto
stroke

252 609 moveto
340 560 lineto
stroke

329 644 moveto
340 560 lineto
stroke

426 658 moveto
340 560 lineto
stroke

342 662 moveto
340 560 lineto
stroke

449 783 moveto
449 783 lineto
stroke

513 688 moveto
449 783 lineto
stroke

574 715 moveto
449 783 lineto
stroke

559 705 moveto
449 783 lineto
stroke

201 332 moveto
201 332 lineto
stroke

275 351 moveto
201 332 lineto
stroke

183 408 moveto
201 332 lineto
stroke

206 394 moveto
201 332 lineto
stroke

152 459 moveto
201 332 lineto
stroke

69 418 moveto
201 332 lineto
stroke

377 438 moveto
201 332 lineto
stroke

283 502 moveto
201 332 lineto
stroke

271 329 moveto
201 332 lineto
stroke

271 537 moveto
201 332 lineto
stroke

187 305 moveto
201 332 lineto
stroke

253 434 moveto
201 332 lineto
stroke

304 504 moveto
201 332 lineto
stroke

184 476 moveto
201 332 lineto
stroke

148 323 moveto
201 332 lineto
stroke

158 490 moveto
201 332 lineto
stroke

213 381 moveto
201 332 lineto
stroke

83 500 moveto
201 332 lineto
stroke

283 305 moveto
201 332 lineto
stroke

235 550 moveto
201 332 lineto
stroke

261 520 moveto
201 332 lineto
stroke

151 515 moveto
201 332 lineto
stroke

451 324 moveto
451 324 lineto
stroke

517 432 moveto
451 324 lineto
stroke

595 381 moveto
451 324 lineto
stroke

595 258 moveto
451 324 lineto
stroke

533 247 moveto
451 324 lineto
stroke

559 405 moveto
451 324 lineto
stroke

530 426 moveto
451 324 lineto
stroke

565 352 moveto
451 324 lineto
stroke

574 197 moveto
451 324 lineto
stroke

444 437 moveto
451 324 lineto
stroke

562 336 moveto
451 324 lineto
stroke

152 703 moveto
152 703 lineto
stroke

215 665 moveto
152 703 lineto
stroke

449 783 moveto
152 703 lineto
stroke

224 704 moveto
152 703 lineto
stroke

246 710 moveto
152 703 lineto
stroke

223 720 moveto
152 703 lineto
stroke

361 669 moveto
152 703 lineto
stroke

405 759 moveto
152 703 lineto
stroke

338 698 moveto
152 703 lineto
stroke

257 691 moveto
152 703 lineto
stroke

252 609 moveto
152 703 lineto
stroke

329 644 moveto
152 703 lineto
stroke

149 781 moveto
152 703 lineto
stroke

342 662 moveto
152 703 lineto
stroke

451 324 moveto
451 324 lineto
stroke

275 351 moveto
451 324 lineto
stroke

340 560 moveto
451 324 lineto
stroke

517 432 moveto
451 324 lineto
stroke

220 443 moveto
451 324 lineto
stroke

390 462 moveto
451 324 lineto
stroke

283 502 moveto
451 324 lineto
stroke

446 460 moveto
451 324 lineto
stroke

271 329 moveto
451 324 lineto
stroke

271 537 moveto
451 324 lineto
stroke

391 483 moveto
451 324 lineto
stroke

530 426 moveto
451 324 lineto
stroke

253 434 moveto
451 324 lineto
stroke

304 504 moveto
451 324 lineto
stroke

444 437 moveto
451 324 lineto
stroke

261 520 moveto
451 324 lineto
stroke

399 159 moveto
399 159 lineto
stroke

183 62 moveto
399 159 lineto
stroke

269 96 moveto
399 159 lineto
stroke

381 177 moveto
399 159 lineto
stroke

425 105 moveto
399 159 lineto
stroke

433 135 moveto
399 159 lineto
stroke

324 14 moveto
399 159 lineto
stroke

204 192 moveto
399 159 lineto
stroke

356 45 moveto
399 159 lineto
stroke

335 149 moveto
399 159 lineto
stroke

406 32 moveto
399 159 lineto
stroke

222 209 moveto
399 159 lineto
stroke

400 54 moveto
399 159 lineto
stroke

398 136 moveto
399 159 lineto
stroke

399 198 moveto
399 159 lineto
stroke

368 59 moveto
399 159 lineto
stroke

393 134 moveto
399 159 lineto
stroke

451 324 moveto
451 324 lineto
stroke

517 432 moveto
451 324 lineto
stroke

561 341 moveto
451 324 lineto
stroke

595 258 moveto
451 324 lineto
stroke

533 247 moveto
451 324 lineto
stroke

559 405 moveto
451 324 lineto
stroke

530 426 moveto
451 324 lineto
stroke

565 352 moveto
451 324 lineto
stroke

562 336 moveto
451 324 lineto
stroke

99 790 moveto
99 790 lineto
stroke

152 703 moveto
99 790 lineto
stroke

122 725 moveto
99 790 lineto
stroke

215 665 moveto
99 790 lineto
stroke

301 755 moveto
99 790 lineto
stroke

81 647 moveto
99 790 lineto
stroke

246 710 moveto
99 790 lineto
stroke

141 743 moveto
99 790 lineto
stroke

223 720 moveto
99 790 lineto
stroke

361 669 moveto
99 790 lineto
stroke

338 698 moveto
99 790 lineto
stroke

257 691 moveto
99 790 lineto
stroke

116 619 moveto
99 790 lineto
stroke

158 658 moveto
99 790 lineto
stroke

252 609 moveto
99 790 lineto
stroke

329 644 moveto
99 790 lineto
stroke

149 781 moveto
99 790 lineto
stroke

235 550 moveto
99 790 lineto
stroke

342 662 moveto
99 790 lineto
stroke

399 159 moveto
399 159 lineto
stroke

269 96 moveto
399 159 lineto
stroke

381 177 moveto
399 159 lineto
stroke

425 105 moveto
399 159 lineto
stroke

505 66 moveto
399 159 lineto
stroke

433 135 moveto
399 159 lineto
stroke

324 14 moveto
399 159 lineto
stroke

300 76 moveto
399 159 lineto
stroke

335 149 moveto
399 159 lineto
stroke

406 32 moveto
399 159 lineto
stroke

400 54 moveto
399 159 lineto
stroke

398 136 moveto
399 159 lineto
stroke

508 20 moveto
399 159 lineto
stroke

368 59 moveto
399 159 lineto
stroke

393 134 moveto
399 159 lineto
stroke

399 159 moveto
399 159 lineto
stroke

269 96 moveto
399 159 lineto
stroke

381 177 moveto
399 159 lineto
stroke

425 105 moveto
399 159 lineto
stroke

433 135 moveto
399 159 lineto
stroke

324 14 moveto
399 159 lineto
stroke

204 192 moveto
399 159 lineto
stroke

300 76 moveto
399 159 lineto
stroke

356 45 moveto
399 159 lineto
stroke

406 32 moveto
399 159 lineto
stroke

222 209 moveto
399 159 lineto
stroke

400 54 moveto
399 159 lineto
stroke

395 242 moveto
399 159 lineto
stroke

398 136 moveto
399 159 lineto
stroke

399 198 moveto
399 159 lineto
stroke

368 59 moveto
399 159 lineto
stroke

393 134 moveto
399 159 lineto
stroke

233 254 moveto
399 159 lineto
stroke

99 790 moveto
99 790 lineto
stroke

152 703 moveto
99 790 lineto
stroke

122 725 moveto
99 790 lineto
stroke

215 665 moveto
99 790 lineto
stroke

24 686 moveto
99 790 lineto
stroke

224 704 moveto
99 790 lineto
stroke

20 630 moveto
99 790 lineto
stroke

31 774 moveto
99 790 lineto
stroke

141 743 moveto
99 790 lineto
stroke

17 739 moveto
99 790 lineto
stroke

59 735 moveto
99 790 lineto
stroke

83 500 moveto
99 790 lineto
stroke

116 619 moveto
99 790 lineto
stroke

158 658 moveto
99 790 lineto
stroke

149 781 moveto
99 790 lineto
stroke

16 592 moveto
99 790 lineto
stroke

151 515 moveto
99 790 lineto
stroke

152 703 moveto
152 703 lineto
stroke

122 725 moveto
152 703 lineto
stroke

215 665 moveto
152 703 lineto
stroke

301 755 moveto
152 703 lineto
stroke

224 704 moveto
152 703 lineto
stroke

141 743 moveto
152 703 lineto
stroke

223 720 moveto
152 703 lineto
stroke

361 669 moveto
152 703 lineto
stroke

338 698 moveto
152 703 lineto
stroke

257 691 moveto
152 703 lineto
stroke

158 658 moveto
152 703 lineto
stroke

252 609 moveto
152 703 lineto
stroke

329 644 moveto
152 703 lineto
stroke

149 781 moveto
152 703 lineto
stroke

342 662 moveto
152 703 lineto
stroke

110 29 moveto
110 29 lineto
stroke

183 62 moveto
110 29 lineto
stroke

29 153 moveto
110 29 lineto
stroke

27 84 moveto
110 29 lineto
stroke

31 28 moveto
110 29 lineto
stroke

87 127 moveto
110 29 lineto
stroke

137 141 moveto
110 29 lineto
stroke

56 172 moveto
110 29 lineto
stroke

152 703 moveto
152 703 lineto
stroke

122 725 moveto
152 703 lineto
stroke

24 686 moveto
152 703 lineto
stroke

81 647 moveto
152 703 lineto
stroke

31 774 moveto
152 703 lineto
stroke

17 739 moveto
152 703 lineto
stroke

59 735 moveto
152 703 lineto
stroke

83 500 moveto
152 703 lineto
stroke

116 619 moveto
152 703 lineto
stroke

158 658 moveto
152 703 lineto
stroke

16 592 moveto
152 703 lineto
stroke

399 159 moveto
399 159 lineto
stroke

534 37 moveto
399 159 lineto
stroke

269 96 moveto
399 159 lineto
stroke

381 177 moveto
399 159 lineto
stroke

425 105 moveto
399 159 lineto
stroke

505 66 moveto
399 159 lineto
stroke

433 135 moveto
399 159 lineto
stroke

512 133 moveto
399 159 lineto
stroke

324 14 moveto
399 159 lineto
stroke

300 76 moveto
399 159 lineto
stroke

356 45 moveto
399 159 lineto
stroke

335 149 moveto
399 159 lineto
stroke

545 86 moveto
399 159 lineto
stroke

400 54 moveto
399 159 lineto
stroke

398 136 moveto
399 159 lineto
stroke

508 20 moveto
399 159 lineto
stroke

368 59 moveto
399 159 lineto
stroke

393 134 moveto
399 159 lineto
stroke

451 324 moveto
451 324 lineto
stroke

340 560 moveto
451 324 lineto
stroke

517 432 moveto
451 324 lineto
stroke

377 438 moveto
451 324 lineto
stroke

283 502 moveto
451 324 lineto
stroke

446 460 moveto
451 324 lineto
stroke

271 537 moveto
451 324 lineto
stroke

523 536 moveto
451 324 lineto
stroke

391 483 moveto
451 324 lineto
stroke

530 426 moveto
451 324 lineto
stroke

253 434 moveto
451 324 lineto
stroke

304 504 moveto
451 324 lineto
stroke

444 437 moveto
451 324 lineto
stroke

261 520 moveto
451 324 lineto
stroke

534 37 moveto
534 37 lineto
stroke

425 105 moveto
534 37 lineto
stroke

505 66 moveto
534 37 lineto
stroke

433 135 moveto
534 37 lineto
stroke

512 133 moveto
534 37 lineto
stroke

406 32 moveto
534 37 lineto
stroke

400 54 moveto
534 37 lineto
stroke

398 136 moveto
534 37 lineto
stroke

508 20 moveto
534 37 lineto
stroke

574 197 moveto
534 37 lineto
stroke

529 173 moveto
534 37 lineto
stroke

201 332 moveto
201 332 lineto
stroke

147 261 moveto
201 332 lineto
stroke

82 234 moveto
201 332 lineto
stroke

29 153 moveto
201 332 lineto
stroke

223 284 moveto
201 332 lineto
stroke

209 252 moveto
201 332 lineto
stroke

132 210 moveto
201 332 lineto
stroke

204 192 moveto
201 332 lineto
stroke

222 209 moveto
201 332 lineto
stroke

131 283 moveto
201 332 lineto
stroke

87 127 moveto
201 332 lineto
stroke

39 352 moveto
201 332 lineto
stroke

187 305 moveto
201 332 lineto
stroke

137 141 moveto
201 332 lineto
stroke

148 323 moveto
201 332 lineto
stroke

56 172 moveto
201 332 lineto
stroke

179 220 moveto
201 332 lineto
stroke

232 278 moveto
201 332 lineto
stroke

233 254 moveto
201 332 lineto
stroke

99 790 moveto
99 790 lineto
stroke

152 703 moveto
99 790 lineto
stroke

122 725 moveto
99 790 lineto
stroke

24 686 moveto
99 790 lineto
stroke

81 647 moveto
99 790 lineto
stroke

20 630 moveto
99 790 lineto
stroke

141 743 moveto
99 790 lineto
stroke

17 739 moveto
99 790 lineto
stroke

59 735 moveto
99 790 lineto
stroke

149 781 moveto
99 790 lineto
stroke

201 332 moveto
201 332 lineto
stroke

147 261 moveto
201 332 lineto
stroke

275 351 moveto
201 332 lineto
stroke

183 62 moveto
201 332 lineto
stroke

269 96 moveto
201 332 lineto
stroke

82 234 moveto
201 332 lineto
stroke

223 284 moveto
201 332 lineto
stroke

209 252 moveto
201 332 lineto
stroke

132 210 moveto
201 332 lineto
stroke

204 192 moveto
201 332 lineto
stroke

300 76 moveto
201 332 lineto
stroke

335 149 moveto
201 332 lineto
stroke

113 223 moveto
201 332 lineto
stroke

131 283 moveto
201 332 lineto
stroke

87 127 moveto
201 332 lineto
stroke

271 329 moveto
201 332 lineto
stroke

187 305 moveto
201 332 lineto
stroke

137 141 moveto
201 332 lineto
stroke

148 323 moveto
201 332 lineto
stroke

283 305 moveto
201 332 lineto
stroke

179 220 moveto
201 332 lineto
stroke

232 278 moveto
201 332 lineto
stroke

233 254 moveto
201 332 lineto
stroke

399 159 moveto
399 159 lineto
stroke

534 37 moveto
399 159 lineto
stroke

269 96 moveto
399 159 lineto
stroke

381 177 moveto
399 159 lineto
stroke

425 105 moveto
399 159 lineto
stroke

505 66 moveto
399 159 lineto
stroke

433 135 moveto
399 159 lineto
stroke

512 133 moveto
399 159 lineto
stroke

324 14 moveto
399 159 lineto
stroke

300 76 moveto
399 159 lineto
stroke

356 45 moveto
399 159 lineto
stroke

335 149 moveto
399 159 lineto
stroke

406 32 moveto
399 159 lineto
stroke

545 86 moveto
399 159 lineto
stroke

398 136 moveto
399 159 lineto
stroke

508 20 moveto
399 159 lineto
stroke

399 198 moveto
399 159 lineto
stroke

368 59 moveto
399 159 lineto
stroke

393 134 moveto
399 159 lineto
stroke

99 790 moveto
99 790 lineto
stroke

152 703 moveto
99 790 lineto
stroke

122 725 moveto
99 790 lineto
stroke

215 665 moveto
99 790 lineto
stroke

24 686 moveto
99 790 lineto
stroke

224 704 moveto
99 790 lineto
stroke

81 647 moveto
99 790 lineto
stroke

246 710 moveto
99 790 lineto
stroke

31 774 moveto
99 790 lineto
stroke

223 720 moveto
99 790 lineto
stroke

17 739 moveto
99 790 lineto
stroke

257 691 moveto
99 790 lineto
stroke

59 735 moveto
99 790 lineto
stroke

116 619 moveto
99 790 lineto
stroke

158 658 moveto
99 790 lineto
stroke

149 781 moveto
99 790 lineto
stroke

512 133 moveto
512 133 lineto
stroke

561 341 moveto
512 133 lineto
stroke

595 381 moveto
512 133 lineto
stroke

533 247 moveto
512 133 lineto
stroke

559 405 moveto
512 133 lineto
stroke

565 352 moveto
512 133 lineto
stroke

574 197 moveto
512 133 lineto
stroke

562 336 moveto
512 133 lineto
stroke

529 173 moveto
512 133 lineto
stroke

201 332 moveto
201 332 lineto
stroke

147 261 moveto
201 332 lineto
stroke

183 408 moveto
201 332 lineto
stroke

82 234 moveto
201 332 lineto
stroke

206 394 moveto
201 332 lineto
stroke

69 418 moveto
201 332 lineto
stroke

223 284 moveto
201 332 lineto
stroke

209 252 moveto
201 332 lineto
stroke

132 210 moveto
201 332 lineto
stroke

204 192 moveto
201 332 lineto
stroke

113 223 moveto
201 332 lineto
stroke

222 209 moveto
201 332 lineto
stroke

36 401 moveto
201 332 lineto
stroke

271 329 moveto
201 332 lineto
stroke

39 352 moveto
201 332 lineto
stroke

187 305 moveto
201 332 lineto
stroke

137 141 moveto
201 332 lineto
stroke

148 323 moveto
201 332 lineto
stroke

213 381 moveto
201 332 lineto
stroke

56 172 moveto
201 332 lineto
stroke

283 305 moveto
201 332 lineto
stroke

179 220 moveto
201 332 lineto
stroke

232 278 moveto
201 332 lineto
stroke

233 254 moveto
201 332 lineto
stroke

275 351 moveto
275 351 lineto
stroke

183 408 moveto
275 351 lineto
stroke

340 560 moveto
275 351 lineto
stroke

206 394 moveto
275 351 lineto
stroke

152 459 moveto
275 351 lineto
stroke

220 443 moveto
275 351 lineto
stroke

377 438 moveto
275 351 lineto
stroke

390 462 moveto
275 351 lineto
stroke

271 537 moveto
275 351 lineto
stroke

391 483 moveto
275 351 lineto
stroke

253 434 moveto
275 351 lineto
stroke

304 504 moveto
275 351 lineto
stroke

184 476 moveto
275 351 lineto
stroke

158 490 moveto
275 351 lineto
stroke

213 381 moveto
275 351 lineto
stroke

252 609 moveto
275 351 lineto
stroke

329 644 moveto
275 351 lineto
stroke

235 550 moveto
275 351 lineto
stroke

261 520 moveto
275 351 lineto
stroke

151 515 moveto
275 351 lineto
stroke

183 408 moveto
183 408 lineto
stroke

152 459 moveto
183 408 lineto
stroke

69 418 moveto
183 408 lineto
stroke

131 283 moveto
183 408 lineto
stroke

39 352 moveto
183 408 lineto
stroke

148 323 moveto
183 408 lineto
stroke

158 490 moveto
183 408 lineto
stroke

83 500 moveto
183 408 lineto
stroke

449 783 moveto
449 783 lineto
stroke

513 688 moveto
449 783 lineto
stroke

579 749 moveto
449 783 lineto
stroke

559 705 moveto
449 783 lineto
stroke

571 569 moveto
449 783 lineto
stroke

110 29 moveto
110 29 lineto
stroke

183 62 moveto
110 29 lineto
stroke

29 153 moveto
110 29 lineto
stroke

27 84 moveto
110 29 lineto
stroke

86 18 moveto
110 29 lineto
stroke

87 127 moveto
110 29 lineto
stroke

137 141 moveto
110 29 lineto
stroke

56 172 moveto
110 29 lineto
stroke

451 324 moveto
451 324 lineto
stroke

433 135 moveto
451 324 lineto
stroke

512 133 moveto
451 324 lineto
stroke

561 341 moveto
451 324 lineto
stroke

595 381 moveto
451 324 lineto
stroke

595 258 moveto
451 324 lineto
stroke

395 242 moveto
451 324 lineto
stroke

565 352 moveto
451 324 lineto
stroke

399 198 moveto
451 324 lineto
stroke

574 197 moveto
451 324 lineto
stroke

562 336 moveto
451 324 lineto
stroke

529 173 moveto
451 324 lineto
stroke

517 432 moveto
517 432 lineto
stroke

513 688 moveto
517 432 lineto
stroke

446 460 moveto
517 432 lineto
stroke

523 536 moveto
517 432 lineto
stroke

559 405 moveto
517 432 lineto
stroke

530 426 moveto
517 432 lineto
stroke

571 569 moveto
517 432 lineto
stroke

99 790 moveto
99 790 lineto
stroke

152 703 moveto
99 790 lineto
stroke

122 725 moveto
99 790 lineto
stroke

215 665 moveto
99 790 lineto
stroke

301 755 moveto
99 790 lineto
stroke

224 704 moveto
99 790 lineto
stroke

246 710 moveto
99 790 lineto
stroke

141 743 moveto
99 790 lineto
stroke

361 669 moveto
99 790 lineto
stroke

338 698 moveto
99 790 lineto
stroke

257 691 moveto
99 790 lineto
stroke

116 619 moveto
99 790 lineto
stroke

158 658 moveto
99 790 lineto
stroke

252 609 moveto
99 790 lineto
stroke

329 644 moveto
99 790 lineto
stroke

149 781 moveto
99 790 lineto
stroke

342 662 moveto
99 790 lineto
stroke

451 324 moveto
451 324 lineto
stroke

340 560 moveto
451 324 lineto
stroke

517 432 moveto
451 324 lineto
stroke

377 438 moveto
451 324 lineto
stroke

390 462 moveto
451 324 lineto
stroke

566 544 moveto
451 324 lineto
stroke

523 536 moveto
451 324 lineto
stroke

391 483 moveto
451 324 lineto
stroke

559 405 moveto
451 324 lineto
stroke

530 426 moveto
451 324 lineto
stroke

304 504 moveto
451 324 lineto
stroke

444 437 moveto
451 324 lineto
stroke

110 29 moveto
110 29 lineto
stroke

147 261 moveto
110 29 lineto
stroke

183 62 moveto
110 29 lineto
stroke

82 234 moveto
110 29 lineto
stroke

29 153 moveto
110 29 lineto
stroke

27 84 moveto
110 29 lineto
stroke

132 210 moveto
110 29 lineto
stroke

204 192 moveto
110 29 lineto
stroke

86 18 moveto
110 29 lineto
stroke

113 223 moveto
110 29 lineto
stroke

222 209 moveto
110 29 lineto
stroke

31 28 moveto
110 29 lineto
stroke

137 141 moveto
110 29 lineto
stroke

56 172 moveto
110 29 lineto
stroke

179 220 moveto
110 29 lineto
stroke

399 159 moveto
399 159 lineto
stroke

451 324 moveto
399 159 lineto
stroke

381 177 moveto
399 159 lineto
stroke

425 105 moveto
399 159 lineto
stroke

433 135 moveto
399 159 lineto
stroke

335 149 moveto
399 159 lineto
stroke

533 247 moveto
399 159 lineto
stroke

271 329 moveto
399 159 lineto
stroke

398 136 moveto
399 159 lineto
stroke

399 198 moveto
399 159 lineto
stroke

283 305 moveto
399 159 lineto
stroke

393 134 moveto
399 159 lineto
stroke

529 173 moveto
399 159 lineto
stroke

215 665 moveto
215 665 lineto
stroke

340 560 moveto
215 665 lineto
stroke

449 783 moveto
215 665 lineto
stroke

513 688 moveto
215 665 lineto
stroke

408 624 moveto
215 665 lineto
stroke

301 755 moveto
215 665 lineto
stroke

224 704 moveto
215 665 lineto
stroke

246 710 moveto
215 665 lineto
stroke

223 720 moveto
215 665 lineto
stroke

405 759 moveto
215 665 lineto
stroke

338 698 moveto
215 665 lineto
stroke

257 691 moveto
215 665 lineto
stroke

252 609 moveto
215 665 lineto
stroke

329 644 moveto
215 665 lineto
stroke

426 658 moveto
215 665 lineto
stroke

342 662 moveto
215 665 lineto
stroke

201 332 moveto
201 332 lineto
stroke

147 261 moveto
201 332 lineto
stroke

275 351 moveto
201 332 lineto
stroke

183 408 moveto
201 332 lineto
stroke

206 394 moveto
201 332 lineto
stroke

223 284 moveto
201 332 lineto
stroke

209 252 moveto
201 332 lineto
stroke

204 192 moveto
201 332 lineto
stroke

220 443 moveto
201 332 lineto
stroke

377 438 moveto
201 332 lineto
stroke

222 209 moveto
201 332 lineto
stroke

131 283 moveto
201 332 lineto
stroke

395 242 moveto
201 332 lineto
stroke

187 305 moveto
201 332 lineto
stroke

253 434 moveto
201 332 lineto
stroke

148 323 moveto
201 332 lineto
stroke

213 381 moveto
201 332 lineto
stroke

283 305 moveto
201 332 lineto
stroke

179 220 moveto
201 332 lineto
stroke

232 278 moveto
201 332 lineto
stroke

233 254 moveto
201 332 lineto
stroke

183 408 moveto
183 408 lineto
stroke

215 665 moveto
183 408 lineto
stroke

340 560 moveto
183 408 lineto
stroke

206 394 moveto
183 408 lineto
stroke

152 459 moveto
183 408 lineto
stroke

220 443 moveto
183 408 lineto
stroke

377 438 moveto
183 408 lineto
stroke

390 462 moveto
183 408 lineto
stroke

283 502 moveto
183 408 lineto
stroke

391 483 moveto
183 408 lineto
stroke

257 691 moveto
183 408 lineto
stroke

253 434 moveto
183 408 lineto
stroke

304 504 moveto
183 408 lineto
stroke

184 476 moveto
183 408 lineto
stroke

158 490 moveto
183 408 lineto
stroke

252 609 moveto
183 408 lineto
stroke

329 644 moveto
183 408 lineto
stroke

235 550 moveto
183 408 lineto
stroke

261 520 moveto
183 408 lineto
stroke

342 662 moveto
183 408 lineto
stroke

151 515 moveto
183 408 lineto
stroke

449 783 moveto
449 783 lineto
stroke

513 688 moveto
449 783 lineto
stroke

408 624 moveto
449 783 lineto
stroke

301 755 moveto
449 783 lineto
stroke

361 669 moveto
449 783 lineto
stroke

338 698 moveto
449 783 lineto
stroke

329 644 moveto
449 783 lineto
stroke

426 658 moveto
449 783 lineto
stroke

342 662 moveto
449 783 lineto
stroke

517 432 moveto
517 432 lineto
stroke

513 688 moveto
517 432 lineto
stroke

408 624 moveto
517 432 lineto
stroke

390 462 moveto
517 432 lineto
stroke

566 544 moveto
517 432 lineto
stroke

446 460 moveto
517 432 lineto
stroke

391 483 moveto
517 432 lineto
stroke

559 405 moveto
517 432 lineto
stroke

530 426 moveto
517 432 lineto
stroke

444 437 moveto
517 432 lineto
stroke

426 658 moveto
517 432 lineto
stroke

571 569 moveto
517 432 lineto
stroke

215 665 moveto
215 665 lineto
stroke

340 560 moveto
215 665 lineto
stroke

449 783 moveto
215 665 lineto
stroke

408 624 moveto
215 665 lineto
stroke

301 755 moveto
215 665 lineto
stroke

224 704 moveto
215 665 lineto
stroke

246 710 moveto
215 665 lineto
stroke

223 720 moveto
215 665 lineto
stroke

361 669 moveto
215 665 lineto
stroke

405 759 moveto
215 665 lineto
stroke

257 691 moveto
215 665 lineto
stroke

252 609 moveto
215 665 lineto
stroke

329 644 moveto
215 665 lineto
stroke

426 658 moveto
215 665 lineto
stroke

342 662 moveto
215 665 lineto
stroke

340 560 moveto
340 560 lineto
stroke

517 432 moveto
340 560 lineto
stroke

408 624 moveto
340 560 lineto
stroke

377 438 moveto
340 560 lineto
stroke

390 462 moveto
340 560 lineto
stroke

283 502 moveto
340 560 lineto
stroke

446 460 moveto
340 560 lineto
stroke

271 537 moveto
340 560 lineto
stroke

523 536 moveto
340 560 lineto
stroke

530 426 moveto
340 560 lineto
stroke

253 434 moveto
340 560 lineto
stroke

304 504 moveto
340 560 lineto
stroke

444 437 moveto
340 560 lineto
stroke

261 520 moveto
340 560 lineto
stroke

451 324 moveto
451 324 lineto
stroke

517 432 moveto
451 324 lineto
stroke

561 341 moveto
451 324 lineto
stroke

595 381 moveto
451 324 lineto
stroke

595 258 moveto
451 324 lineto
stroke

566 544 moveto
451 324 lineto
stroke

446 460 moveto
451 324 lineto
stroke

523 536 moveto
451 324 lineto
stroke

530 426 moveto
451 324 lineto
stroke

565 352 moveto
451 324 lineto
stroke

444 437 moveto
451 324 lineto
stroke

562 336 moveto
451 324 lineto
stroke

451 324 moveto
451 324 lineto
stroke

517 432 moveto
451 324 lineto
stroke

561 341 moveto
451 324 lineto
stroke

377 438 moveto
451 324 lineto
stroke

595 381 moveto
451 324 lineto
stroke

390 462 moveto
451 324 lineto
stroke

566 544 moveto
451 324 lineto
stroke

446 460 moveto
451 324 lineto
stroke

523 536 moveto
451 324 lineto
stroke

391 483 moveto
451 324 lineto
stroke

559 405 moveto
451 324 lineto
stroke

565 352 moveto
451 324 lineto
stroke

444 437 moveto
451 324 lineto
stroke

571 569 moveto
451 324 lineto
stroke

562 336 moveto
451 324 lineto
stroke

99 790 moveto
99 790 lineto
stroke

152 703 moveto
99 790 lineto
stroke

122 725 moveto
99 790 lineto
stroke

24 686 moveto
99 790 lineto
stroke

81 647 moveto
99 790 lineto
stroke

20 630 moveto
99 790 lineto
stroke

31 774 moveto
99 790 lineto
stroke

141 743 moveto
99 790 lineto
stroke

59 735 moveto
99 790 lineto
stroke

116 619 moveto
99 790 lineto
stroke

149 781 moveto
99 790 lineto
stroke

16 592 moveto
99 790 lineto
stroke

152 703 moveto
152 703 lineto
stroke

122 725 moveto
152 703 lineto
stroke

215 665 moveto
152 703 lineto
stroke

340 560 moveto
152 703 lineto
stroke

301 755 moveto
152 703 lineto
stroke

224 704 moveto
152 703 lineto
stroke

246 710 moveto
152 703 lineto
stroke

141 743 moveto
152 703 lineto
stroke

223 720 moveto
152 703 lineto
stroke

361 669 moveto
152 703 lineto
stroke

271 537 moveto
152 703 lineto
stroke

338 698 moveto
152 703 lineto
stroke

158 658 moveto
152 703 lineto
stroke

252 609 moveto
152 703 lineto
stroke

329 644 moveto
152 703 lineto
stroke

149 781 moveto
152 703 lineto
stroke

235 550 moveto
152 703 lineto
stroke

342 662 moveto
152 703 lineto
stroke

147 261 moveto
147 261 lineto
stroke

183 408 moveto
147 261 lineto
stroke

82 234 moveto
147 261 lineto
stroke

152 459 moveto
147 261 lineto
stroke

69 418 moveto
147 261 lineto
stroke

113 223 moveto
147 261 lineto
stroke

131 283 moveto
147 261 lineto
stroke

36 401 moveto
147 261 lineto
stroke

187 305 moveto
147 261 lineto
stroke

148 323 moveto
147 261 lineto
stroke

83 500 moveto
147 261 lineto
stroke

201 332 moveto
201 332 lineto
stroke

147 261 moveto
201 332 lineto
stroke

275 351 moveto
201 332 lineto
stroke

183 408 moveto
201 332 lineto
stroke

82 234 moveto
201 332 lineto
stroke

206 394 moveto
201 332 lineto
stroke

152 459 moveto
201 332 lineto
stroke

223 284 moveto
201 332 lineto
stroke

209 252 moveto
201 332 lineto
stroke

132 210 moveto
201 332 lineto
stroke

204 192 moveto
201 332 lineto
stroke

220 443 moveto
201 332 lineto
stroke

113 223 moveto
201 332 lineto
stroke

222 209 moveto
201 332 lineto
stroke

131 283 moveto
201 332 lineto
stroke

271 329 moveto
201 332 lineto
stroke

39 352 moveto
201 332 lineto
stroke

253 434 moveto
201 332 lineto
stroke

148 323 moveto
201 332 lineto
stroke

213 381 moveto
201 332 lineto
stroke

283 305 moveto
201 332 lineto
stroke

179 220 moveto
201 332 lineto
stroke

232 278 moveto
201 332 lineto
stroke

233 254 moveto
201 332 lineto
stroke

201 332 moveto
201 332 lineto
stroke

275 351 moveto
201 332 lineto
stroke

183 408 moveto
201 332 lineto
stroke

340 560 moveto
201 332 lineto
stroke

206 394 moveto
201 332 lineto
stroke

152 459 moveto
201 332 lineto
stroke

223 284 moveto
201 332 lineto
stroke

220 443 moveto
201 332 lineto
stroke

377 438 moveto
201 332 lineto
stroke

390 462 moveto
201 332 lineto
stroke

283 502 moveto
201 332 lineto
stroke

271 329 moveto
201 332 lineto
stroke

271 537 moveto
201 332 lineto
stroke

391 483 moveto
201 332 lineto
stroke

187 305 moveto
201 332 lineto
stroke

304 504 moveto
201 332 lineto
stroke

184 476 moveto
201 332 lineto
stroke

148 323 moveto
201 332 lineto
stroke

158 490 moveto
201 332 lineto
stroke

213 381 moveto
201 332 lineto
stroke

283 305 moveto
201 332 lineto
stroke

235 550 moveto
201 332 lineto
stroke

261 520 moveto
201 332 lineto
stroke

232 278 moveto
201 332 lineto
stroke

151 515 moveto
201 332 lineto
stroke

275 351 moveto
275 351 lineto
stroke

183 408 moveto
275 351 lineto
stroke

340 560 moveto
275 351 lineto
stroke

206 394 moveto
275 351 lineto
stroke

220 443 moveto
275 351 lineto
stroke

377 438 moveto
275 351 lineto
stroke

390 462 moveto
275 351 lineto
stroke

283 502 moveto
275 351 lineto
stroke

446 460 moveto
275 351 lineto
stroke

271 537 moveto
275 351 lineto
stroke

391 483 moveto
275 351 lineto
stroke

253 434 moveto
275 351 lineto
stroke

184 476 moveto
275 351 lineto
stroke

158 490 moveto
275 351 lineto
stroke

213 381 moveto
275 351 lineto
stroke

252 609 moveto
275 351 lineto
stroke

444 437 moveto
275 351 lineto
stroke

329 644 moveto
275 351 lineto
stroke

235 550 moveto
275 351 lineto
stroke

261 520 moveto
275 351 lineto
stroke

151 515 moveto
275 351 lineto
stroke

110 29 moveto
110 29 lineto
stroke

147 261 moveto
110 29 lineto
stroke

183 62 moveto
110 29 lineto
stroke

269 96 moveto
110 29 lineto
stroke

82 234 moveto
110 29 lineto
stroke

29 153 moveto
110 29 lineto
stroke

27 84 moveto
110 29 lineto
stroke

209 252 moveto
110 29 lineto
stroke

132 210 moveto
110 29 lineto
stroke

204 192 moveto
110 29 lineto
stroke

86 18 moveto
110 29 lineto
stroke

113 223 moveto
110 29 lineto
stroke

222 209 moveto
110 29 lineto
stroke

131 283 moveto
110 29 lineto
stroke

31 28 moveto
110 29 lineto
stroke

87 127 moveto
110 29 lineto
stroke

56 172 moveto
110 29 lineto
stroke

179 220 moveto
110 29 lineto
stroke

233 254 moveto
110 29 lineto
stroke

399 159 moveto
399 159 lineto
stroke

269 96 moveto
399 159 lineto
stroke

381 177 moveto
399 159 lineto
stroke

425 105 moveto
399 159 lineto
stroke

505 66 moveto
399 159 lineto
stroke

433 135 moveto
399 159 lineto
stroke

512 133 moveto
399 159 lineto
stroke

324 14 moveto
399 159 lineto
stroke

300 76 moveto
399 159 lineto
stroke

356 45 moveto
399 159 lineto
stroke

335 149 moveto
399 159 lineto
stroke

406 32 moveto
399 159 lineto
stroke

545 86 moveto
399 159 lineto
stroke

400 54 moveto
399 159 lineto
stroke

395 242 moveto
399 159 lineto
stroke

399 198 moveto
399 159 lineto
stroke

368 59 moveto
399 159 lineto
stroke

393 134 moveto
399 159 lineto
stroke

529 173 moveto
399 159 lineto
stroke

449 783 moveto
449 783 lineto
stroke

513 688 moveto
449 783 lineto
stroke

579 749 moveto
449 783 lineto
stroke

574 715 moveto
449 783 lineto
stroke

426 658 moveto
449 783 lineto
stroke

571 569 moveto
449 783 lineto
stroke

451 324 moveto
451 324 lineto
stroke

517 432 moveto
451 324 lineto
stroke

561 341 moveto
451 324 lineto
stroke

595 381 moveto
451 324 lineto
stroke

595 258 moveto
451 324 lineto
stroke

533 247 moveto
451 324 lineto
stroke

559 405 moveto
451 324 lineto
stroke

530 426 moveto
451 324 lineto
stroke

574 197 moveto
451 324 lineto
stroke

444 437 moveto
451 324 lineto
stroke

562 336 moveto
451 324 lineto
stroke

201 332 moveto
201 332 lineto
stroke

275 351 moveto
201 332 lineto
stroke

183 408 moveto
201 332 lineto
stroke

206 394 moveto
201 332 lineto
stroke

152 459 moveto
201 332 lineto
stroke

69 418 moveto
201 332 lineto
stroke

220 443 moveto
201 332 lineto
stroke

283 502 moveto
201 332 lineto
stroke

271 537 moveto
201 332 lineto
stroke

253 434 moveto
201 332 lineto
stroke

304 504 moveto
201 332 lineto
stroke

148 323 moveto
201 332 lineto
stroke

158 490 moveto
201 332 lineto
stroke

213 381 moveto
201 332 lineto
stroke

83 500 moveto
201 332 lineto
stroke

252 609 moveto
201 332 lineto
stroke

235 550 moveto
201 332 lineto
stroke

261 520 moveto
201 332 lineto
stroke

151 515 moveto
201 332 lineto
stroke

201 332 moveto
201 332 lineto
stroke

147 261 moveto
201 332 lineto
stroke

275 351 moveto
201 332 lineto
stroke

183 408 moveto
201 332 lineto
stroke

82 234 moveto
201 332 lineto
stroke

206 394 moveto
201 332 lineto
stroke

152 459 moveto
201 332 lineto
stroke

69 418 moveto
201 332 lineto
stroke

223 284 moveto
201 332 lineto
stroke

209 252 moveto
201 332 lineto
stroke

132 210 moveto
201 332 lineto
stroke

204 192 moveto
201 332 lineto
stroke

220 443 moveto
201 332 lineto
stroke

113 223 moveto
201 332 lineto
stroke

222 209 moveto
201 332 lineto
stroke

131 283 moveto
201 332 lineto
stroke

36 401 moveto
201 332 lineto
stroke

271 329 moveto
201 332 lineto
stroke

39 352 moveto
201 332 lineto
stroke

187 305 moveto
201 332 lineto
stroke

253 434 moveto
201 332 lineto
stroke

184 476 moveto
201 332 lineto
stroke

213 381 moveto
201 332 lineto
stroke

283 305 moveto
201 332 lineto
stroke

179 220 moveto
201 332 lineto
stroke

232 278 moveto
201 332 lineto
stroke

233 254 moveto
201 332 lineto
stroke

99 790 moveto
99 790 lineto
stroke

152 703 moveto
99 790 lineto
stroke

122 725 moveto
99 790 lineto
stroke

24 686 moveto
99 790 lineto
stroke

81 647 moveto
99 790 lineto
stroke

20 630 moveto
99 790 lineto
stroke

31 774 moveto
99 790 lineto
stroke

141 743 moveto
99 790 lineto
stroke

17 739 moveto
99 790 lineto
stroke

116 619 moveto
99 790 lineto
stroke

158 658 moveto
99 790 lineto
stroke

149 781 moveto
99 790 lineto
stroke

16 592 moveto
99 790 lineto
stroke

183 408 moveto
183 408 lineto
stroke

206 394 moveto
183 408 lineto
stroke

152 459 moveto
183 408 lineto
stroke

69 418 moveto
183 408 lineto
stroke

220 443 moveto
183 408 lineto
stroke

283 502 moveto
183 408 lineto
stroke

36 401 moveto
183 408 lineto
stroke

271 537 moveto
183 408 lineto
stroke

253 434 moveto
183 408 lineto
stroke

304 504 moveto
183 408 lineto
stroke

184 476 moveto
183 408 lineto
stroke

213 381 moveto
183 408 lineto
stroke

83 500 moveto
183 408 lineto
stroke

116 619 moveto
183 408 lineto
stroke

252 609 moveto
183 408 lineto
stroke

235 550 moveto
183 408 lineto
stroke

261 520 moveto
183 408 lineto
stroke

151 515 moveto
183 408 lineto
stroke

534 37 moveto
534 37 lineto
stroke

425 105 moveto
534 37 lineto
stroke

505 66 moveto
534 37 lineto
stroke

433 135 moveto
534 37 lineto
stroke

512 133 moveto
534 37 lineto
stroke

356 45 moveto
534 37 lineto
stroke

406 32 moveto
534 37 lineto
stroke

545 86 moveto
534 37 lineto
stroke

400 54 moveto
534 37 lineto
stroke

368 59 moveto
534 37 lineto
stroke

529 173 moveto
534 37 lineto
stroke

201 332 moveto
201 332 lineto
stroke

147 261 moveto
201 332 lineto
stroke

275 351 moveto
201 332 lineto
stroke

183 408 moveto
201 332 lineto
stroke

206 394 moveto
201 332 lineto
stroke

152 459 moveto
201 332 lineto
stroke

69 418 moveto
201 332 lineto
stroke

223 284 moveto
201 332 lineto
stroke

209 252 moveto
201 332 lineto
stroke

220 443 moveto
201 332 lineto
stroke

131 283 moveto
201 332 lineto
stroke

283 502 moveto
201 332 lineto
stroke

271 329 moveto
201 332 lineto
stroke

187 305 moveto
201 332 lineto
stroke

253 434 moveto
201 332 lineto
stroke

304 504 moveto
201 332 lineto
stroke

184 476 moveto
201 332 lineto
stroke

148 323 moveto
201 332 lineto
stroke

158 490 moveto
201 332 lineto
stroke

283 305 moveto
201 332 lineto
stroke

261 520 moveto
201 332 lineto
stroke

232 278 moveto
201 332 lineto
stroke

233 254 moveto
201 332 lineto
stroke

151 515 moveto
201 332 lineto
stroke

399 159 moveto
399 159 lineto
stroke

451 324 moveto
399 159 lineto
stroke

381 177 moveto
399 159 lineto
stroke

425 105 moveto
399 159 lineto
stroke

433 135 moveto
399 159 lineto
stroke

512 133 moveto
399 159 lineto
stroke

300 76 moveto
399 159 lineto
stroke

335 149 moveto
399 159 lineto
stroke

400 54 moveto
399 159 lineto
stroke

533 247 moveto
399 159 lineto
stroke

395 242 moveto
399 159 lineto
stroke

398 136 moveto
399 159 lineto
stroke

368 59 moveto
399 159 lineto
stroke

283 305 moveto
399 159 lineto
stroke

393 134 moveto
399 159 lineto
stroke

529 173 moveto
399 159 lineto
stroke

399 159 moveto
399 159 lineto
stroke

269 96 moveto
399 159 lineto
stroke

381 177 moveto
399 159 lineto
stroke

425 105 moveto
399 159 lineto
stroke

505 66 moveto
399 159 lineto
stroke

433 135 moveto
399 159 lineto
stroke

324 14 moveto
399 159 lineto
stroke

300 76 moveto
399 159 lineto
stroke

356 45 moveto
399 159 lineto
stroke

335 149 moveto
399 159 lineto
stroke

406 32 moveto
399 159 lineto
stroke

400 54 moveto
399 159 lineto
stroke

398 136 moveto
399 159 lineto
stroke

508 20 moveto
399 159 lineto
stroke

399 198 moveto
399 159 lineto
stroke

393 134 moveto
399 159 lineto
stroke

183 408 moveto
183 408 lineto
stroke

152 459 moveto
183 408 lineto
stroke

69 418 moveto
183 408 lineto
stroke

220 443 moveto
183 408 lineto
stroke

81 647 moveto
183 408 lineto
stroke

20 630 moveto
183 408 lineto
stroke

36 401 moveto
183 408 lineto
stroke

39 352 moveto
183 408 lineto
stroke

184 476 moveto
183 408 lineto
stroke

158 490 moveto
183 408 lineto
stroke

116 619 moveto
183 408 lineto
stroke

16 592 moveto
183 408 lineto
stroke

151 515 moveto
183 408 lineto
stroke

110 29 moveto
110 29 lineto
stroke

147 261 moveto
110 29 lineto
stroke

82 234 moveto
110 29 lineto
stroke

29 153 moveto
110 29 lineto
stroke

27 84 moveto
110 29 lineto
stroke

132 210 moveto
110 29 lineto
stroke

204 192 moveto
110 29 lineto
stroke

86 18 moveto
110 29 lineto
stroke

113 223 moveto
110 29 lineto
stroke

131 283 moveto
110 29 lineto
stroke

31 28 moveto
110 29 lineto
stroke

87 127 moveto
110 29 lineto
stroke

137 141 moveto
110 29 lineto
stroke

179 220 moveto
110 29 lineto
stroke

505 66 moveto
505 66 lineto
stroke

433 135 moveto
505 66 lineto
stroke

512 133 moveto
505 66 lineto
stroke

561 341 moveto
505 66 lineto
stroke

545 86 moveto
505 66 lineto
stroke

595 258 moveto
505 66 lineto
stroke

533 247 moveto
505 66 lineto
stroke

565 352 moveto
505 66 lineto
stroke

562 336 moveto
505 66 lineto
stroke

529 173 moveto
505 66 lineto
stroke

152 703 moveto
152 703 lineto
stroke

122 725 moveto
152 703 lineto
stroke

215 665 moveto
152 703 lineto
stroke

24 686 moveto
152 703 lineto
stroke

224 704 moveto
152 703 lineto
stroke

81 647 moveto
152 703 lineto
stroke

20 630 moveto
152 703 lineto
stroke

141 743 moveto
152 703 lineto
stroke

223 720 moveto
152 703 lineto
stroke

17 739 moveto
152 703 lineto
stroke

59 735 moveto
152 703 lineto
stroke

158 490 moveto
152 703 lineto
stroke

83 500 moveto
152 703 lineto
stroke

158 658 moveto
152 703 lineto
stroke

252 609 moveto
152 703 lineto
stroke

235 550 moveto
152 703 lineto
stroke

16 592 moveto
152 703 lineto
stroke

151 515 moveto
152 703 lineto
stroke

99 790 moveto
99 790 lineto
stroke

152 703 moveto
99 790 lineto
stroke

122 725 moveto
99 790 lineto
stroke

215 665 moveto
99 790 lineto
stroke

24 686 moveto
99 790 lineto
stroke

224 704 moveto
99 790 lineto
stroke

81 647 moveto
99 790 lineto
stroke

246 710 moveto
99 790 lineto
stroke

20 630 moveto
99 790 lineto
stroke

141 743 moveto
99 790 lineto
stroke

223 720 moveto
99 790 lineto
stroke

257 691 moveto
99 790 lineto
stroke

59 735 moveto
99 790 lineto
stroke

116 619 moveto
99 790 lineto
stroke

252 609 moveto
99 790 lineto
stroke

149 781 moveto
99 790 lineto
stroke

235 550 moveto
99 790 lineto
stroke

16 592 moveto
99 790 lineto
stroke

151 515 moveto
99 790 lineto
stroke

152 703 moveto
152 703 lineto
stroke

215 665 moveto
152 703 lineto
stroke

340 560 moveto
152 703 lineto
stroke

408 624 moveto
152 703 lineto
stroke

301 755 moveto
152 703 lineto
stroke

224 704 moveto
152 703 lineto
stroke

246 710 moveto
152 703 lineto
stroke

283 502 moveto
152 703 lineto
stroke

223 720 moveto
152 703 lineto
stroke

361 669 moveto
152 703 lineto
stroke

271 537 moveto
152 703 lineto
stroke

338 698 moveto
152 703 lineto
stroke

257 691 moveto
152 703 lineto
stroke

304 504 moveto
152 703 lineto
stroke

184 476 moveto
152 703 lineto
stroke

158 490 moveto
152 703 lineto
stroke

116 619 moveto
152 703 lineto
stroke

158 658 moveto
152 703 lineto
stroke

329 644 moveto
152 703 lineto
stroke

235 550 moveto
152 703 lineto
stroke

261 520 moveto
152 703 lineto
stroke

342 662 moveto
152 703 lineto
stroke

151 515 moveto
152 703 lineto
stroke

451 324 moveto
451 324 lineto
stroke

517 432 moveto
451 324 lineto
stroke

561 341 moveto
451 324 lineto
stroke

377 438 moveto
451 324 lineto
stroke

390 462 moveto
451 324 lineto
stroke

446 460 moveto
451 324 lineto
stroke

523 536 moveto
451 324 lineto
stroke

391 483 moveto
451 324 lineto
stroke

559 405 moveto
451 324 lineto
stroke

530 426 moveto
451 324 lineto
stroke

304 504 moveto
451 324 lineto
stroke

565 352 moveto
451 324 lineto
stroke

562 336 moveto
451 324 lineto
stroke

215 665 moveto
215 665 lineto
stroke

340 560 moveto
215 665 lineto
stroke

408 624 moveto
215 665 lineto
stroke

301 755 moveto
215 665 lineto
stroke

224 704 moveto
215 665 lineto
stroke

246 710 moveto
215 665 lineto
stroke

283 502 moveto
215 665 lineto
stroke

223 720 moveto
215 665 lineto
stroke

361 669 moveto
215 665 lineto
stroke

271 537 moveto
215 665 lineto
stroke

405 759 moveto
215 665 lineto
stroke

338 698 moveto
215 665 lineto
stroke

257 691 moveto
215 665 lineto
stroke

304 504 moveto
215 665 lineto
stroke

252 609 moveto
215 665 lineto
stroke

426 658 moveto
215 665 lineto
stroke

235 550 moveto
215 665 lineto
stroke

261 520 moveto
215 665 lineto
stroke

342 662 moveto
215 665 lineto
stroke

340 560 moveto
340 560 lineto
stroke

449 783 moveto
340 560 lineto
stroke

513 688 moveto
340 560 lineto
stroke

408 624 moveto
340 560 lineto
stroke

361 669 moveto
340 560 lineto
stroke

405 759 moveto
340 560 lineto
stroke

523 536 moveto
340 560 lineto
stroke

338 698 moveto
340 560 lineto
stroke

559 705 moveto
340 560 lineto
stroke

329 644 moveto
340 560 lineto
stroke

342 662 moveto
340 560 lineto
stroke

201 332 moveto
201 332 lineto
stroke

147 261 moveto
201 332 lineto
stroke

275 351 moveto
201 332 lineto
stroke

183 408 moveto
201 332 lineto
stroke

206 394 moveto
201 332 lineto
stroke

223 284 moveto
201 332 lineto
stroke

209 252 moveto
201 332 lineto
stroke

204 192 moveto
201 332 lineto
stroke

220 443 moveto
201 332 lineto
stroke

222 209 moveto
201 332 lineto
stroke

131 283 moveto
201 332 lineto
stroke

395 242 moveto
201 332 lineto
stroke

271 329 moveto
201 332 lineto
stroke

187 305 moveto
201 332 lineto
stroke

253 434 moveto
201 332 lineto
stroke

148 323 moveto
201 332 lineto
stroke

213 381 moveto
201 332 lineto
stroke

399 198 moveto
201 332 lineto
stroke

179 220 moveto
201 332 lineto
stroke

232 278 moveto
201 332 lineto
stroke

233 254 moveto
201 332 lineto
stroke

99 790 moveto
99 790 lineto
stroke

152 703 moveto
99 790 lineto
stroke

122 725 moveto
99 790 lineto
stroke

215 665 moveto
99 790 lineto
stroke

24 686 moveto
99 790 lineto
stroke

301 755 moveto
99 790 lineto
stroke

224 704 moveto
99 790 lineto
stroke

81 647 moveto
99 790 lineto
stroke

246 710 moveto
99 790 lineto
stroke

31 774 moveto
99 790 lineto
stroke

141 743 moveto
99 790 lineto
stroke

223 720 moveto
99 790 lineto
stroke

17 739 moveto
99 790 lineto
stroke

257 691 moveto
99 790 lineto
stroke

59 735 moveto
99 790 lineto
stroke

158 658 moveto
99 790 lineto
stroke

183 408 moveto
183 408 lineto
stroke

215 665 moveto
183 408 lineto
stroke

340 560 moveto
183 408 lineto
stroke

152 459 moveto
183 408 lineto
stroke

220 443 moveto
183 408 lineto
stroke

224 704 moveto
183 408 lineto
stroke

283 502 moveto
183 408 lineto
stroke

271 537 moveto
183 408 lineto
stroke

257 691 moveto
183 408 lineto
stroke

253 434 moveto
183 408 lineto
stroke

304 504 moveto
183 408 lineto
stroke

184 476 moveto
183 408 lineto
stroke

158 490 moveto
183 408 lineto
stroke

116 619 moveto
183 408 lineto
stroke

158 658 moveto
183 408 lineto
stroke

252 609 moveto
183 408 lineto
stroke

329 644 moveto
183 408 lineto
stroke

261 520 moveto
183 408 lineto
stroke

342 662 moveto
183 408 lineto
stroke

151 515 moveto
183 408 lineto
stroke

183 408 moveto
183 408 lineto
stroke

215 665 moveto
183 408 lineto
stroke

340 560 moveto
183 408 lineto
stroke

206 394 moveto
183 408 lineto
stroke

152 459 moveto
183 408 lineto
stroke

220 443 moveto
183 408 lineto
stroke

377 438 moveto
183 408 lineto
stroke

390 462 moveto
183 408 lineto
stroke

283 502 moveto
183 408 lineto
stroke

271 537 moveto
183 408 lineto
stroke

391 483 moveto
183 408 lineto
stroke

253 434 moveto
183 408 lineto
stroke

304 504 moveto
183 408 lineto
stroke

184 476 moveto
183 408 lineto
stroke

158 490 moveto
183 408 lineto
stroke

213 381 moveto
183 408 lineto
stroke

252 609 moveto
183 408 lineto
stroke

329 644 moveto
183 408 lineto
stroke

235 550 moveto
183 408 lineto
stroke

151 515 moveto
183 408 lineto
stroke

517 432 moveto
517 432 lineto
stroke

513 688 moveto
517 432 lineto
stroke

574 715 moveto
517 432 lineto
stroke

566 544 moveto
517 432 lineto
stroke

523 536 moveto
517 432 lineto
stroke

530 426 moveto
517 432 lineto
stroke

559 705 moveto
517 432 lineto
stroke

201 332 moveto
201 332 lineto
stroke

147 261 moveto
201 332 lineto
stroke

183 62 moveto
201 332 lineto
stroke

269 96 moveto
201 332 lineto
stroke

82 234 moveto
201 332 lineto
stroke

223 284 moveto
201 332 lineto
stroke

209 252 moveto
201 332 lineto
stroke

132 210 moveto
201 332 lineto
stroke

204 192 moveto
201 332 lineto
stroke

113 223 moveto
201 332 lineto
stroke

222 209 moveto
201 332 lineto
stroke

131 283 moveto
201 332 lineto
stroke

87 127 moveto
201 332 lineto
stroke

271 329 moveto
201 332 lineto
stroke

187 305 moveto
201 332 lineto
stroke

137 141 moveto
201 332 lineto
stroke

148 323 moveto
201 332 lineto
stroke

56 172 moveto
201 332 lineto
stroke

283 305 moveto
201 332 lineto
stroke

232 278 moveto
201 332 lineto
stroke

233 254 moveto
201 332 lineto
stroke

201 332 moveto
201 332 lineto
stroke

147 261 moveto
201 332 lineto
stroke

275 351 moveto
201 332 lineto
stroke

183 408 moveto
201 332 lineto
stroke

82 234 moveto
201 332 lineto
stroke

206 394 moveto
201 332 lineto
stroke

223 284 moveto
201 332 lineto
stroke

209 252 moveto
201 332 lineto
stroke

132 210 moveto
201 332 lineto
stroke

204 192 moveto
201 332 lineto
stroke

113 223 moveto
201 332 lineto
stroke

222 209 moveto
201 332 lineto
stroke

131 283 moveto
201 332 lineto
stroke

271 329 moveto
201 332 lineto
stroke

187 305 moveto
201 332 lineto
stroke

253 434 moveto
201 332 lineto
stroke

148 323 moveto
201 332 lineto
stroke

213 381 moveto
201 332 lineto
stroke

283 305 moveto
201 332 lineto
stroke

179 220 moveto
201 332 lineto
stroke

233 254 moveto
201 332 lineto
stroke

24 686 moveto
24 686 lineto
stroke

81 647 moveto
24 686 lineto
stroke

20 630 moveto
24 686 lineto
stroke

17 739 moveto
24 686 lineto
stroke

59 735 moveto
24 686 lineto
stroke

83 500 moveto
24 686 lineto
stroke

116 619 moveto
24 686 lineto
stroke

158 658 moveto
24 686 lineto
stroke

151 515 moveto
24 686 lineto
stroke

215 665 moveto
215 665 lineto
stroke

340 560 moveto
215 665 lineto
stroke

408 624 moveto
215 665 lineto
stroke

301 755 moveto
215 665 lineto
stroke

224 704 moveto
215 665 lineto
stroke

246 710 moveto
215 665 lineto
stroke

223 720 moveto
215 665 lineto
stroke

361 669 moveto
215 665 lineto
stroke

271 537 moveto
215 665 lineto
stroke

405 759 moveto
215 665 lineto
stroke

338 698 moveto
215 665 lineto
stroke

257 691 moveto
215 665 lineto
stroke

252 609 moveto
215 665 lineto
stroke

329 644 moveto
215 665 lineto
stroke

426 658 moveto
215 665 lineto
stroke

235 550 moveto
215 665 lineto
stroke

399 159 moveto
399 159 lineto
stroke

269 96 moveto
399 159 lineto
stroke

381 177 moveto
399 159 lineto
stroke

425 105 moveto
399 159 lineto
stroke

505 66 moveto
399 159 lineto
stroke

433 135 moveto
399 159 lineto
stroke

512 133 moveto
399 159 lineto
stroke

324 14 moveto
399 159 lineto
stroke

300 76 moveto
399 159 lineto
stroke

356 45 moveto
399 159 lineto
stroke

335 149 moveto
399 159 lineto
stroke

406 32 moveto
399 159 lineto
stroke

400 54 moveto
399 159 lineto
stroke

395 242 moveto
399 159 lineto
stroke

398 136 moveto
399 159 lineto
stroke

399 198 moveto
399 159 lineto
stroke

368 59 moveto
399 159 lineto
stroke

529 173 moveto
399 159 lineto
stroke

451 324 moveto
451 324 lineto
stroke

517 432 moveto
451 324 lineto
stroke

561 341 moveto
451 324 lineto
stroke

595 381 moveto
451 324 lineto
stroke

595 258 moveto
451 324 lineto
stroke

533 247 moveto
451 324 lineto
stroke

559 405 moveto
451 324 lineto
stroke

530 426 moveto
451 324 lineto
stroke

565 352 moveto
451 324 lineto
stroke

574 197 moveto
451 324 lineto
stroke

444 437 moveto
451 324 lineto
stroke

201 332 moveto
201 332 lineto
stroke

147 261 moveto
201 332 lineto
stroke

275 351 moveto
201 332 lineto
stroke

82 234 moveto
201 332 lineto
stroke

206 394 moveto
201 332 lineto
stroke

223 284 moveto
201 332 lineto
stroke

209 252 moveto
201 332 lineto
stroke

132 210 moveto
201 332 lineto
stroke

204 192 moveto
201 332 lineto
stroke

335 149 moveto
201 332 lineto
stroke

113 223 moveto
201 332 lineto
stroke

222 209 moveto
201 332 lineto
stroke

131 283 moveto
201 332 lineto
stroke

271 329 moveto
201 332 lineto
stroke

187 305 moveto
201 332 lineto
stroke

137 141 moveto
201 332 lineto
stroke

148 323 moveto
201 332 lineto
stroke

213 381 moveto
201 332 lineto
stroke

283 305 moveto
201 332 lineto
stroke

179 220 moveto
201 332 lineto
stroke

232 278 moveto
201 332 lineto
stroke

399 159 moveto
399 159 lineto
stroke

534 37 moveto
399 159 lineto
stroke

381 177 moveto
399 159 lineto
stroke

425 105 moveto
399 159 lineto
stroke

505 66 moveto
399 159 lineto
stroke

433 135 moveto
399 159 lineto
stroke

512 133 moveto
399 159 lineto
stroke

545 86 moveto
399 159 lineto
stroke

595 258 moveto
399 159 lineto
stroke

533 247 moveto
399 159 lineto
stroke

395 242 moveto
399 159 lineto
stroke

398 136 moveto
399 159 lineto
stroke

508 20 moveto
399 159 lineto
stroke

399 198 moveto
399 159 lineto
stroke

574 197 moveto
399 159 lineto
stroke

393 134 moveto
399 159 lineto
stroke

183 408 moveto
183 408 lineto
stroke

206 394 moveto
183 408 lineto
stroke

152 459 moveto
183 408 lineto
stroke

69 418 moveto
183 408 lineto
stroke

220 443 moveto
183 408 lineto
stroke

81 647 moveto
183 408 lineto
stroke

283 502 moveto
183 408 lineto
stroke

271 537 moveto
183 408 lineto
stroke

253 434 moveto
183 408 lineto
stroke

304 504 moveto
183 408 lineto
stroke

184 476 moveto
183 408 lineto
stroke

158 490 moveto
183 408 lineto
stroke

213 381 moveto
183 408 lineto
stroke

83 500 moveto
183 408 lineto
stroke

116 619 moveto
183 408 lineto
stroke

158 658 moveto
183 408 lineto
stroke

252 609 moveto
183 408 lineto
stroke

235 550 moveto
183 408 lineto
stroke

261 520 moveto
183 408 lineto
stroke

16 592 moveto
183 408 lineto
stroke

showpage
