sensibilitee specificitée 
0.082120 0.399768
0.137687 0.414842
0.178403 0.426630
0.219611 0.439223
0.253245 0.450101
0.285208 0.460911
0.317073 0.472140
0.344217 0.482258
0.366247 0.490714
0.385720 0.498434
0.402144 0.505129
0.418863 0.512137
0.433320 0.518348
0.447482 0.524623
0.463218 0.531743
0.478855 0.538977
0.492919 0.545767
0.505704 0.551930
0.519375 0.558816
0.533537 0.566176
0.548485 0.574119
0.561566 0.581133
0.575826 0.589003
0.587038 0.595394
0.597758 0.601675
0.608773 0.608233
0.619984 0.615063
0.631098 0.621875
0.642014 0.628799
0.652734 0.635716
0.662372 0.641986
0.673977 0.649836
0.684894 0.657436
0.695909 0.665259
0.703875 0.671037
0.714595 0.679018
0.723643 0.685963
0.731707 0.692169
0.737903 0.697125
0.748623 0.705835
0.755901 0.711831
0.763474 0.718087
0.771243 0.724734
0.778521 0.731040
0.786487 0.738055
0.794650 0.745459
0.802321 0.752494
0.810779 0.760399
0.818548 0.767866
0.825334 0.774505
0.830744 0.779839
0.836153 0.785309
0.842644 0.791911
0.849135 0.798688
0.856019 0.806041
0.861723 0.812158
0.866837 0.817692
0.872443 0.823969
0.878147 0.830390
0.882868 0.835769
0.889162 0.843058
0.893391 0.848030
0.898702 0.854376
0.904209 0.861056
0.909422 0.867520
0.915618 0.875399
0.918961 0.879515
0.923092 0.884865
0.927026 0.889944
0.931353 0.895681
0.934009 0.899174
0.937451 0.903768
0.940598 0.908151
0.943745 0.912498
0.947187 0.917283
0.950531 0.921955
0.954760 0.928058
0.957317 0.931782
0.961153 0.937490
0.964103 0.941842
0.966562 0.945548
0.969512 0.950048
0.971381 0.952882
0.972856 0.955122
0.974036 0.956940
0.975216 0.958790
0.976003 0.960013
0.976790 0.961216
0.977970 0.963085
0.978757 0.964309
0.979740 0.965843
0.979937 0.966011
0.979937 0.965920
0.980330 0.966409
0.980330 0.966302
0.980527 0.966520
0.980527 0.966435
0.980724 0.966684
0.980921 0.966934
0.980921 0.966866
0.981117 0.967095
0.981117 0.966976
0.981216 0.967069
0.981216 0.966966
0.981216 0.966817
0.981314 0.966887
0.981412 0.966952
0.981412 0.966778
0.981511 0.966866
0.981511 0.966708
0.981511 0.966524
0.981511 0.966369
0.981609 0.966373
0.981609 0.966215
0.981609 0.966105
0.981609 0.965969
0.981609 0.965845
0.981707 0.965878
0.981806 0.965917
0.981904 0.965951
0.981904 0.965748
0.981904 0.965569
0.981904 0.965394
0.981904 0.965178
0.981904 0.964999
0.981904 0.964778
0.981904 0.964451
0.981904 0.964174
0.981904 0.963943
0.981904 0.963665
0.982101 0.963796
0.982101 0.963417
0.982199 0.963360
0.982199 0.963076
0.982199 0.962788
0.982297 0.962663
0.982396 0.962387
0.982396 0.962004
0.982494 0.961745
0.982691 0.961697
0.982691 0.961182
0.982789 0.960885
0.982789 0.960335
0.982887 0.960000
0.982986 0.959664
0.983183 0.959402
0.983183 0.958785
0.983183 0.958150
0.983183 0.957367
0.983281 0.956721
0.983379 0.956218
0.983478 0.955731
0.983773 0.955585
0.983773 0.954645
0.983773 0.953859
0.983871 0.953250
0.984068 0.952866
0.984264 0.952564
0.984363 0.951730
0.984363 0.950789
0.984363 0.949572
0.984658 0.949169
0.984953 0.948658
0.985051 0.947277
0.986133 0.949426
0.986625 0.949405
0.986920 0.948668
0.987215 0.948000
0.987805 0.948117
0.988002 0.946608
0.988395 0.945497
0.988788 0.944633
0.989182 0.942529
0.989280 0.938314
0.989673 0.936170
0.990755 0.938562
0.991837 0.941135
0.992919 0.944530
0.993607 0.946058
0.993804 0.944346
0.994493 0.947170
0.994984 0.948433
0.995378 0.949134
0.995574 0.946871
0.996558 0.954604
0.996951 0.955840
0.997738 0.963259
0.998820 0.977654
0.999213 0.982456
0.999213 0.977465
0.999410 0.977099
0.999508 0.973404
0.999508 0.959350
0.999508 0.935065
0.999508 0.895833
0.999607 0.857143
0.999705 0.812500
0.999803 0.750000
0.999803 0.600000
0.999803 0.500000
0.999803 0.500000
0.999803 0.500000
0.999902 0.666667
0.999902 0.000000
0.999902 0.000000
1.000000 0.000000
1.000000 0.000000
1.000000 0.000000
1.000000 0.000000
1.000000 0.000000
1.000000 0.000000
1.000000 0.000000
1.000000 0.000000
1.000000 0.000000
1.000000 0.000000
1.000000 0.000000
1.000000 0.000000
1.000000 0.000000
1.000000 0.000000
1.000000 0.000000
1.000000 0.000000
1.000000 0.000000
1.000000 0.000000
1.000000 0.000000
1.000000 0.000000
1.000000 0.000000
1.000000 0.000000
1.000000 0.000000
1.000000 0.000000
1.000000 0.000000
1.000000 0.000000
1.000000 0.000000
1.000000 0.000000
1.000000 0.000000
1.000000 0.000000
1.000000 0.000000
1.000000 0.000000
1.000000 0.000000
1.000000 0.000000
1.000000 0.000000
1.000000 0.000000
1.000000 0.000000
1.000000 0.000000
1.000000 0.000000
1.000000 0.000000
1.000000 0.000000
1.000000 0.000000
1.000000 0.000000
1.000000 0.000000
1.000000 0.000000
1.000000 0.000000
1.000000 0.000000
1.000000 0.000000
1.000000 0.000000
1.000000 0.000000
1.000000 0.000000
