%!PS-Adobe-3.0
%%BoundingBox: 0 0 612 792

55 225 3 0 360 arc
0 setgray
fill
stroke

231 414 3 0 360 arc
0 setgray
fill
stroke

33 554 3 0 360 arc
0 setgray
fill
stroke

147 683 3 0 360 arc
0 setgray
fill
stroke

285 169 3 0 360 arc
0 setgray
fill
stroke

90 533 3 0 360 arc
0 setgray
fill
stroke

321 110 3 0 360 arc
0 setgray
fill
stroke

135 476 3 0 360 arc
0 setgray
fill
stroke

15 637 3 0 360 arc
0 setgray
fill
stroke

84 67 3 0 360 arc
0 setgray
fill
stroke

477 94 3 0 360 arc
0 setgray
fill
stroke

480 377 3 0 360 arc
0 setgray
fill
stroke

384 698 3 0 360 arc
0 setgray
fill
stroke

490 239 3 0 360 arc
0 setgray
fill
stroke

360 501 3 0 360 arc
0 setgray
fill
stroke

437 127 3 0 360 arc
0 setgray
fill
stroke

274 469 3 0 360 arc
0 setgray
fill
stroke

594 596 3 0 360 arc
0 setgray
fill
stroke

195 201 3 0 360 arc
0 setgray
fill
stroke

91 604 3 0 360 arc
0 setgray
fill
stroke


594 596 moveto
195 201 lineto
stroke

231 414 moveto
274 469 lineto
stroke

285 169 moveto
480 377 lineto
stroke

55 225 moveto
231 414 lineto
stroke

33 554 moveto
147 683 lineto
stroke

84 67 moveto
594 596 lineto
stroke

360 501 moveto
274 469 lineto
stroke

90 533 moveto
91 604 lineto
stroke

477 94 moveto
437 127 lineto
stroke

147 683 moveto
15 637 lineto
stroke

285 169 moveto
84 67 lineto
stroke

321 110 moveto
480 377 lineto
stroke

231 414 moveto
384 698 lineto
stroke

477 94 moveto
490 239 lineto
stroke

84 67 moveto
360 501 lineto
stroke

231 414 moveto
135 476 lineto
stroke

135 476 moveto
91 604 lineto
stroke

90 533 moveto
15 637 lineto
stroke

490 239 moveto
594 596 lineto
stroke

showpage
