note: 10 non trouvé
frequences souhaité : 261.63Hz , 277.18Hz , 329.63Hz , 349.23Hz , 392Hz , 440Hz , 493.88Hz , 
m = 9223372036854775809 , N = 0
Creation TEMPORELLE ---> FREQ

xmax:6.94911e-310 indMax :0
xmin:6.94911e-310 indMin : 0

xmax_min tres petit
Wave::write(char* fileName)
file_size = 36
Fin écriture du header
fwrite (data8, 
Fin écriture des datas

xmax:6.94911e-310 indMax :0
xmin:6.94911e-310 indMin : 0

xmax_min tres petit
Wave::write(char* fileName)
file_size = 36
Fin écriture du header
fwrite (data8, 
Fin écriture des datas

xmax:6.94911e-310 indMax :0
xmin:6.94911e-310 indMin : 0

xmax_min tres petit
Wave::write(char* fileName)
file_size = 36
Fin écriture du header
fwrite (data8, 
Fin écriture des datas

xmax:6.94911e-310 indMax :0
xmin:6.94911e-310 indMin : 0

xmax_min tres petit
Wave::write(char* fileName)
file_size = 36
Fin écriture du header
fwrite (data8, 
Fin écriture des datas
Filtrage!! 
Warning : erreur indice lors de filtre pass haut

xmax:6.94911e-310 indMax :0
xmin:6.94911e-310 indMin : 0

xmax_min tres petit
Wave::write(char* fileName)
file_size = 36
Fin écriture du header
fwrite (data8, 
Fin écriture des datas
