%!PS-Adobe-3.0
%%BoundingBox: 0 0 612 792

537 784 3 0 360 arc
0 setgray
fill
stroke

353 109 3 0 360 arc
0 setgray
fill
stroke

175 650 3 0 360 arc
0 setgray
fill
stroke

610 225 3 0 360 arc
0 setgray
fill
stroke

381 154 3 0 360 arc
0 setgray
fill
stroke

580 647 3 0 360 arc
0 setgray
fill
stroke

61 633 3 0 360 arc
0 setgray
fill
stroke

113 384 3 0 360 arc
0 setgray
fill
stroke

438 150 3 0 360 arc
0 setgray
fill
stroke

457 512 3 0 360 arc
0 setgray
fill
stroke

528 543 3 0 360 arc
0 setgray
fill
stroke

191 352 3 0 360 arc
0 setgray
fill
stroke

412 316 3 0 360 arc
0 setgray
fill
stroke

550 185 3 0 360 arc
0 setgray
fill
stroke

456 419 3 0 360 arc
0 setgray
fill
stroke

17 561 3 0 360 arc
0 setgray
fill
stroke

195 442 3 0 360 arc
0 setgray
fill
stroke

183 314 3 0 360 arc
0 setgray
fill
stroke

352 361 3 0 360 arc
0 setgray
fill
stroke

395 569 3 0 360 arc
0 setgray
fill
stroke

227 55 3 0 360 arc
0 setgray
fill
stroke

316 773 3 0 360 arc
0 setgray
fill
stroke

236 481 3 0 360 arc
0 setgray
fill
stroke

545 279 3 0 360 arc
0 setgray
fill
stroke

595 174 3 0 360 arc
0 setgray
fill
stroke

123 383 3 0 360 arc
0 setgray
fill
stroke

213 386 3 0 360 arc
0 setgray
fill
stroke

231 389 3 0 360 arc
0 setgray
fill
stroke

106 618 3 0 360 arc
0 setgray
fill
stroke

611 491 3 0 360 arc
0 setgray
fill
stroke

173 140 3 0 360 arc
0 setgray
fill
stroke

204 456 3 0 360 arc
0 setgray
fill
stroke

130 531 3 0 360 arc
0 setgray
fill
stroke

482 482 3 0 360 arc
0 setgray
fill
stroke

569 318 3 0 360 arc
0 setgray
fill
stroke

347 416 3 0 360 arc
0 setgray
fill
stroke

245 483 3 0 360 arc
0 setgray
fill
stroke

217 662 3 0 360 arc
0 setgray
fill
stroke

352 562 3 0 360 arc
0 setgray
fill
stroke

417 603 3 0 360 arc
0 setgray
fill
stroke

412 540 3 0 360 arc
0 setgray
fill
stroke

590 462 3 0 360 arc
0 setgray
fill
stroke

114 729 3 0 360 arc
0 setgray
fill
stroke

383 437 3 0 360 arc
0 setgray
fill
stroke

607 434 3 0 360 arc
0 setgray
fill
stroke

44 400 3 0 360 arc
0 setgray
fill
stroke

142 788 3 0 360 arc
0 setgray
fill
stroke

280 164 3 0 360 arc
0 setgray
fill
stroke

24 635 3 0 360 arc
0 setgray
fill
stroke

14 629 3 0 360 arc
0 setgray
fill
stroke

33 505 3 0 360 arc
0 setgray
fill
stroke

521 726 3 0 360 arc
0 setgray
fill
stroke

284 251 3 0 360 arc
0 setgray
fill
stroke

20 760 3 0 360 arc
0 setgray
fill
stroke

21 345 3 0 360 arc
0 setgray
fill
stroke

587 558 3 0 360 arc
0 setgray
fill
stroke

109 365 3 0 360 arc
0 setgray
fill
stroke

192 420 3 0 360 arc
0 setgray
fill
stroke

519 87 3 0 360 arc
0 setgray
fill
stroke

317 458 3 0 360 arc
0 setgray
fill
stroke

90 1 3 0 360 arc
0 setgray
fill
stroke

427 104 3 0 360 arc
0 setgray
fill
stroke

481 131 3 0 360 arc
0 setgray
fill
stroke

249 325 3 0 360 arc
0 setgray
fill
stroke

602 315 3 0 360 arc
0 setgray
fill
stroke

358 527 3 0 360 arc
0 setgray
fill
stroke

369 16 3 0 360 arc
0 setgray
fill
stroke

174 617 3 0 360 arc
0 setgray
fill
stroke

267 66 3 0 360 arc
0 setgray
fill
stroke

422 88 3 0 360 arc
0 setgray
fill
stroke

248 557 3 0 360 arc
0 setgray
fill
stroke

466 105 3 0 360 arc
0 setgray
fill
stroke

95 674 3 0 360 arc
0 setgray
fill
stroke

325 234 3 0 360 arc
0 setgray
fill
stroke

366 190 3 0 360 arc
0 setgray
fill
stroke

260 292 3 0 360 arc
0 setgray
fill
stroke

263 759 3 0 360 arc
0 setgray
fill
stroke

432 581 3 0 360 arc
0 setgray
fill
stroke

43 265 3 0 360 arc
0 setgray
fill
stroke

510 465 3 0 360 arc
0 setgray
fill
stroke

77 77 3 0 360 arc
0 setgray
fill
stroke

541 410 3 0 360 arc
0 setgray
fill
stroke

397 463 3 0 360 arc
0 setgray
fill
stroke

359 752 3 0 360 arc
0 setgray
fill
stroke

41 221 3 0 360 arc
0 setgray
fill
stroke

84 541 3 0 360 arc
0 setgray
fill
stroke

311 695 3 0 360 arc
0 setgray
fill
stroke

519 118 3 0 360 arc
0 setgray
fill
stroke

469 772 3 0 360 arc
0 setgray
fill
stroke

280 347 3 0 360 arc
0 setgray
fill
stroke

135 252 3 0 360 arc
0 setgray
fill
stroke

423 162 3 0 360 arc
0 setgray
fill
stroke

488 44 3 0 360 arc
0 setgray
fill
stroke

275 711 3 0 360 arc
0 setgray
fill
stroke

541 658 3 0 360 arc
0 setgray
fill
stroke

564 690 3 0 360 arc
0 setgray
fill
stroke

175 385 3 0 360 arc
0 setgray
fill
stroke

324 228 3 0 360 arc
0 setgray
fill
stroke

468 144 3 0 360 arc
0 setgray
fill
stroke

368 186 3 0 360 arc
0 setgray
fill
stroke

597 236 3 0 360 arc
0 setgray
fill
stroke

59 152 3 0 360 arc
0 setgray
fill
stroke

263 774 3 0 360 arc
0 setgray
fill
stroke

574 317 3 0 360 arc
0 setgray
fill
stroke

71 222 3 0 360 arc
0 setgray
fill
stroke

572 726 3 0 360 arc
0 setgray
fill
stroke

527 112 3 0 360 arc
0 setgray
fill
stroke

220 295 3 0 360 arc
0 setgray
fill
stroke

372 440 3 0 360 arc
0 setgray
fill
stroke

322 65 3 0 360 arc
0 setgray
fill
stroke

414 398 3 0 360 arc
0 setgray
fill
stroke

180 641 3 0 360 arc
0 setgray
fill
stroke

28 664 3 0 360 arc
0 setgray
fill
stroke

293 440 3 0 360 arc
0 setgray
fill
stroke

320 265 3 0 360 arc
0 setgray
fill
stroke

266 774 3 0 360 arc
0 setgray
fill
stroke

373 162 3 0 360 arc
0 setgray
fill
stroke

474 41 3 0 360 arc
0 setgray
fill
stroke

36 5 3 0 360 arc
0 setgray
fill
stroke

374 699 3 0 360 arc
0 setgray
fill
stroke

551 622 3 0 360 arc
0 setgray
fill
stroke

57 502 3 0 360 arc
0 setgray
fill
stroke

590 530 3 0 360 arc
0 setgray
fill
stroke

129 690 3 0 360 arc
0 setgray
fill
stroke

518 19 3 0 360 arc
0 setgray
fill
stroke

396 284 3 0 360 arc
0 setgray
fill
stroke

598 520 3 0 360 arc
0 setgray
fill
stroke

169 210 3 0 360 arc
0 setgray
fill
stroke

84 210 3 0 360 arc
0 setgray
fill
stroke

254 9 3 0 360 arc
0 setgray
fill
stroke

383 285 3 0 360 arc
0 setgray
fill
stroke

99 576 3 0 360 arc
0 setgray
fill
stroke

591 517 3 0 360 arc
0 setgray
fill
stroke

525 591 3 0 360 arc
0 setgray
fill
stroke

270 575 3 0 360 arc
0 setgray
fill
stroke

479 550 3 0 360 arc
0 setgray
fill
stroke

10 140 3 0 360 arc
0 setgray
fill
stroke

420 348 3 0 360 arc
0 setgray
fill
stroke

74 658 3 0 360 arc
0 setgray
fill
stroke

83 448 3 0 360 arc
0 setgray
fill
stroke

389 603 3 0 360 arc
0 setgray
fill
stroke

172 103 3 0 360 arc
0 setgray
fill
stroke

187 465 3 0 360 arc
0 setgray
fill
stroke

133 523 3 0 360 arc
0 setgray
fill
stroke

547 764 3 0 360 arc
0 setgray
fill
stroke

548 750 3 0 360 arc
0 setgray
fill
stroke

41 123 3 0 360 arc
0 setgray
fill
stroke

335 704 3 0 360 arc
0 setgray
fill
stroke

353 752 3 0 360 arc
0 setgray
fill
stroke

519 171 3 0 360 arc
0 setgray
fill
stroke

536 602 3 0 360 arc
0 setgray
fill
stroke

577 742 3 0 360 arc
0 setgray
fill
stroke

183 782 3 0 360 arc
0 setgray
fill
stroke

278 221 3 0 360 arc
0 setgray
fill
stroke

196 145 3 0 360 arc
0 setgray
fill
stroke

110 133 3 0 360 arc
0 setgray
fill
stroke

100 10 3 0 360 arc
0 setgray
fill
stroke

93 87 3 0 360 arc
0 setgray
fill
stroke

368 350 3 0 360 arc
0 setgray
fill
stroke

303 751 3 0 360 arc
0 setgray
fill
stroke

358 743 3 0 360 arc
0 setgray
fill
stroke

494 579 3 0 360 arc
0 setgray
fill
stroke

147 53 3 0 360 arc
0 setgray
fill
stroke

291 716 3 0 360 arc
0 setgray
fill
stroke

337 595 3 0 360 arc
0 setgray
fill
stroke

383 349 3 0 360 arc
0 setgray
fill
stroke

457 25 3 0 360 arc
0 setgray
fill
stroke

551 748 3 0 360 arc
0 setgray
fill
stroke

607 198 3 0 360 arc
0 setgray
fill
stroke

158 63 3 0 360 arc
0 setgray
fill
stroke

451 248 3 0 360 arc
0 setgray
fill
stroke

520 100 3 0 360 arc
0 setgray
fill
stroke

294 433 3 0 360 arc
0 setgray
fill
stroke

583 534 3 0 360 arc
0 setgray
fill
stroke

584 598 3 0 360 arc
0 setgray
fill
stroke

98 114 3 0 360 arc
0 setgray
fill
stroke

514 212 3 0 360 arc
0 setgray
fill
stroke

602 625 3 0 360 arc
0 setgray
fill
stroke

553 785 3 0 360 arc
0 setgray
fill
stroke

421 78 3 0 360 arc
0 setgray
fill
stroke

352 444 3 0 360 arc
0 setgray
fill
stroke

156 594 3 0 360 arc
0 setgray
fill
stroke

413 327 3 0 360 arc
0 setgray
fill
stroke

98 676 3 0 360 arc
0 setgray
fill
stroke

57 328 3 0 360 arc
0 setgray
fill
stroke

343 77 3 0 360 arc
0 setgray
fill
stroke

396 144 3 0 360 arc
0 setgray
fill
stroke

193 635 3 0 360 arc
0 setgray
fill
stroke

125 164 3 0 360 arc
0 setgray
fill
stroke

357 169 3 0 360 arc
0 setgray
fill
stroke

311 671 3 0 360 arc
0 setgray
fill
stroke

300 121 3 0 360 arc
0 setgray
fill
stroke

179 378 3 0 360 arc
0 setgray
fill
stroke

6 156 3 0 360 arc
0 setgray
fill
stroke

315 103 3 0 360 arc
0 setgray
fill
stroke

143 560 3 0 360 arc
0 setgray
fill
stroke

7 263 3 0 360 arc
0 setgray
fill
stroke

126 617 3 0 360 arc
0 setgray
fill
stroke

266 512 3 0 360 arc
0 setgray
fill
stroke

573 324 3 0 360 arc
0 setgray
fill
stroke

353 449 3 0 360 arc
0 setgray
fill
stroke

93 225 3 0 360 arc
0 setgray
fill
stroke

429 178 3 0 360 arc
0 setgray
fill
stroke

572 770 3 0 360 arc
0 setgray
fill
stroke

322 246 3 0 360 arc
0 setgray
fill
stroke

524 505 3 0 360 arc
0 setgray
fill
stroke

33 624 3 0 360 arc
0 setgray
fill
stroke

590 409 3 0 360 arc
0 setgray
fill
stroke

246 380 3 0 360 arc
0 setgray
fill
stroke

205 181 3 0 360 arc
0 setgray
fill
stroke

411 400 3 0 360 arc
0 setgray
fill
stroke

489 39 3 0 360 arc
0 setgray
fill
stroke

391 703 3 0 360 arc
0 setgray
fill
stroke

584 262 3 0 360 arc
0 setgray
fill
stroke

100 165 3 0 360 arc
0 setgray
fill
stroke

242 73 3 0 360 arc
0 setgray
fill
stroke

110 387 3 0 360 arc
0 setgray
fill
stroke

334 215 3 0 360 arc
0 setgray
fill
stroke

365 367 3 0 360 arc
0 setgray
fill
stroke

354 307 3 0 360 arc
0 setgray
fill
stroke

485 534 3 0 360 arc
0 setgray
fill
stroke

453 138 3 0 360 arc
0 setgray
fill
stroke

222 647 3 0 360 arc
0 setgray
fill
stroke

475 376 3 0 360 arc
0 setgray
fill
stroke

416 121 3 0 360 arc
0 setgray
fill
stroke

161 519 3 0 360 arc
0 setgray
fill
stroke

161 307 3 0 360 arc
0 setgray
fill
stroke

378 193 3 0 360 arc
0 setgray
fill
stroke

398 222 3 0 360 arc
0 setgray
fill
stroke

471 442 3 0 360 arc
0 setgray
fill
stroke

28 441 3 0 360 arc
0 setgray
fill
stroke

83 210 3 0 360 arc
0 setgray
fill
stroke

52 22 3 0 360 arc
0 setgray
fill
stroke

550 201 3 0 360 arc
0 setgray
fill
stroke

585 20 3 0 360 arc
0 setgray
fill
stroke

236 402 3 0 360 arc
0 setgray
fill
stroke

302 329 3 0 360 arc
0 setgray
fill
stroke

108 720 3 0 360 arc
0 setgray
fill
stroke

381 96 3 0 360 arc
0 setgray
fill
stroke

124 221 3 0 360 arc
0 setgray
fill
stroke

397 661 3 0 360 arc
0 setgray
fill
stroke

144 538 3 0 360 arc
0 setgray
fill
stroke

552 307 3 0 360 arc
0 setgray
fill
stroke

243 195 3 0 360 arc
0 setgray
fill
stroke

5 586 3 0 360 arc
0 setgray
fill
stroke

581 717 3 0 360 arc
0 setgray
fill
stroke

559 753 3 0 360 arc
0 setgray
fill
stroke

44 71 3 0 360 arc
0 setgray
fill
stroke

215 162 3 0 360 arc
0 setgray
fill
stroke

288 564 3 0 360 arc
0 setgray
fill
stroke

18 381 3 0 360 arc
0 setgray
fill
stroke

390 336 3 0 360 arc
0 setgray
fill
stroke

474 514 3 0 360 arc
0 setgray
fill
stroke

588 495 3 0 360 arc
0 setgray
fill
stroke

214 368 3 0 360 arc
0 setgray
fill
stroke

300 627 3 0 360 arc
0 setgray
fill
stroke

129 265 3 0 360 arc
0 setgray
fill
stroke

302 14 3 0 360 arc
0 setgray
fill
stroke

228 113 3 0 360 arc
0 setgray
fill
stroke

281 701 3 0 360 arc
0 setgray
fill
stroke

520 446 3 0 360 arc
0 setgray
fill
stroke

267 735 3 0 360 arc
0 setgray
fill
stroke

531 563 3 0 360 arc
0 setgray
fill
stroke

211 782 3 0 360 arc
0 setgray
fill
stroke

165 679 3 0 360 arc
0 setgray
fill
stroke

194 507 3 0 360 arc
0 setgray
fill
stroke

284 528 3 0 360 arc
0 setgray
fill
stroke

375 579 3 0 360 arc
0 setgray
fill
stroke

215 115 3 0 360 arc
0 setgray
fill
stroke

390 69 3 0 360 arc
0 setgray
fill
stroke

195 7 3 0 360 arc
0 setgray
fill
stroke

301 520 3 0 360 arc
0 setgray
fill
stroke

396 79 3 0 360 arc
0 setgray
fill
stroke

138 444 3 0 360 arc
0 setgray
fill
stroke

280 543 3 0 360 arc
0 setgray
fill
stroke

245 492 3 0 360 arc
0 setgray
fill
stroke

286 780 3 0 360 arc
0 setgray
fill
stroke

400 205 3 0 360 arc
0 setgray
fill
stroke

83 51 3 0 360 arc
0 setgray
fill
stroke

340 84 3 0 360 arc
0 setgray
fill
stroke

370 550 3 0 360 arc
0 setgray
fill
stroke

175 599 3 0 360 arc
0 setgray
fill
stroke

251 242 3 0 360 arc
0 setgray
fill
stroke

546 538 3 0 360 arc
0 setgray
fill
stroke

33 268 3 0 360 arc
0 setgray
fill
stroke

155 640 3 0 360 arc
0 setgray
fill
stroke

147 112 3 0 360 arc
0 setgray
fill
stroke

169 147 3 0 360 arc
0 setgray
fill
stroke

63 703 3 0 360 arc
0 setgray
fill
stroke

555 776 3 0 360 arc
0 setgray
fill
stroke

471 745 3 0 360 arc
0 setgray
fill
stroke

404 253 3 0 360 arc
0 setgray
fill
stroke

445 712 3 0 360 arc
0 setgray
fill
stroke

350 293 3 0 360 arc
0 setgray
fill
stroke

547 454 3 0 360 arc
0 setgray
fill
stroke

393 502 3 0 360 arc
0 setgray
fill
stroke

357 369 3 0 360 arc
0 setgray
fill
stroke

93 300 3 0 360 arc
0 setgray
fill
stroke

251 295 3 0 360 arc
0 setgray
fill
stroke

334 769 3 0 360 arc
0 setgray
fill
stroke

95 253 3 0 360 arc
0 setgray
fill
stroke

129 639 3 0 360 arc
0 setgray
fill
stroke

562 586 3 0 360 arc
0 setgray
fill
stroke

174 157 3 0 360 arc
0 setgray
fill
stroke

606 386 3 0 360 arc
0 setgray
fill
stroke

357 753 3 0 360 arc
0 setgray
fill
stroke

535 418 3 0 360 arc
0 setgray
fill
stroke

482 672 3 0 360 arc
0 setgray
fill
stroke

86 472 3 0 360 arc
0 setgray
fill
stroke

29 110 3 0 360 arc
0 setgray
fill
stroke

43 151 3 0 360 arc
0 setgray
fill
stroke

72 148 3 0 360 arc
0 setgray
fill
stroke

124 721 3 0 360 arc
0 setgray
fill
stroke

140 139 3 0 360 arc
0 setgray
fill
stroke

548 94 3 0 360 arc
0 setgray
fill
stroke

404 587 3 0 360 arc
0 setgray
fill
stroke

95 534 3 0 360 arc
0 setgray
fill
stroke

146 313 3 0 360 arc
0 setgray
fill
stroke

220 229 3 0 360 arc
0 setgray
fill
stroke

543 626 3 0 360 arc
0 setgray
fill
stroke

55 412 3 0 360 arc
0 setgray
fill
stroke

423 554 3 0 360 arc
0 setgray
fill
stroke

182 401 3 0 360 arc
0 setgray
fill
stroke

218 177 3 0 360 arc
0 setgray
fill
stroke

386 408 3 0 360 arc
0 setgray
fill
stroke

35 609 3 0 360 arc
0 setgray
fill
stroke

287 699 3 0 360 arc
0 setgray
fill
stroke

89 87 3 0 360 arc
0 setgray
fill
stroke

16 13 3 0 360 arc
0 setgray
fill
stroke

46 652 3 0 360 arc
0 setgray
fill
stroke

575 143 3 0 360 arc
0 setgray
fill
stroke

211 254 3 0 360 arc
0 setgray
fill
stroke

245 482 3 0 360 arc
0 setgray
fill
stroke

460 13 3 0 360 arc
0 setgray
fill
stroke

423 47 3 0 360 arc
0 setgray
fill
stroke

296 134 3 0 360 arc
0 setgray
fill
stroke

423 35 3 0 360 arc
0 setgray
fill
stroke

200 298 3 0 360 arc
0 setgray
fill
stroke

273 722 3 0 360 arc
0 setgray
fill
stroke

7 119 3 0 360 arc
0 setgray
fill
stroke

410 562 3 0 360 arc
0 setgray
fill
stroke

348 697 3 0 360 arc
0 setgray
fill
stroke

505 293 3 0 360 arc
0 setgray
fill
stroke

368 105 3 0 360 arc
0 setgray
fill
stroke

538 611 3 0 360 arc
0 setgray
fill
stroke

89 13 3 0 360 arc
0 setgray
fill
stroke

610 12 3 0 360 arc
0 setgray
fill
stroke

175 439 3 0 360 arc
0 setgray
fill
stroke

530 635 3 0 360 arc
0 setgray
fill
stroke

324 213 3 0 360 arc
0 setgray
fill
stroke

158 692 3 0 360 arc
0 setgray
fill
stroke

563 150 3 0 360 arc
0 setgray
fill
stroke

600 635 3 0 360 arc
0 setgray
fill
stroke

448 765 3 0 360 arc
0 setgray
fill
stroke

314 723 3 0 360 arc
0 setgray
fill
stroke

180 112 3 0 360 arc
0 setgray
fill
stroke

241 420 3 0 360 arc
0 setgray
fill
stroke

70 762 3 0 360 arc
0 setgray
fill
stroke

225 202 3 0 360 arc
0 setgray
fill
stroke

399 619 3 0 360 arc
0 setgray
fill
stroke

597 632 3 0 360 arc
0 setgray
fill
stroke

396 775 3 0 360 arc
0 setgray
fill
stroke

48 499 3 0 360 arc
0 setgray
fill
stroke

582 147 3 0 360 arc
0 setgray
fill
stroke

467 475 3 0 360 arc
0 setgray
fill
stroke

52 625 3 0 360 arc
0 setgray
fill
stroke

303 508 3 0 360 arc
0 setgray
fill
stroke

595 111 3 0 360 arc
0 setgray
fill
stroke

27 231 3 0 360 arc
0 setgray
fill
stroke

424 125 3 0 360 arc
0 setgray
fill
stroke

18 568 3 0 360 arc
0 setgray
fill
stroke

326 455 3 0 360 arc
0 setgray
fill
stroke

392 448 3 0 360 arc
0 setgray
fill
stroke

137 309 3 0 360 arc
0 setgray
fill
stroke

578 300 3 0 360 arc
0 setgray
fill
stroke

28 472 3 0 360 arc
0 setgray
fill
stroke

156 368 3 0 360 arc
0 setgray
fill
stroke

419 385 3 0 360 arc
0 setgray
fill
stroke

256 478 3 0 360 arc
0 setgray
fill
stroke

44 219 3 0 360 arc
0 setgray
fill
stroke

557 492 3 0 360 arc
0 setgray
fill
stroke

124 536 3 0 360 arc
0 setgray
fill
stroke

584 628 3 0 360 arc
0 setgray
fill
stroke

412 160 3 0 360 arc
0 setgray
fill
stroke

283 132 3 0 360 arc
0 setgray
fill
stroke

85 230 3 0 360 arc
0 setgray
fill
stroke

573 123 3 0 360 arc
0 setgray
fill
stroke

305 497 3 0 360 arc
0 setgray
fill
stroke

551 119 3 0 360 arc
0 setgray
fill
stroke

231 30 3 0 360 arc
0 setgray
fill
stroke

239 743 3 0 360 arc
0 setgray
fill
stroke

214 360 3 0 360 arc
0 setgray
fill
stroke

428 757 3 0 360 arc
0 setgray
fill
stroke

473 196 3 0 360 arc
0 setgray
fill
stroke

155 85 3 0 360 arc
0 setgray
fill
stroke

55 604 3 0 360 arc
0 setgray
fill
stroke

1 267 3 0 360 arc
0 setgray
fill
stroke

221 586 3 0 360 arc
0 setgray
fill
stroke

31 397 3 0 360 arc
0 setgray
fill
stroke

330 763 3 0 360 arc
0 setgray
fill
stroke

601 631 3 0 360 arc
0 setgray
fill
stroke

361 238 3 0 360 arc
0 setgray
fill
stroke

87 486 3 0 360 arc
0 setgray
fill
stroke

176 134 3 0 360 arc
0 setgray
fill
stroke

497 351 3 0 360 arc
0 setgray
fill
stroke

416 33 3 0 360 arc
0 setgray
fill
stroke

282 466 3 0 360 arc
0 setgray
fill
stroke

265 222 3 0 360 arc
0 setgray
fill
stroke

396 738 3 0 360 arc
0 setgray
fill
stroke

526 675 3 0 360 arc
0 setgray
fill
stroke

515 633 3 0 360 arc
0 setgray
fill
stroke

524 408 3 0 360 arc
0 setgray
fill
stroke

505 437 3 0 360 arc
0 setgray
fill
stroke

362 12 3 0 360 arc
0 setgray
fill
stroke

510 348 3 0 360 arc
0 setgray
fill
stroke

595 371 3 0 360 arc
0 setgray
fill
stroke

368 776 3 0 360 arc
0 setgray
fill
stroke

322 743 3 0 360 arc
0 setgray
fill
stroke

399 154 3 0 360 arc
0 setgray
fill
stroke

481 84 3 0 360 arc
0 setgray
fill
stroke

521 50 3 0 360 arc
0 setgray
fill
stroke

25 407 3 0 360 arc
0 setgray
fill
stroke

532 110 3 0 360 arc
0 setgray
fill
stroke

162 748 3 0 360 arc
0 setgray
fill
stroke

416 256 3 0 360 arc
0 setgray
fill
stroke

128 479 3 0 360 arc
0 setgray
fill
stroke

402 128 3 0 360 arc
0 setgray
fill
stroke

580 7 3 0 360 arc
0 setgray
fill
stroke

529 490 3 0 360 arc
0 setgray
fill
stroke

91 407 3 0 360 arc
0 setgray
fill
stroke

155 595 3 0 360 arc
0 setgray
fill
stroke

58 235 3 0 360 arc
0 setgray
fill
stroke

163 396 3 0 360 arc
0 setgray
fill
stroke

366 58 3 0 360 arc
0 setgray
fill
stroke

10 71 3 0 360 arc
0 setgray
fill
stroke

591 63 3 0 360 arc
0 setgray
fill
stroke

137 652 3 0 360 arc
0 setgray
fill
stroke

595 238 3 0 360 arc
0 setgray
fill
stroke

295 109 3 0 360 arc
0 setgray
fill
stroke

246 619 3 0 360 arc
0 setgray
fill
stroke

93 426 3 0 360 arc
0 setgray
fill
stroke

35 63 3 0 360 arc
0 setgray
fill
stroke

158 3 3 0 360 arc
0 setgray
fill
stroke

50 127 3 0 360 arc
0 setgray
fill
stroke

205 482 3 0 360 arc
0 setgray
fill
stroke

246 540 3 0 360 arc
0 setgray
fill
stroke

573 321 3 0 360 arc
0 setgray
fill
stroke

271 664 3 0 360 arc
0 setgray
fill
stroke

429 761 3 0 360 arc
0 setgray
fill
stroke

559 476 3 0 360 arc
0 setgray
fill
stroke

489 266 3 0 360 arc
0 setgray
fill
stroke

231 554 3 0 360 arc
0 setgray
fill
stroke

414 610 3 0 360 arc
0 setgray
fill
stroke

556 689 3 0 360 arc
0 setgray
fill
stroke

231 587 3 0 360 arc
0 setgray
fill
stroke

425 685 3 0 360 arc
0 setgray
fill
stroke

437 424 3 0 360 arc
0 setgray
fill
stroke

80 576 3 0 360 arc
0 setgray
fill
stroke

463 419 3 0 360 arc
0 setgray
fill
stroke

415 128 3 0 360 arc
0 setgray
fill
stroke

17 246 3 0 360 arc
0 setgray
fill
stroke

289 194 3 0 360 arc
0 setgray
fill
stroke

99 252 3 0 360 arc
0 setgray
fill
stroke

586 492 3 0 360 arc
0 setgray
fill
stroke

330 189 3 0 360 arc
0 setgray
fill
stroke

228 63 3 0 360 arc
0 setgray
fill
stroke

203 116 3 0 360 arc
0 setgray
fill
stroke

93 382 3 0 360 arc
0 setgray
fill
stroke

546 218 3 0 360 arc
0 setgray
fill
stroke

459 454 3 0 360 arc
0 setgray
fill
stroke

101 396 3 0 360 arc
0 setgray
fill
stroke

363 626 3 0 360 arc
0 setgray
fill
stroke

476 495 3 0 360 arc
0 setgray
fill
stroke

266 255 3 0 360 arc
0 setgray
fill
stroke

318 122 3 0 360 arc
0 setgray
fill
stroke

256 623 3 0 360 arc
0 setgray
fill
stroke

476 453 3 0 360 arc
0 setgray
fill
stroke

185 735 3 0 360 arc
0 setgray
fill
stroke

237 484 3 0 360 arc
0 setgray
fill
stroke

235 135 3 0 360 arc
0 setgray
fill
stroke

437 12 3 0 360 arc
0 setgray
fill
stroke

34 137 3 0 360 arc
0 setgray
fill
stroke

56 216 3 0 360 arc
0 setgray
fill
stroke

519 654 3 0 360 arc
0 setgray
fill
stroke

38 598 3 0 360 arc
0 setgray
fill
stroke

28 47 3 0 360 arc
0 setgray
fill
stroke

255 263 3 0 360 arc
0 setgray
fill
stroke

421 623 3 0 360 arc
0 setgray
fill
stroke

579 92 3 0 360 arc
0 setgray
fill
stroke

319 681 3 0 360 arc
0 setgray
fill
stroke

502 71 3 0 360 arc
0 setgray
fill
stroke

9 382 3 0 360 arc
0 setgray
fill
stroke

380 138 3 0 360 arc
0 setgray
fill
stroke

73 237 3 0 360 arc
0 setgray
fill
stroke

226 360 3 0 360 arc
0 setgray
fill
stroke

445 304 3 0 360 arc
0 setgray
fill
stroke

516 171 3 0 360 arc
0 setgray
fill
stroke

565 500 3 0 360 arc
0 setgray
fill
stroke

351 560 3 0 360 arc
0 setgray
fill
stroke

435 621 3 0 360 arc
0 setgray
fill
stroke

582 479 3 0 360 arc
0 setgray
fill
stroke

272 369 3 0 360 arc
0 setgray
fill
stroke

471 350 3 0 360 arc
0 setgray
fill
stroke

345 310 3 0 360 arc
0 setgray
fill
stroke

514 88 3 0 360 arc
0 setgray
fill
stroke

595 456 3 0 360 arc
0 setgray
fill
stroke

499 512 3 0 360 arc
0 setgray
fill
stroke

514 283 3 0 360 arc
0 setgray
fill
stroke

543 171 3 0 360 arc
0 setgray
fill
stroke

16 281 3 0 360 arc
0 setgray
fill
stroke

27 693 3 0 360 arc
0 setgray
fill
stroke

565 112 3 0 360 arc
0 setgray
fill
stroke

73 626 3 0 360 arc
0 setgray
fill
stroke

376 260 3 0 360 arc
0 setgray
fill
stroke

122 575 3 0 360 arc
0 setgray
fill
stroke

558 561 3 0 360 arc
0 setgray
fill
stroke

407 558 3 0 360 arc
0 setgray
fill
stroke

190 606 3 0 360 arc
0 setgray
fill
stroke

528 731 3 0 360 arc
0 setgray
fill
stroke

448 358 3 0 360 arc
0 setgray
fill
stroke

331 323 3 0 360 arc
0 setgray
fill
stroke

94 578 3 0 360 arc
0 setgray
fill
stroke

168 660 3 0 360 arc
0 setgray
fill
stroke

229 295 3 0 360 arc
0 setgray
fill
stroke

327 190 3 0 360 arc
0 setgray
fill
stroke

484 371 3 0 360 arc
0 setgray
fill
stroke

323 762 3 0 360 arc
0 setgray
fill
stroke

159 556 3 0 360 arc
0 setgray
fill
stroke

216 695 3 0 360 arc
0 setgray
fill
stroke

565 591 3 0 360 arc
0 setgray
fill
stroke

479 707 3 0 360 arc
0 setgray
fill
stroke

304 542 3 0 360 arc
0 setgray
fill
stroke

345 98 3 0 360 arc
0 setgray
fill
stroke

284 190 3 0 360 arc
0 setgray
fill
stroke

162 480 3 0 360 arc
0 setgray
fill
stroke

564 457 3 0 360 arc
0 setgray
fill
stroke

423 171 3 0 360 arc
0 setgray
fill
stroke

584 447 3 0 360 arc
0 setgray
fill
stroke

399 705 3 0 360 arc
0 setgray
fill
stroke

434 671 3 0 360 arc
0 setgray
fill
stroke

191 127 3 0 360 arc
0 setgray
fill
stroke

214 587 3 0 360 arc
0 setgray
fill
stroke

5 733 3 0 360 arc
0 setgray
fill
stroke

171 93 3 0 360 arc
0 setgray
fill
stroke

40 176 3 0 360 arc
0 setgray
fill
stroke

432 123 3 0 360 arc
0 setgray
fill
stroke

379 644 3 0 360 arc
0 setgray
fill
stroke

53 365 3 0 360 arc
0 setgray
fill
stroke

363 229 3 0 360 arc
0 setgray
fill
stroke

247 381 3 0 360 arc
0 setgray
fill
stroke

457 703 3 0 360 arc
0 setgray
fill
stroke

406 521 3 0 360 arc
0 setgray
fill
stroke

118 682 3 0 360 arc
0 setgray
fill
stroke

120 122 3 0 360 arc
0 setgray
fill
stroke

324 519 3 0 360 arc
0 setgray
fill
stroke

505 299 3 0 360 arc
0 setgray
fill
stroke

250 251 3 0 360 arc
0 setgray
fill
stroke

290 343 3 0 360 arc
0 setgray
fill
stroke

352 246 3 0 360 arc
0 setgray
fill
stroke

220 428 3 0 360 arc
0 setgray
fill
stroke

330 129 3 0 360 arc
0 setgray
fill
stroke

172 314 3 0 360 arc
0 setgray
fill
stroke

521 225 3 0 360 arc
0 setgray
fill
stroke

83 524 3 0 360 arc
0 setgray
fill
stroke

435 42 3 0 360 arc
0 setgray
fill
stroke

57 764 3 0 360 arc
0 setgray
fill
stroke

529 552 3 0 360 arc
0 setgray
fill
stroke

293 628 3 0 360 arc
0 setgray
fill
stroke

586 270 3 0 360 arc
0 setgray
fill
stroke

426 46 3 0 360 arc
0 setgray
fill
stroke

229 551 3 0 360 arc
0 setgray
fill
stroke

202 243 3 0 360 arc
0 setgray
fill
stroke

170 240 3 0 360 arc
0 setgray
fill
stroke

478 394 3 0 360 arc
0 setgray
fill
stroke

214 230 3 0 360 arc
0 setgray
fill
stroke

174 509 3 0 360 arc
0 setgray
fill
stroke

611 382 3 0 360 arc
0 setgray
fill
stroke

515 141 3 0 360 arc
0 setgray
fill
stroke

444 310 3 0 360 arc
0 setgray
fill
stroke

537 663 3 0 360 arc
0 setgray
fill
stroke

188 379 3 0 360 arc
0 setgray
fill
stroke

419 697 3 0 360 arc
0 setgray
fill
stroke

319 137 3 0 360 arc
0 setgray
fill
stroke

497 581 3 0 360 arc
0 setgray
fill
stroke

387 291 3 0 360 arc
0 setgray
fill
stroke

464 4 3 0 360 arc
0 setgray
fill
stroke

246 574 3 0 360 arc
0 setgray
fill
stroke

355 452 3 0 360 arc
0 setgray
fill
stroke

418 633 3 0 360 arc
0 setgray
fill
stroke

70 109 3 0 360 arc
0 setgray
fill
stroke

179 477 3 0 360 arc
0 setgray
fill
stroke

310 231 3 0 360 arc
0 setgray
fill
stroke

335 249 3 0 360 arc
0 setgray
fill
stroke

444 275 3 0 360 arc
0 setgray
fill
stroke

71 45 3 0 360 arc
0 setgray
fill
stroke

306 311 3 0 360 arc
0 setgray
fill
stroke

224 382 3 0 360 arc
0 setgray
fill
stroke

108 363 3 0 360 arc
0 setgray
fill
stroke

87 550 3 0 360 arc
0 setgray
fill
stroke

97 526 3 0 360 arc
0 setgray
fill
stroke

49 381 3 0 360 arc
0 setgray
fill
stroke

350 492 3 0 360 arc
0 setgray
fill
stroke

487 577 3 0 360 arc
0 setgray
fill
stroke

456 777 3 0 360 arc
0 setgray
fill
stroke

58 599 3 0 360 arc
0 setgray
fill
stroke

542 289 3 0 360 arc
0 setgray
fill
stroke

32 312 3 0 360 arc
0 setgray
fill
stroke

160 151 3 0 360 arc
0 setgray
fill
stroke

325 692 3 0 360 arc
0 setgray
fill
stroke

407 520 3 0 360 arc
0 setgray
fill
stroke

106 173 3 0 360 arc
0 setgray
fill
stroke

399 762 3 0 360 arc
0 setgray
fill
stroke

87 56 3 0 360 arc
0 setgray
fill
stroke

262 82 3 0 360 arc
0 setgray
fill
stroke

246 87 3 0 360 arc
0 setgray
fill
stroke

392 455 3 0 360 arc
0 setgray
fill
stroke

52 146 3 0 360 arc
0 setgray
fill
stroke

335 231 3 0 360 arc
0 setgray
fill
stroke

451 108 3 0 360 arc
0 setgray
fill
stroke

448 149 3 0 360 arc
0 setgray
fill
stroke

579 703 3 0 360 arc
0 setgray
fill
stroke

491 791 3 0 360 arc
0 setgray
fill
stroke

491 559 3 0 360 arc
0 setgray
fill
stroke

238 185 3 0 360 arc
0 setgray
fill
stroke

388 177 3 0 360 arc
0 setgray
fill
stroke

345 6 3 0 360 arc
0 setgray
fill
stroke

7 545 3 0 360 arc
0 setgray
fill
stroke

84 706 3 0 360 arc
0 setgray
fill
stroke

385 110 3 0 360 arc
0 setgray
fill
stroke

141 215 3 0 360 arc
0 setgray
fill
stroke

449 405 3 0 360 arc
0 setgray
fill
stroke

58 265 3 0 360 arc
0 setgray
fill
stroke

408 626 3 0 360 arc
0 setgray
fill
stroke

172 283 3 0 360 arc
0 setgray
fill
stroke

318 313 3 0 360 arc
0 setgray
fill
stroke

17 249 3 0 360 arc
0 setgray
fill
stroke

260 272 3 0 360 arc
0 setgray
fill
stroke

156 47 3 0 360 arc
0 setgray
fill
stroke

291 790 3 0 360 arc
0 setgray
fill
stroke

88 299 3 0 360 arc
0 setgray
fill
stroke

428 738 3 0 360 arc
0 setgray
fill
stroke

305 327 3 0 360 arc
0 setgray
fill
stroke

311 282 3 0 360 arc
0 setgray
fill
stroke

401 100 3 0 360 arc
0 setgray
fill
stroke

480 630 3 0 360 arc
0 setgray
fill
stroke

459 190 3 0 360 arc
0 setgray
fill
stroke

208 785 3 0 360 arc
0 setgray
fill
stroke

563 596 3 0 360 arc
0 setgray
fill
stroke

43 752 3 0 360 arc
0 setgray
fill
stroke

607 161 3 0 360 arc
0 setgray
fill
stroke

489 712 3 0 360 arc
0 setgray
fill
stroke

518 297 3 0 360 arc
0 setgray
fill
stroke

264 458 3 0 360 arc
0 setgray
fill
stroke

504 32 3 0 360 arc
0 setgray
fill
stroke

457 377 3 0 360 arc
0 setgray
fill
stroke

367 433 3 0 360 arc
0 setgray
fill
stroke

287 437 3 0 360 arc
0 setgray
fill
stroke

452 614 3 0 360 arc
0 setgray
fill
stroke

195 401 3 0 360 arc
0 setgray
fill
stroke

426 711 3 0 360 arc
0 setgray
fill
stroke

528 237 3 0 360 arc
0 setgray
fill
stroke

253 284 3 0 360 arc
0 setgray
fill
stroke

50 365 3 0 360 arc
0 setgray
fill
stroke

356 650 3 0 360 arc
0 setgray
fill
stroke

73 567 3 0 360 arc
0 setgray
fill
stroke

199 398 3 0 360 arc
0 setgray
fill
stroke

236 230 3 0 360 arc
0 setgray
fill
stroke

315 480 3 0 360 arc
0 setgray
fill
stroke

524 639 3 0 360 arc
0 setgray
fill
stroke

188 745 3 0 360 arc
0 setgray
fill
stroke

60 52 3 0 360 arc
0 setgray
fill
stroke

386 147 3 0 360 arc
0 setgray
fill
stroke

361 746 3 0 360 arc
0 setgray
fill
stroke

77 16 3 0 360 arc
0 setgray
fill
stroke

84 683 3 0 360 arc
0 setgray
fill
stroke

7 196 3 0 360 arc
0 setgray
fill
stroke

36 637 3 0 360 arc
0 setgray
fill
stroke

480 751 3 0 360 arc
0 setgray
fill
stroke

210 168 3 0 360 arc
0 setgray
fill
stroke

537 535 3 0 360 arc
0 setgray
fill
stroke

447 428 3 0 360 arc
0 setgray
fill
stroke

589 231 3 0 360 arc
0 setgray
fill
stroke

458 436 3 0 360 arc
0 setgray
fill
stroke

316 155 3 0 360 arc
0 setgray
fill
stroke

371 432 3 0 360 arc
0 setgray
fill
stroke

0 108 3 0 360 arc
0 setgray
fill
stroke

320 295 3 0 360 arc
0 setgray
fill
stroke

39 573 3 0 360 arc
0 setgray
fill
stroke

229 225 3 0 360 arc
0 setgray
fill
stroke

13 205 3 0 360 arc
0 setgray
fill
stroke

492 325 3 0 360 arc
0 setgray
fill
stroke

185 637 3 0 360 arc
0 setgray
fill
stroke

26 681 3 0 360 arc
0 setgray
fill
stroke

488 180 3 0 360 arc
0 setgray
fill
stroke

21 213 3 0 360 arc
0 setgray
fill
stroke

391 593 3 0 360 arc
0 setgray
fill
stroke

153 456 3 0 360 arc
0 setgray
fill
stroke

284 108 3 0 360 arc
0 setgray
fill
stroke

532 544 3 0 360 arc
0 setgray
fill
stroke

243 183 3 0 360 arc
0 setgray
fill
stroke

237 763 3 0 360 arc
0 setgray
fill
stroke

595 69 3 0 360 arc
0 setgray
fill
stroke

374 347 3 0 360 arc
0 setgray
fill
stroke

499 116 3 0 360 arc
0 setgray
fill
stroke

12 240 3 0 360 arc
0 setgray
fill
stroke

177 88 3 0 360 arc
0 setgray
fill
stroke

149 523 3 0 360 arc
0 setgray
fill
stroke

293 535 3 0 360 arc
0 setgray
fill
stroke

32 329 3 0 360 arc
0 setgray
fill
stroke

155 270 3 0 360 arc
0 setgray
fill
stroke

198 438 3 0 360 arc
0 setgray
fill
stroke

395 784 3 0 360 arc
0 setgray
fill
stroke

46 695 3 0 360 arc
0 setgray
fill
stroke

224 594 3 0 360 arc
0 setgray
fill
stroke

284 555 3 0 360 arc
0 setgray
fill
stroke

2 33 3 0 360 arc
0 setgray
fill
stroke

454 669 3 0 360 arc
0 setgray
fill
stroke

210 593 3 0 360 arc
0 setgray
fill
stroke

492 545 3 0 360 arc
0 setgray
fill
stroke

565 196 3 0 360 arc
0 setgray
fill
stroke

354 38 3 0 360 arc
0 setgray
fill
stroke

141 359 3 0 360 arc
0 setgray
fill
stroke

109 18 3 0 360 arc
0 setgray
fill
stroke

551 574 3 0 360 arc
0 setgray
fill
stroke

220 418 3 0 360 arc
0 setgray
fill
stroke

196 490 3 0 360 arc
0 setgray
fill
stroke

513 715 3 0 360 arc
0 setgray
fill
stroke

30 359 3 0 360 arc
0 setgray
fill
stroke

274 774 3 0 360 arc
0 setgray
fill
stroke

270 466 3 0 360 arc
0 setgray
fill
stroke

337 740 3 0 360 arc
0 setgray
fill
stroke

211 72 3 0 360 arc
0 setgray
fill
stroke

257 602 3 0 360 arc
0 setgray
fill
stroke

141 442 3 0 360 arc
0 setgray
fill
stroke

391 382 3 0 360 arc
0 setgray
fill
stroke

386 149 3 0 360 arc
0 setgray
fill
stroke

580 723 3 0 360 arc
0 setgray
fill
stroke

381 582 3 0 360 arc
0 setgray
fill
stroke

94 12 3 0 360 arc
0 setgray
fill
stroke

220 98 3 0 360 arc
0 setgray
fill
stroke

158 216 3 0 360 arc
0 setgray
fill
stroke

604 95 3 0 360 arc
0 setgray
fill
stroke

11 471 3 0 360 arc
0 setgray
fill
stroke

491 357 3 0 360 arc
0 setgray
fill
stroke

21 417 3 0 360 arc
0 setgray
fill
stroke

588 791 3 0 360 arc
0 setgray
fill
stroke

293 131 3 0 360 arc
0 setgray
fill
stroke

411 782 3 0 360 arc
0 setgray
fill
stroke

481 336 3 0 360 arc
0 setgray
fill
stroke

304 97 3 0 360 arc
0 setgray
fill
stroke

518 79 3 0 360 arc
0 setgray
fill
stroke

10 738 3 0 360 arc
0 setgray
fill
stroke

478 155 3 0 360 arc
0 setgray
fill
stroke

436 552 3 0 360 arc
0 setgray
fill
stroke

455 492 3 0 360 arc
0 setgray
fill
stroke

146 398 3 0 360 arc
0 setgray
fill
stroke

204 47 3 0 360 arc
0 setgray
fill
stroke

545 647 3 0 360 arc
0 setgray
fill
stroke

518 548 3 0 360 arc
0 setgray
fill
stroke

373 771 3 0 360 arc
0 setgray
fill
stroke

317 437 3 0 360 arc
0 setgray
fill
stroke

30 338 3 0 360 arc
0 setgray
fill
stroke

280 441 3 0 360 arc
0 setgray
fill
stroke

293 310 3 0 360 arc
0 setgray
fill
stroke

253 561 3 0 360 arc
0 setgray
fill
stroke

27 303 3 0 360 arc
0 setgray
fill
stroke

548 253 3 0 360 arc
0 setgray
fill
stroke

518 251 3 0 360 arc
0 setgray
fill
stroke

301 178 3 0 360 arc
0 setgray
fill
stroke

119 376 3 0 360 arc
0 setgray
fill
stroke

131 662 3 0 360 arc
0 setgray
fill
stroke

18 387 3 0 360 arc
0 setgray
fill
stroke

149 276 3 0 360 arc
0 setgray
fill
stroke

295 235 3 0 360 arc
0 setgray
fill
stroke

120 56 3 0 360 arc
0 setgray
fill
stroke

338 6 3 0 360 arc
0 setgray
fill
stroke

149 585 3 0 360 arc
0 setgray
fill
stroke

308 69 3 0 360 arc
0 setgray
fill
stroke

198 473 3 0 360 arc
0 setgray
fill
stroke

451 612 3 0 360 arc
0 setgray
fill
stroke

331 386 3 0 360 arc
0 setgray
fill
stroke

355 283 3 0 360 arc
0 setgray
fill
stroke

388 765 3 0 360 arc
0 setgray
fill
stroke

426 57 3 0 360 arc
0 setgray
fill
stroke

348 546 3 0 360 arc
0 setgray
fill
stroke

577 623 3 0 360 arc
0 setgray
fill
stroke

72 216 3 0 360 arc
0 setgray
fill
stroke

74 725 3 0 360 arc
0 setgray
fill
stroke

292 61 3 0 360 arc
0 setgray
fill
stroke

148 124 3 0 360 arc
0 setgray
fill
stroke

297 774 3 0 360 arc
0 setgray
fill
stroke

238 210 3 0 360 arc
0 setgray
fill
stroke

243 275 3 0 360 arc
0 setgray
fill
stroke

136 602 3 0 360 arc
0 setgray
fill
stroke

152 459 3 0 360 arc
0 setgray
fill
stroke

26 391 3 0 360 arc
0 setgray
fill
stroke

198 345 3 0 360 arc
0 setgray
fill
stroke

495 494 3 0 360 arc
0 setgray
fill
stroke

515 417 3 0 360 arc
0 setgray
fill
stroke

279 663 3 0 360 arc
0 setgray
fill
stroke

243 784 3 0 360 arc
0 setgray
fill
stroke

602 387 3 0 360 arc
0 setgray
fill
stroke

584 512 3 0 360 arc
0 setgray
fill
stroke

408 300 3 0 360 arc
0 setgray
fill
stroke

178 88 3 0 360 arc
0 setgray
fill
stroke

549 491 3 0 360 arc
0 setgray
fill
stroke

303 355 3 0 360 arc
0 setgray
fill
stroke

538 238 3 0 360 arc
0 setgray
fill
stroke

466 782 3 0 360 arc
0 setgray
fill
stroke

120 779 3 0 360 arc
0 setgray
fill
stroke

393 270 3 0 360 arc
0 setgray
fill
stroke

234 303 3 0 360 arc
0 setgray
fill
stroke

272 261 3 0 360 arc
0 setgray
fill
stroke

309 335 3 0 360 arc
0 setgray
fill
stroke

427 156 3 0 360 arc
0 setgray
fill
stroke

170 650 3 0 360 arc
0 setgray
fill
stroke

93 500 3 0 360 arc
0 setgray
fill
stroke

118 749 3 0 360 arc
0 setgray
fill
stroke

452 166 3 0 360 arc
0 setgray
fill
stroke

202 394 3 0 360 arc
0 setgray
fill
stroke

343 283 3 0 360 arc
0 setgray
fill
stroke

110 718 3 0 360 arc
0 setgray
fill
stroke

186 396 3 0 360 arc
0 setgray
fill
stroke

452 77 3 0 360 arc
0 setgray
fill
stroke

582 13 3 0 360 arc
0 setgray
fill
stroke

532 435 3 0 360 arc
0 setgray
fill
stroke

463 242 3 0 360 arc
0 setgray
fill
stroke

215 499 3 0 360 arc
0 setgray
fill
stroke

144 344 3 0 360 arc
0 setgray
fill
stroke

42 191 3 0 360 arc
0 setgray
fill
stroke

501 48 3 0 360 arc
0 setgray
fill
stroke

373 450 3 0 360 arc
0 setgray
fill
stroke

116 95 3 0 360 arc
0 setgray
fill
stroke

531 369 3 0 360 arc
0 setgray
fill
stroke

278 265 3 0 360 arc
0 setgray
fill
stroke

331 117 3 0 360 arc
0 setgray
fill
stroke

260 657 3 0 360 arc
0 setgray
fill
stroke

43 195 3 0 360 arc
0 setgray
fill
stroke

349 207 3 0 360 arc
0 setgray
fill
stroke

360 247 3 0 360 arc
0 setgray
fill
stroke

200 728 3 0 360 arc
0 setgray
fill
stroke

71 304 3 0 360 arc
0 setgray
fill
stroke

178 230 3 0 360 arc
0 setgray
fill
stroke

47 482 3 0 360 arc
0 setgray
fill
stroke

70 646 3 0 360 arc
0 setgray
fill
stroke

25 83 3 0 360 arc
0 setgray
fill
stroke

46 523 3 0 360 arc
0 setgray
fill
stroke

297 251 3 0 360 arc
0 setgray
fill
stroke

22 541 3 0 360 arc
0 setgray
fill
stroke

476 480 3 0 360 arc
0 setgray
fill
stroke

338 391 3 0 360 arc
0 setgray
fill
stroke

181 563 3 0 360 arc
0 setgray
fill
stroke

381 440 3 0 360 arc
0 setgray
fill
stroke

306 118 3 0 360 arc
0 setgray
fill
stroke

592 630 3 0 360 arc
0 setgray
fill
stroke

438 468 3 0 360 arc
0 setgray
fill
stroke

206 57 3 0 360 arc
0 setgray
fill
stroke

104 744 3 0 360 arc
0 setgray
fill
stroke

539 384 3 0 360 arc
0 setgray
fill
stroke

451 661 3 0 360 arc
0 setgray
fill
stroke

470 708 3 0 360 arc
0 setgray
fill
stroke

185 732 3 0 360 arc
0 setgray
fill
stroke

7 86 3 0 360 arc
0 setgray
fill
stroke

423 658 3 0 360 arc
0 setgray
fill
stroke

87 411 3 0 360 arc
0 setgray
fill
stroke

74 642 3 0 360 arc
0 setgray
fill
stroke

227 544 3 0 360 arc
0 setgray
fill
stroke

285 68 3 0 360 arc
0 setgray
fill
stroke

352 771 3 0 360 arc
0 setgray
fill
stroke

598 240 3 0 360 arc
0 setgray
fill
stroke

33 352 3 0 360 arc
0 setgray
fill
stroke

257 183 3 0 360 arc
0 setgray
fill
stroke

65 289 3 0 360 arc
0 setgray
fill
stroke

367 296 3 0 360 arc
0 setgray
fill
stroke

257 170 3 0 360 arc
0 setgray
fill
stroke

218 511 3 0 360 arc
0 setgray
fill
stroke

555 511 3 0 360 arc
0 setgray
fill
stroke

504 326 3 0 360 arc
0 setgray
fill
stroke

273 243 3 0 360 arc
0 setgray
fill
stroke

208 433 3 0 360 arc
0 setgray
fill
stroke

347 139 3 0 360 arc
0 setgray
fill
stroke

47 466 3 0 360 arc
0 setgray
fill
stroke

411 296 3 0 360 arc
0 setgray
fill
stroke

442 275 3 0 360 arc
0 setgray
fill
stroke

183 320 3 0 360 arc
0 setgray
fill
stroke

228 484 3 0 360 arc
0 setgray
fill
stroke

113 233 3 0 360 arc
0 setgray
fill
stroke

199 482 3 0 360 arc
0 setgray
fill
stroke

106 602 3 0 360 arc
0 setgray
fill
stroke

527 4 3 0 360 arc
0 setgray
fill
stroke

33 745 3 0 360 arc
0 setgray
fill
stroke

479 460 3 0 360 arc
0 setgray
fill
stroke

536 767 3 0 360 arc
0 setgray
fill
stroke

282 269 3 0 360 arc
0 setgray
fill
stroke

559 579 3 0 360 arc
0 setgray
fill
stroke

430 474 3 0 360 arc
0 setgray
fill
stroke

518 585 3 0 360 arc
0 setgray
fill
stroke

128 209 3 0 360 arc
0 setgray
fill
stroke

197 82 3 0 360 arc
0 setgray
fill
stroke

340 756 3 0 360 arc
0 setgray
fill
stroke

130 208 3 0 360 arc
0 setgray
fill
stroke

340 675 3 0 360 arc
0 setgray
fill
stroke

313 323 3 0 360 arc
0 setgray
fill
stroke

166 564 3 0 360 arc
0 setgray
fill
stroke

366 153 3 0 360 arc
0 setgray
fill
stroke

172 507 3 0 360 arc
0 setgray
fill
stroke

86 91 3 0 360 arc
0 setgray
fill
stroke

119 170 3 0 360 arc
0 setgray
fill
stroke

283 761 3 0 360 arc
0 setgray
fill
stroke

563 678 3 0 360 arc
0 setgray
fill
stroke

24 742 3 0 360 arc
0 setgray
fill
stroke

396 74 3 0 360 arc
0 setgray
fill
stroke

247 108 3 0 360 arc
0 setgray
fill
stroke

247 425 3 0 360 arc
0 setgray
fill
stroke

226 568 3 0 360 arc
0 setgray
fill
stroke

569 392 3 0 360 arc
0 setgray
fill
stroke

288 638 3 0 360 arc
0 setgray
fill
stroke

472 26 3 0 360 arc
0 setgray
fill
stroke

97 242 3 0 360 arc
0 setgray
fill
stroke

410 695 3 0 360 arc
0 setgray
fill
stroke

591 166 3 0 360 arc
0 setgray
fill
stroke

122 693 3 0 360 arc
0 setgray
fill
stroke

365 385 3 0 360 arc
0 setgray
fill
stroke

431 124 3 0 360 arc
0 setgray
fill
stroke

515 310 3 0 360 arc
0 setgray
fill
stroke

10 503 3 0 360 arc
0 setgray
fill
stroke

152 170 3 0 360 arc
0 setgray
fill
stroke

342 596 3 0 360 arc
0 setgray
fill
stroke

62 661 3 0 360 arc
0 setgray
fill
stroke

461 268 3 0 360 arc
0 setgray
fill
stroke

309 218 3 0 360 arc
0 setgray
fill
stroke

517 22 3 0 360 arc
0 setgray
fill
stroke

460 537 3 0 360 arc
0 setgray
fill
stroke

588 234 3 0 360 arc
0 setgray
fill
stroke

275 438 3 0 360 arc
0 setgray
fill
stroke

281 774 3 0 360 arc
0 setgray
fill
stroke

584 348 3 0 360 arc
0 setgray
fill
stroke

63 661 3 0 360 arc
0 setgray
fill
stroke

389 746 3 0 360 arc
0 setgray
fill
stroke

246 488 3 0 360 arc
0 setgray
fill
stroke

136 596 3 0 360 arc
0 setgray
fill
stroke

576 125 3 0 360 arc
0 setgray
fill
stroke

407 378 3 0 360 arc
0 setgray
fill
stroke

433 53 3 0 360 arc
0 setgray
fill
stroke

155 750 3 0 360 arc
0 setgray
fill
stroke

502 285 3 0 360 arc
0 setgray
fill
stroke

444 191 3 0 360 arc
0 setgray
fill
stroke

451 41 3 0 360 arc
0 setgray
fill
stroke

44 155 3 0 360 arc
0 setgray
fill
stroke

111 515 3 0 360 arc
0 setgray
fill
stroke

429 12 3 0 360 arc
0 setgray
fill
stroke

189 5 3 0 360 arc
0 setgray
fill
stroke

412 180 3 0 360 arc
0 setgray
fill
stroke

126 694 3 0 360 arc
0 setgray
fill
stroke

6 460 3 0 360 arc
0 setgray
fill
stroke

226 790 3 0 360 arc
0 setgray
fill
stroke

245 190 3 0 360 arc
0 setgray
fill
stroke

303 632 3 0 360 arc
0 setgray
fill
stroke

496 644 3 0 360 arc
0 setgray
fill
stroke

253 416 3 0 360 arc
0 setgray
fill
stroke

150 215 3 0 360 arc
0 setgray
fill
stroke

377 379 3 0 360 arc
0 setgray
fill
stroke

422 16 3 0 360 arc
0 setgray
fill
stroke

276 734 3 0 360 arc
0 setgray
fill
stroke

259 495 3 0 360 arc
0 setgray
fill
stroke

401 364 3 0 360 arc
0 setgray
fill
stroke

523 554 3 0 360 arc
0 setgray
fill
stroke

349 468 3 0 360 arc
0 setgray
fill
stroke

230 635 3 0 360 arc
0 setgray
fill
stroke

386 468 3 0 360 arc
0 setgray
fill
stroke

464 360 3 0 360 arc
0 setgray
fill
stroke

251 169 3 0 360 arc
0 setgray
fill
stroke

191 390 3 0 360 arc
0 setgray
fill
stroke

9 127 3 0 360 arc
0 setgray
fill
stroke

423 694 3 0 360 arc
0 setgray
fill
stroke

471 645 3 0 360 arc
0 setgray
fill
stroke

278 252 3 0 360 arc
0 setgray
fill
stroke

556 716 3 0 360 arc
0 setgray
fill
stroke

68 652 3 0 360 arc
0 setgray
fill
stroke

171 39 3 0 360 arc
0 setgray
fill
stroke

479 716 3 0 360 arc
0 setgray
fill
stroke

275 263 3 0 360 arc
0 setgray
fill
stroke

423 172 3 0 360 arc
0 setgray
fill
stroke

587 21 3 0 360 arc
0 setgray
fill
stroke

232 109 3 0 360 arc
0 setgray
fill
stroke

22 120 3 0 360 arc
0 setgray
fill
stroke

361 165 3 0 360 arc
0 setgray
fill
stroke

181 28 3 0 360 arc
0 setgray
fill
stroke

87 298 3 0 360 arc
0 setgray
fill
stroke

372 598 3 0 360 arc
0 setgray
fill
stroke

324 499 3 0 360 arc
0 setgray
fill
stroke

344 510 3 0 360 arc
0 setgray
fill
stroke

84 684 3 0 360 arc
0 setgray
fill
stroke

435 620 3 0 360 arc
0 setgray
fill
stroke

381 694 3 0 360 arc
0 setgray
fill
stroke

352 300 3 0 360 arc
0 setgray
fill
stroke

438 663 3 0 360 arc
0 setgray
fill
stroke

383 697 3 0 360 arc
0 setgray
fill
stroke

512 302 3 0 360 arc
0 setgray
fill
stroke

35 652 3 0 360 arc
0 setgray
fill
stroke


62 661 moveto
63 661 lineto
stroke

177 88 moveto
178 88 lineto
stroke

84 683 moveto
84 684 lineto
stroke

423 171 moveto
423 172 lineto
stroke

435 621 moveto
435 620 lineto
stroke

84 210 moveto
83 210 lineto
stroke

245 483 moveto
245 482 lineto
stroke

88 299 moveto
87 298 lineto
stroke

406 521 moveto
407 520 lineto
stroke

432 123 moveto
431 124 lineto
stroke

246 380 moveto
247 381 lineto
stroke

156 594 moveto
155 595 lineto
stroke

386 147 moveto
386 149 lineto
stroke

444 275 moveto
442 275 lineto
stroke

128 209 moveto
130 208 lineto
stroke

452 614 moveto
451 612 lineto
stroke

585 20 moveto
587 21 lineto
stroke

359 752 moveto
357 753 lineto
stroke

109 365 moveto
108 363 lineto
stroke

352 562 moveto
351 560 lineto
stroke

174 509 moveto
172 507 lineto
stroke

108 720 moveto
110 718 lineto
stroke

597 236 moveto
595 238 lineto
stroke

53 365 moveto
50 365 lineto
stroke

185 735 moveto
185 732 lineto
stroke

17 246 moveto
17 249 lineto
stroke

573 324 moveto
573 321 lineto
stroke

519 171 moveto
516 171 lineto
stroke

263 774 moveto
266 774 lineto
stroke

153 456 moveto
152 459 lineto
stroke

589 231 moveto
588 234 lineto
stroke

330 189 moveto
327 190 lineto
stroke

423 47 moveto
426 46 lineto
stroke

518 19 moveto
517 22 lineto
stroke

236 481 moveto
237 484 lineto
stroke

381 694 moveto
383 697 lineto
stroke

278 265 moveto
275 263 lineto
stroke

272 261 moveto
275 263 lineto
stroke

231 554 moveto
229 551 lineto
stroke

595 238 moveto
598 240 lineto
stroke

573 123 moveto
576 125 lineto
stroke

138 444 moveto
141 442 lineto
stroke

588 495 moveto
586 492 lineto
stroke

302 329 moveto
305 327 lineto
stroke

353 449 moveto
355 452 lineto
stroke

494 579 moveto
497 581 lineto
stroke

548 750 moveto
551 748 lineto
stroke

414 398 moveto
411 400 lineto
stroke

41 221 moveto
44 219 lineto
stroke

95 674 moveto
98 676 lineto
stroke

383 437 moveto
381 440 lineto
stroke

93 87 moveto
89 87 lineto
stroke

122 693 moveto
126 694 lineto
stroke

42 191 moveto
43 195 lineto
stroke

367 433 moveto
371 432 lineto
stroke

428 757 moveto
429 761 lineto
stroke

597 632 moveto
601 631 lineto
stroke

600 635 moveto
601 631 lineto
stroke

43 151 moveto
44 155 lineto
stroke

606 386 moveto
602 387 lineto
stroke

95 253 moveto
99 252 lineto
stroke

245 492 moveto
246 488 lineto
stroke

353 752 moveto
357 753 lineto
stroke

574 317 moveto
573 321 lineto
stroke

528 543 moveto
532 544 lineto
stroke

296 134 moveto
293 131 lineto
stroke

211 782 moveto
208 785 lineto
stroke

358 743 moveto
361 746 lineto
stroke

113 384 moveto
110 387 lineto
stroke

366 190 moveto
368 186 lineto
stroke

408 300 moveto
411 296 lineto
stroke

199 398 moveto
202 394 lineto
stroke

195 401 moveto
199 398 lineto
stroke

419 697 moveto
423 694 lineto
stroke

410 562 moveto
407 558 lineto
stroke

89 87 moveto
86 91 lineto
stroke

396 79 moveto
396 74 lineto
stroke

129 690 moveto
126 694 lineto
stroke

569 318 moveto
573 321 lineto
stroke

195 442 moveto
198 438 lineto
stroke

175 650 moveto
170 650 lineto
stroke

89 13 moveto
94 12 lineto
stroke

93 300 moveto
88 299 lineto
stroke

352 444 moveto
353 449 lineto
stroke

337 595 moveto
342 596 lineto
stroke

488 44 moveto
489 39 lineto
stroke

519 87 moveto
514 88 lineto
stroke

245 483 moveto
246 488 lineto
stroke

238 185 moveto
243 183 lineto
stroke

565 591 moveto
563 596 lineto
stroke

597 632 moveto
592 630 lineto
stroke

243 195 moveto
245 190 lineto
stroke

99 576 moveto
94 578 lineto
stroke

527 112 moveto
532 110 lineto
stroke

70 646 moveto
74 642 lineto
stroke

278 265 moveto
282 269 lineto
stroke

91 407 moveto
87 411 lineto
stroke

228 113 moveto
232 109 lineto
stroke

357 169 moveto
361 165 lineto
stroke

280 441 moveto
275 438 lineto
stroke

55 604 moveto
58 599 lineto
stroke

562 586 moveto
565 591 lineto
stroke

300 627 moveto
303 632 lineto
stroke

136 602 moveto
136 596 lineto
stroke

205 482 moveto
199 482 lineto
stroke

505 293 moveto
505 299 lineto
stroke

18 381 moveto
18 387 lineto
stroke

183 314 moveto
183 320 lineto
stroke

257 170 moveto
251 169 lineto
stroke

445 304 moveto
444 310 lineto
stroke

220 229 moveto
214 230 lineto
stroke

581 717 moveto
580 723 lineto
stroke

602 625 moveto
601 631 lineto
stroke

71 222 moveto
72 216 lineto
stroke

325 234 moveto
324 228 lineto
stroke

284 251 moveto
278 252 lineto
stroke

70 646 moveto
68 652 lineto
stroke

529 552 moveto
523 554 lineto
stroke

580 7 moveto
582 13 lineto
stroke

195 7 moveto
189 5 lineto
stroke

281 701 moveto
287 699 lineto
stroke

100 10 moveto
94 12 lineto
stroke

359 752 moveto
361 746 lineto
stroke

482 482 moveto
476 480 lineto
stroke

289 194 moveto
284 190 lineto
stroke

182 401 moveto
186 396 lineto
stroke

606 386 moveto
611 382 lineto
stroke

83 51 moveto
87 56 lineto
stroke

180 641 moveto
185 637 lineto
stroke

541 658 moveto
537 663 lineto
stroke

248 557 moveto
253 561 lineto
stroke

375 579 moveto
381 582 lineto
stroke

300 121 moveto
306 118 lineto
stroke

368 350 moveto
374 347 lineto
stroke

293 440 moveto
287 437 lineto
stroke

173 140 moveto
176 134 lineto
stroke

274 774 moveto
281 774 lineto
stroke

345 6 moveto
338 6 lineto
stroke

392 448 moveto
392 455 lineto
stroke

456 419 moveto
463 419 lineto
stroke

5 733 moveto
10 738 lineto
stroke

368 776 moveto
373 771 lineto
stroke

330 763 moveto
323 762 lineto
stroke

221 586 moveto
214 587 lineto
stroke

424 125 moveto
431 124 lineto
stroke

300 627 moveto
293 628 lineto
stroke

416 121 moveto
415 128 lineto
stroke

293 440 moveto
294 433 lineto
stroke

17 561 moveto
18 568 lineto
stroke

381 154 moveto
386 149 lineto
stroke

214 587 moveto
210 593 lineto
stroke

591 63 moveto
595 69 lineto
stroke

530 635 moveto
524 639 lineto
stroke

334 769 moveto
330 763 lineto
stroke

7 263 moveto
1 267 lineto
stroke

383 285 moveto
387 291 lineto
stroke

423 162 moveto
427 156 lineto
stroke

243 183 moveto
245 190 lineto
stroke

229 551 moveto
227 544 lineto
stroke

162 748 moveto
155 750 lineto
stroke

423 35 moveto
416 33 lineto
stroke

350 293 moveto
352 300 lineto
stroke

354 307 moveto
352 300 lineto
stroke

494 579 moveto
487 577 lineto
stroke

30 359 moveto
33 352 lineto
stroke

505 299 moveto
512 302 lineto
stroke

476 453 moveto
479 460 lineto
stroke

562 586 moveto
559 579 lineto
stroke

585 20 moveto
582 13 lineto
stroke

343 77 moveto
340 84 lineto
stroke

598 520 moveto
591 517 lineto
stroke

417 603 moveto
414 610 lineto
stroke

186 396 moveto
191 390 lineto
stroke

518 548 moveto
523 554 lineto
stroke

518 297 moveto
512 302 lineto
stroke

171 93 moveto
177 88 lineto
stroke

17 246 moveto
12 240 lineto
stroke

31 397 moveto
26 391 lineto
stroke

241 420 moveto
247 425 lineto
stroke

286 780 moveto
281 774 lineto
stroke

390 69 moveto
396 74 lineto
stroke

215 162 moveto
210 168 lineto
stroke

590 462 moveto
595 456 lineto
stroke

130 531 moveto
124 536 lineto
stroke

437 12 moveto
429 12 lineto
stroke

214 368 moveto
214 360 lineto
stroke

266 774 moveto
274 774 lineto
stroke

429 12 moveto
422 16 lineto
stroke

426 57 moveto
433 53 lineto
stroke

158 216 moveto
150 215 lineto
stroke

287 437 moveto
280 441 lineto
stroke

352 246 moveto
360 247 lineto
stroke

271 664 moveto
279 663 lineto
stroke

595 238 moveto
588 234 lineto
stroke

557 492 moveto
549 491 lineto
stroke

575 143 moveto
582 147 lineto
stroke

590 530 moveto
583 534 lineto
stroke

372 440 moveto
371 432 lineto
stroke

175 385 moveto
179 378 lineto
stroke

564 690 moveto
556 689 lineto
stroke

369 16 moveto
362 12 lineto
stroke

519 87 moveto
518 79 lineto
stroke

245 483 moveto
237 484 lineto
stroke

173 140 moveto
169 147 lineto
stroke

123 383 moveto
119 376 lineto
stroke

227 55 moveto
228 63 lineto
stroke

584 628 moveto
592 630 lineto
stroke

7 119 moveto
9 127 lineto
stroke

95 534 moveto
97 526 lineto
stroke

365 367 moveto
357 369 lineto
stroke

584 262 moveto
586 270 lineto
stroke

391 703 moveto
399 705 lineto
stroke

193 635 moveto
185 637 lineto
stroke

155 270 moveto
149 276 lineto
stroke

266 255 moveto
272 261 lineto
stroke

497 351 moveto
491 357 lineto
stroke

429 178 moveto
423 172 lineto
stroke

125 164 moveto
119 170 lineto
stroke

74 658 moveto
68 652 lineto
stroke

515 310 moveto
512 302 lineto
stroke

196 490 moveto
199 482 lineto
stroke

454 669 moveto
451 661 lineto
stroke

529 552 moveto
532 544 lineto
stroke

221 586 moveto
224 594 lineto
stroke

505 293 moveto
502 285 lineto
stroke

572 726 moveto
580 723 lineto
stroke

130 531 moveto
133 523 lineto
stroke

236 481 moveto
228 484 lineto
stroke

331 386 moveto
338 391 lineto
stroke

236 230 moveto
229 225 lineto
stroke

584 628 moveto
577 623 lineto
stroke

591 517 moveto
584 512 lineto
stroke

374 699 moveto
381 694 lineto
stroke

521 726 moveto
528 731 lineto
stroke

18 387 moveto
26 391 lineto
stroke

305 327 moveto
313 323 lineto
stroke

305 327 moveto
309 335 lineto
stroke

434 671 moveto
438 663 lineto
stroke

416 121 moveto
424 125 lineto
stroke

551 622 moveto
543 626 lineto
stroke

595 174 moveto
591 166 lineto
stroke

141 215 moveto
150 215 lineto
stroke

479 707 moveto
479 716 lineto
stroke

372 440 moveto
381 440 lineto
stroke

220 295 moveto
229 295 lineto
stroke

423 162 moveto
423 171 lineto
stroke

198 473 moveto
199 482 lineto
stroke

479 707 moveto
470 708 lineto
stroke

361 238 moveto
360 247 lineto
stroke

396 775 moveto
395 784 lineto
stroke

251 242 moveto
250 251 lineto
stroke

267 735 moveto
276 734 lineto
stroke

18 381 moveto
9 382 lineto
stroke

179 378 moveto
188 379 lineto
stroke

32 329 moveto
30 338 lineto
stroke

419 697 moveto
410 695 lineto
stroke

425 685 moveto
423 694 lineto
stroke

361 238 moveto
363 229 lineto
stroke

553 785 moveto
555 776 lineto
stroke

383 349 moveto
374 347 lineto
stroke

536 602 moveto
538 611 lineto
stroke

525 591 moveto
518 585 lineto
stroke

59 152 moveto
52 146 lineto
stroke

551 574 moveto
559 579 lineto
stroke

229 295 moveto
234 303 lineto
stroke

93 225 moveto
85 230 lineto
stroke

551 748 moveto
559 753 lineto
stroke

397 463 moveto
392 455 lineto
stroke

352 361 moveto
357 369 lineto
stroke

33 745 moveto
24 742 lineto
stroke

546 538 moveto
537 535 lineto
stroke

354 307 moveto
345 310 lineto
stroke

57 502 moveto
48 499 lineto
stroke

84 541 moveto
87 550 lineto
stroke

260 292 moveto
251 295 lineto
stroke

317 458 moveto
326 455 lineto
stroke

435 42 moveto
426 46 lineto
stroke

460 13 moveto
464 4 lineto
stroke

220 229 moveto
229 225 lineto
stroke

146 313 moveto
137 309 lineto
stroke

169 147 moveto
160 151 lineto
stroke

288 564 moveto
284 555 lineto
stroke

41 123 moveto
50 127 lineto
stroke

292 61 moveto
285 68 lineto
stroke

426 46 moveto
433 53 lineto
stroke

231 587 moveto
224 594 lineto
stroke

231 389 moveto
224 382 lineto
stroke

191 352 moveto
198 345 lineto
stroke

438 468 moveto
430 474 lineto
stroke

264 458 moveto
270 466 lineto
stroke

220 428 moveto
220 418 lineto
stroke

100 165 moveto
106 173 lineto
stroke

391 703 moveto
383 697 lineto
stroke

519 118 moveto
527 112 lineto
stroke

541 410 moveto
535 418 lineto
stroke

113 384 moveto
119 376 lineto
stroke

528 237 moveto
538 238 lineto
stroke

283 132 moveto
293 131 lineto
stroke

172 103 moveto
171 93 lineto
stroke

372 440 moveto
373 450 lineto
stroke

422 88 moveto
421 78 lineto
stroke

438 150 moveto
448 149 lineto
stroke

204 47 moveto
206 57 lineto
stroke

168 660 moveto
170 650 lineto
stroke

99 252 moveto
97 242 lineto
stroke

334 215 moveto
324 213 lineto
stroke

389 603 moveto
391 593 lineto
stroke

63 661 moveto
68 652 lineto
stroke

273 243 moveto
278 252 lineto
stroke

537 535 moveto
532 544 lineto
stroke

195 401 moveto
186 396 lineto
stroke

32 312 moveto
27 303 lineto
stroke

255 263 moveto
260 272 lineto
stroke

467 475 moveto
476 480 lineto
stroke

43 151 moveto
52 146 lineto
stroke

475 376 moveto
484 371 lineto
stroke

175 650 moveto
180 641 lineto
stroke

421 623 moveto
418 633 lineto
stroke

185 735 moveto
188 745 lineto
stroke

396 144 moveto
386 147 lineto
stroke

396 144 moveto
399 154 lineto
stroke

469 772 moveto
466 782 lineto
stroke

43 265 moveto
33 268 lineto
stroke

325 234 moveto
335 231 lineto
stroke

545 279 moveto
542 289 lineto
stroke

159 556 moveto
166 564 lineto
stroke

396 738 moveto
389 746 lineto
stroke

260 292 moveto
253 284 lineto
stroke

489 712 moveto
479 716 lineto
stroke

437 424 moveto
447 428 lineto
stroke

246 619 moveto
256 623 lineto
stroke

25 407 moveto
21 417 lineto
stroke

280 347 moveto
290 343 lineto
stroke

247 425 moveto
253 416 lineto
stroke

272 261 moveto
278 252 lineto
stroke

7 196 moveto
13 205 lineto
stroke

380 138 moveto
386 147 lineto
stroke

515 633 moveto
524 639 lineto
stroke

471 745 moveto
480 751 lineto
stroke

147 53 moveto
156 47 lineto
stroke

114 729 moveto
108 720 lineto
stroke

46 652 moveto
35 652 lineto
stroke

183 314 moveto
172 314 lineto
stroke

295 109 moveto
284 108 lineto
stroke

412 316 moveto
413 327 lineto
stroke

198 438 moveto
208 433 lineto
stroke

318 313 moveto
313 323 lineto
stroke

456 777 moveto
466 782 lineto
stroke

293 628 moveto
288 638 lineto
stroke

303 508 moveto
305 497 lineto
stroke

350 293 moveto
355 283 lineto
stroke

169 147 moveto
174 157 lineto
stroke

286 780 moveto
291 790 lineto
stroke

531 563 moveto
529 552 lineto
stroke

275 711 moveto
273 722 lineto
stroke

423 162 moveto
412 160 lineto
stroke

13 205 moveto
21 213 lineto
stroke

557 492 moveto
565 500 lineto
stroke

381 154 moveto
373 162 lineto
stroke

399 762 moveto
388 765 lineto
stroke

188 379 moveto
191 390 lineto
stroke

80 576 moveto
73 567 lineto
stroke

399 619 moveto
408 626 lineto
stroke

423 35 moveto
426 46 lineto
stroke

35 609 moveto
38 598 lineto
stroke

284 528 moveto
293 535 lineto
stroke

156 594 moveto
149 585 lineto
stroke

547 764 moveto
536 767 lineto
stroke

396 284 moveto
387 291 lineto
stroke

373 162 moveto
366 153 lineto
stroke

21 345 moveto
30 338 lineto
stroke

137 652 moveto
131 662 lineto
stroke

31 397 moveto
25 407 lineto
stroke

275 711 moveto
281 701 lineto
stroke

24 635 moveto
14 629 lineto
stroke

118 682 moveto
122 693 lineto
stroke

245 482 moveto
256 478 lineto
stroke

541 658 moveto
545 647 lineto
stroke

90 1 moveto
94 12 lineto
stroke

213 386 moveto
224 382 lineto
stroke

355 283 moveto
343 283 lineto
stroke

282 466 moveto
270 466 lineto
stroke

214 360 moveto
226 360 lineto
stroke

492 325 moveto
504 326 lineto
stroke

330 129 moveto
331 117 lineto
stroke

27 693 moveto
26 681 lineto
stroke

218 177 moveto
210 168 lineto
stroke

147 112 moveto
148 124 lineto
stroke

215 115 moveto
203 116 lineto
stroke

44 71 moveto
35 63 lineto
stroke

100 10 moveto
109 18 lineto
stroke

172 103 moveto
180 112 lineto
stroke

564 690 moveto
563 678 lineto
stroke

61 633 moveto
52 625 lineto
stroke

11 471 moveto
6 460 lineto
stroke

471 442 moveto
476 453 lineto
stroke

453 138 moveto
448 149 lineto
stroke

397 463 moveto
386 468 lineto
stroke

306 311 moveto
318 313 lineto
stroke

514 283 moveto
502 285 lineto
stroke

301 520 moveto
303 508 lineto
stroke

24 635 moveto
36 637 lineto
stroke

43 752 moveto
33 745 lineto
stroke

418 633 moveto
408 626 lineto
stroke

471 350 moveto
464 360 lineto
stroke

330 763 moveto
340 756 lineto
stroke

29 110 moveto
22 120 lineto
stroke

300 121 moveto
293 131 lineto
stroke

368 186 moveto
378 193 lineto
stroke

215 499 moveto
218 511 lineto
stroke

44 219 moveto
56 216 lineto
stroke

89 13 moveto
77 16 lineto
stroke

273 722 moveto
276 734 lineto
stroke

404 253 moveto
416 256 lineto
stroke

457 25 moveto
460 13 lineto
stroke

373 162 moveto
361 165 lineto
stroke

325 234 moveto
322 246 lineto
stroke

319 681 moveto
325 692 lineto
stroke

286 780 moveto
297 774 lineto
stroke

83 210 moveto
72 216 lineto
stroke

315 103 moveto
304 97 lineto
stroke

169 210 moveto
158 216 lineto
stroke

438 150 moveto
427 156 lineto
stroke

318 122 moveto
306 118 lineto
stroke

280 543 moveto
284 555 lineto
stroke

124 221 moveto
128 209 lineto
stroke

161 519 moveto
149 523 lineto
stroke

524 408 moveto
515 417 lineto
stroke

110 387 moveto
101 396 lineto
stroke

456 419 moveto
447 428 lineto
stroke

170 240 moveto
178 230 lineto
stroke

396 775 moveto
388 765 lineto
stroke

311 671 moveto
319 681 lineto
stroke

590 530 moveto
598 520 lineto
stroke

114 729 moveto
124 721 lineto
stroke

257 183 moveto
257 170 lineto
stroke

220 428 moveto
208 433 lineto
stroke

255 263 moveto
250 251 lineto
stroke

402 128 moveto
415 128 lineto
stroke

300 121 moveto
295 109 lineto
stroke

284 251 moveto
297 251 lineto
stroke

141 215 moveto
130 208 lineto
stroke

306 311 moveto
293 310 lineto
stroke

71 45 moveto
60 52 lineto
stroke

310 231 moveto
309 218 lineto
stroke

304 542 moveto
293 535 lineto
stroke

271 664 moveto
260 657 lineto
stroke

7 119 moveto
0 108 lineto
stroke

161 307 moveto
172 314 lineto
stroke

485 534 moveto
492 545 lineto
stroke

278 221 moveto
265 222 lineto
stroke

10 140 moveto
9 127 lineto
stroke

84 541 moveto
95 534 lineto
stroke

519 87 moveto
520 100 lineto
stroke

316 773 moveto
323 762 lineto
stroke

283 761 moveto
281 774 lineto
stroke

451 661 moveto
438 663 lineto
stroke

70 762 moveto
57 764 lineto
stroke

423 554 moveto
436 552 lineto
stroke

228 113 moveto
215 115 lineto
stroke

106 173 moveto
119 170 lineto
stroke

497 351 moveto
510 348 lineto
stroke

33 624 moveto
36 637 lineto
stroke

322 246 moveto
335 249 lineto
stroke

44 400 moveto
31 397 lineto
stroke

365 385 moveto
377 379 lineto
stroke

83 51 moveto
71 45 lineto
stroke

451 248 moveto
463 242 lineto
stroke

253 284 moveto
243 275 lineto
stroke

412 180 moveto
423 172 lineto
stroke

447 428 moveto
458 436 lineto
stroke

330 129 moveto
319 137 lineto
stroke

266 255 moveto
255 263 lineto
stroke

586 492 moveto
582 479 lineto
stroke

573 123 moveto
565 112 lineto
stroke

392 448 moveto
381 440 lineto
stroke

205 181 moveto
218 177 lineto
stroke

353 752 moveto
340 756 lineto
stroke

187 465 moveto
198 473 lineto
stroke

59 152 moveto
72 148 lineto
stroke

488 44 moveto
501 48 lineto
stroke

521 726 moveto
513 715 lineto
stroke

213 386 moveto
202 394 lineto
stroke

353 109 moveto
345 98 lineto
stroke

257 183 moveto
245 190 lineto
stroke

260 272 moveto
253 284 lineto
stroke

521 225 moveto
528 237 lineto
stroke

318 122 moveto
330 129 lineto
stroke

85 230 moveto
73 237 lineto
stroke

419 385 moveto
407 378 lineto
stroke

575 143 moveto
563 150 lineto
stroke

28 664 moveto
35 652 lineto
stroke

527 112 moveto
520 100 lineto
stroke

21 345 moveto
33 352 lineto
stroke

61 633 moveto
73 626 lineto
stroke

457 703 moveto
470 708 lineto
stroke

479 550 moveto
492 545 lineto
stroke

414 398 moveto
419 385 lineto
stroke

231 389 moveto
236 402 lineto
stroke

491 559 moveto
492 545 lineto
stroke

86 472 moveto
87 486 lineto
stroke

547 764 moveto
548 750 lineto
stroke

83 524 moveto
97 526 lineto
stroke

421 623 moveto
435 621 lineto
stroke

80 576 moveto
94 578 lineto
stroke

581 717 moveto
579 703 lineto
stroke

595 456 moveto
584 447 lineto
stroke

211 254 moveto
202 243 lineto
stroke

95 674 moveto
84 683 lineto
stroke

391 382 moveto
377 379 lineto
stroke

351 560 moveto
348 546 lineto
stroke

412 160 moveto
399 154 lineto
stroke

404 587 moveto
391 593 lineto
stroke

245 492 moveto
259 495 lineto
stroke

471 442 moveto
458 436 lineto
stroke

396 284 moveto
393 270 lineto
stroke

324 228 moveto
310 231 lineto
stroke

488 44 moveto
474 41 lineto
stroke

135 252 moveto
129 265 lineto
stroke

311 695 moveto
325 692 lineto
stroke

482 482 moveto
476 495 lineto
stroke

448 765 moveto
456 777 lineto
stroke

222 647 moveto
230 635 lineto
stroke

547 764 moveto
555 776 lineto
stroke

187 465 moveto
179 477 lineto
stroke

10 738 moveto
24 742 lineto
stroke

381 96 moveto
385 110 lineto
stroke

242 73 moveto
246 87 lineto
stroke

322 65 moveto
308 69 lineto
stroke

9 127 moveto
22 120 lineto
stroke

246 574 moveto
253 561 lineto
stroke

558 561 moveto
551 574 lineto
stroke

414 610 moveto
421 623 lineto
stroke

165 679 moveto
158 692 lineto
stroke

514 212 moveto
521 225 lineto
stroke

383 349 moveto
390 336 lineto
stroke

335 704 moveto
348 697 lineto
stroke

171 39 moveto
181 28 lineto
stroke

118 749 moveto
104 744 lineto
stroke

391 593 moveto
381 582 lineto
stroke

399 705 moveto
410 695 lineto
stroke

565 500 moveto
555 511 lineto
stroke

231 554 moveto
226 568 lineto
stroke

91 407 moveto
101 396 lineto
stroke

535 418 moveto
524 408 lineto
stroke

340 84 moveto
345 98 lineto
stroke

147 53 moveto
158 63 lineto
stroke

110 133 moveto
120 122 lineto
stroke

468 144 moveto
478 155 lineto
stroke

109 365 moveto
119 376 lineto
stroke

295 109 moveto
304 97 lineto
stroke

445 712 moveto
457 703 lineto
stroke

324 228 moveto
324 213 lineto
stroke

43 265 moveto
58 265 lineto
stroke

263 759 moveto
263 774 lineto
stroke

247 108 moveto
232 109 lineto
stroke

181 563 moveto
166 564 lineto
stroke

36 637 moveto
35 652 lineto
stroke

459 190 moveto
444 191 lineto
stroke

457 25 moveto
472 26 lineto
stroke

40 176 moveto
42 191 lineto
stroke

58 235 moveto
73 237 lineto
stroke

33 624 moveto
35 609 lineto
stroke

474 41 moveto
472 26 lineto
stroke

71 222 moveto
73 237 lineto
stroke

407 378 moveto
401 364 lineto
stroke

87 486 moveto
93 500 lineto
stroke

473 196 moveto
459 190 lineto
stroke

225 202 moveto
238 210 lineto
stroke

423 554 moveto
410 562 lineto
stroke

129 639 moveto
137 652 lineto
stroke

280 543 moveto
293 535 lineto
stroke

141 359 moveto
144 344 lineto
stroke

10 71 moveto
7 86 lineto
stroke

322 743 moveto
337 740 lineto
stroke

466 105 moveto
451 108 lineto
stroke

367 296 moveto
352 300 lineto
stroke

200 728 moveto
185 732 lineto
stroke

7 545 moveto
22 541 lineto
stroke

310 231 moveto
295 235 lineto
stroke

353 109 moveto
368 105 lineto
stroke

492 325 moveto
481 336 lineto
stroke

525 591 moveto
536 602 lineto
stroke

335 704 moveto
325 692 lineto
stroke

77 77 moveto
89 87 lineto
stroke

419 697 moveto
426 711 lineto
stroke

484 371 moveto
491 357 lineto
stroke

551 119 moveto
565 112 lineto
stroke

41 123 moveto
34 137 lineto
stroke

130 531 moveto
144 538 lineto
stroke

456 419 moveto
449 405 lineto
stroke

550 185 moveto
543 171 lineto
stroke

423 658 moveto
438 663 lineto
stroke

211 72 moveto
206 57 lineto
stroke

311 282 moveto
320 295 lineto
stroke

519 654 moveto
524 639 lineto
stroke

543 626 moveto
530 635 lineto
stroke

543 626 moveto
538 611 lineto
stroke

243 195 moveto
238 210 lineto
stroke

144 538 moveto
149 523 lineto
stroke

381 96 moveto
368 105 lineto
stroke

550 201 moveto
565 196 lineto
stroke

524 505 moveto
529 490 lineto
stroke

217 662 moveto
222 647 lineto
stroke

61 633 moveto
74 642 lineto
stroke

47 482 moveto
47 466 lineto
stroke

56 216 moveto
72 216 lineto
stroke

106 618 moveto
106 602 lineto
stroke

550 185 moveto
550 201 lineto
stroke

49 381 moveto
50 365 lineto
stroke

435 42 moveto
451 41 lineto
stroke

537 784 moveto
553 785 lineto
stroke

295 235 moveto
297 251 lineto
stroke

395 784 moveto
411 782 lineto
stroke

448 358 moveto
464 360 lineto
stroke

93 382 moveto
101 396 lineto
stroke

557 492 moveto
559 476 lineto
stroke

71 304 moveto
65 289 lineto
stroke

373 771 moveto
388 765 lineto
stroke

93 426 moveto
87 411 lineto
stroke

161 307 moveto
146 313 lineto
stroke

468 144 moveto
453 138 lineto
stroke

33 505 moveto
48 499 lineto
stroke

220 98 moveto
232 109 lineto
stroke

337 740 moveto
340 756 lineto
stroke

504 32 moveto
501 48 lineto
stroke

203 116 moveto
191 127 lineto
stroke

526 675 moveto
537 663 lineto
stroke

520 446 moveto
532 435 lineto
stroke

124 221 moveto
113 233 lineto
stroke

161 519 moveto
172 507 lineto
stroke

175 385 moveto
163 396 lineto
stroke

44 400 moveto
55 412 lineto
stroke

395 569 moveto
407 558 lineto
stroke

504 32 moveto
517 22 lineto
stroke

331 323 moveto
318 313 lineto
stroke

391 382 moveto
407 378 lineto
stroke

143 560 moveto
159 556 lineto
stroke

10 140 moveto
6 156 lineto
stroke

412 316 moveto
408 300 lineto
stroke

176 134 moveto
191 127 lineto
stroke

175 599 moveto
190 606 lineto
stroke

425 685 moveto
434 671 lineto
stroke

43 151 moveto
34 137 lineto
stroke

195 442 moveto
204 456 lineto
stroke

607 161 moveto
591 166 lineto
stroke

262 82 moveto
246 87 lineto
stroke

368 776 moveto
352 771 lineto
stroke

572 726 moveto
577 742 lineto
stroke

275 711 moveto
291 716 lineto
stroke

267 66 moveto
262 82 lineto
stroke

427 104 moveto
422 88 lineto
stroke

85 230 moveto
97 242 lineto
stroke

471 442 moveto
459 454 lineto
stroke

365 367 moveto
377 379 lineto
stroke

531 369 moveto
539 384 lineto
stroke

156 47 moveto
171 39 lineto
stroke

32 312 moveto
32 329 lineto
stroke

140 139 moveto
148 124 lineto
stroke

301 520 moveto
293 535 lineto
stroke

211 782 moveto
226 790 lineto
stroke

334 215 moveto
349 207 lineto
stroke

149 585 moveto
136 596 lineto
stroke

28 472 moveto
11 471 lineto
stroke

48 499 moveto
47 482 lineto
stroke

610 225 moveto
597 236 lineto
stroke

71 304 moveto
87 298 lineto
stroke

355 452 moveto
349 468 lineto
stroke

396 144 moveto
402 128 lineto
stroke

457 25 moveto
451 41 lineto
stroke

163 396 moveto
146 398 lineto
stroke

194 507 moveto
196 490 lineto
stroke

398 222 moveto
400 205 lineto
stroke

28 664 moveto
26 681 lineto
stroke

248 557 moveto
246 540 lineto
stroke

457 512 moveto
474 514 lineto
stroke

211 72 moveto
197 82 lineto
stroke

528 237 moveto
518 251 lineto
stroke

471 350 moveto
481 336 lineto
stroke

214 368 moveto
224 382 lineto
stroke

242 73 moveto
228 63 lineto
stroke

7 263 moveto
17 249 lineto
stroke

41 221 moveto
27 231 lineto
stroke

352 246 moveto
335 249 lineto
stroke

162 480 moveto
179 477 lineto
stroke

535 418 moveto
532 435 lineto
stroke

547 454 moveto
564 457 lineto
stroke

368 350 moveto
365 367 lineto
stroke

248 557 moveto
231 554 lineto
stroke

448 149 moveto
452 166 lineto
stroke

35 63 moveto
28 47 lineto
stroke

595 371 moveto
602 387 lineto
stroke

588 495 moveto
584 512 lineto
stroke

550 201 moveto
546 218 lineto
stroke

574 317 moveto
578 300 lineto
stroke

229 225 moveto
238 210 lineto
stroke

480 630 moveto
471 645 lineto
stroke

156 368 moveto
141 359 lineto
stroke

27 231 moveto
12 240 lineto
stroke

520 446 moveto
505 437 lineto
stroke

518 19 moveto
527 4 lineto
stroke

231 389 moveto
246 380 lineto
stroke

202 243 moveto
214 230 lineto
stroke

290 343 moveto
303 355 lineto
stroke

41 123 moveto
29 110 lineto
stroke

482 482 moveto
495 494 lineto
stroke

389 603 moveto
372 598 lineto
stroke

97 526 moveto
111 515 lineto
stroke

412 540 moveto
423 554 lineto
stroke

451 612 moveto
435 620 lineto
stroke

308 69 moveto
292 61 lineto
stroke

502 71 moveto
518 79 lineto
stroke

155 85 moveto
171 93 lineto
stroke

243 784 moveto
226 790 lineto
stroke

548 253 moveto
538 238 lineto
stroke

362 12 moveto
345 6 lineto
stroke

416 33 moveto
422 16 lineto
stroke

55 604 moveto
38 598 lineto
stroke

575 143 moveto
576 125 lineto
stroke

155 640 moveto
170 650 lineto
stroke

475 376 moveto
457 377 lineto
stroke

572 770 moveto
555 776 lineto
stroke

126 617 moveto
136 602 lineto
stroke

174 617 moveto
175 599 lineto
stroke

114 729 moveto
104 744 lineto
stroke

204 456 moveto
198 473 lineto
stroke

318 313 moveto
320 295 lineto
stroke

355 452 moveto
373 450 lineto
stroke

334 769 moveto
352 771 lineto
stroke

267 66 moveto
285 68 lineto
stroke

25 83 moveto
7 86 lineto
stroke

319 137 moveto
316 155 lineto
stroke

475 376 moveto
478 394 lineto
stroke

113 233 moveto
97 242 lineto
stroke

595 111 moveto
604 95 lineto
stroke

46 652 moveto
62 661 lineto
stroke

457 377 moveto
464 360 lineto
stroke

444 275 moveto
461 268 lineto
stroke

266 512 moveto
259 495 lineto
stroke

481 131 moveto
468 144 lineto
stroke

153 456 moveto
141 442 lineto
stroke

487 577 moveto
491 559 lineto
stroke

57 764 moveto
43 752 lineto
stroke

499 512 moveto
495 494 lineto
stroke

256 478 moveto
270 466 lineto
stroke

302 329 moveto
290 343 lineto
stroke

20 760 moveto
24 742 lineto
stroke

180 112 moveto
191 127 lineto
stroke

221 586 moveto
226 568 lineto
stroke

236 402 moveto
241 420 lineto
stroke

196 145 moveto
191 127 lineto
stroke

251 295 moveto
234 303 lineto
stroke

63 703 moveto
46 695 lineto
stroke

590 462 moveto
582 479 lineto
stroke

385 110 moveto
401 100 lineto
stroke

399 762 moveto
389 746 lineto
stroke

378 193 moveto
388 177 lineto
stroke

389 603 moveto
399 619 lineto
stroke

572 726 moveto
556 716 lineto
stroke

17 561 moveto
7 545 lineto
stroke

350 492 moveto
344 510 lineto
stroke

27 231 moveto
21 213 lineto
stroke

192 420 moveto
198 438 lineto
stroke

428 757 moveto
428 738 lineto
stroke

445 712 moveto
426 711 lineto
stroke

316 773 moveto
297 774 lineto
stroke

27 693 moveto
46 695 lineto
stroke

345 310 moveto
331 323 lineto
stroke

305 497 moveto
324 499 lineto
stroke

474 514 moveto
476 495 lineto
stroke

320 265 moveto
322 246 lineto
stroke

395 569 moveto
381 582 lineto
stroke

467 475 moveto
479 460 lineto
stroke

530 635 moveto
545 647 lineto
stroke

251 242 moveto
236 230 lineto
stroke

396 284 moveto
411 296 lineto
stroke

228 63 moveto
211 72 lineto
stroke

165 679 moveto
168 660 lineto
stroke

320 265 moveto
311 282 lineto
stroke

192 420 moveto
195 401 lineto
stroke

504 326 moveto
515 310 lineto
stroke

448 765 moveto
429 761 lineto
stroke

383 285 moveto
367 296 lineto
stroke

580 647 moveto
584 628 lineto
stroke

559 476 moveto
564 457 lineto
stroke

156 594 moveto
175 599 lineto
stroke

427 104 moveto
432 123 lineto
stroke

44 400 moveto
49 381 lineto
stroke

330 129 moveto
347 139 lineto
stroke

376 260 moveto
393 270 lineto
stroke

205 482 moveto
215 499 lineto
stroke

305 497 moveto
315 480 lineto
stroke

215 499 moveto
228 484 lineto
stroke

429 178 moveto
444 191 lineto
stroke

564 690 moveto
579 703 lineto
stroke

178 88 moveto
197 82 lineto
stroke

28 472 moveto
47 466 lineto
stroke

412 540 moveto
406 521 lineto
stroke

324 519 moveto
324 499 lineto
stroke

289 194 moveto
301 178 lineto
stroke

529 490 moveto
549 491 lineto
stroke

106 618 moveto
126 617 lineto
stroke

521 50 moveto
501 48 lineto
stroke

239 743 moveto
237 763 lineto
stroke

194 507 moveto
174 509 lineto
stroke

519 118 moveto
499 116 lineto
stroke

457 512 moveto
455 492 lineto
stroke

326 455 moveto
317 437 lineto
stroke

7 263 moveto
16 281 lineto
stroke

220 295 moveto
200 298 lineto
stroke

195 442 moveto
175 439 lineto
stroke

246 619 moveto
257 602 lineto
stroke

404 253 moveto
393 270 lineto
stroke

584 598 moveto
565 591 lineto
stroke

368 186 moveto
357 169 lineto
stroke

569 318 moveto
552 307 lineto
stroke

552 307 moveto
542 289 lineto
stroke

160 151 moveto
152 170 lineto
stroke

303 751 moveto
322 743 lineto
stroke

50 365 moveto
30 359 lineto
stroke

98 676 moveto
118 682 lineto
stroke

551 119 moveto
532 110 lineto
stroke

582 147 moveto
591 166 lineto
stroke

577 742 moveto
559 753 lineto
stroke

270 575 moveto
288 564 lineto
stroke

63 703 moveto
84 706 lineto
stroke

480 630 moveto
496 644 lineto
stroke

497 581 moveto
518 585 lineto
stroke

40 176 moveto
44 155 lineto
stroke

172 283 moveto
155 270 lineto
stroke

33 268 moveto
16 281 lineto
stroke

84 706 moveto
74 725 lineto
stroke

370 550 moveto
351 560 lineto
stroke

510 465 moveto
520 446 lineto
stroke

358 527 moveto
348 546 lineto
stroke

546 218 moveto
538 238 lineto
stroke

314 723 moveto
322 743 lineto
stroke

218 177 moveto
238 185 lineto
stroke

36 5 moveto
16 13 lineto
stroke

18 568 moveto
39 573 lineto
stroke

396 79 moveto
401 100 lineto
stroke

421 78 moveto
426 57 lineto
stroke

155 640 moveto
137 652 lineto
stroke

237 763 moveto
243 784 lineto
stroke

319 681 moveto
340 675 lineto
stroke

324 519 moveto
344 510 lineto
stroke

473 196 moveto
488 180 lineto
stroke

214 360 moveto
198 345 lineto
stroke

169 210 moveto
178 230 lineto
stroke

515 633 moveto
496 644 lineto
stroke

84 706 moveto
84 684 lineto
stroke

87 550 moveto
73 567 lineto
stroke

143 560 moveto
144 538 lineto
stroke

278 221 moveto
295 235 lineto
stroke

270 575 moveto
253 561 lineto
stroke

358 527 moveto
344 510 lineto
stroke

317 458 moveto
315 480 lineto
stroke

420 348 moveto
413 327 lineto
stroke

5 586 moveto
18 568 lineto
stroke

126 617 moveto
129 639 lineto
stroke

158 63 moveto
155 85 lineto
stroke

33 505 moveto
46 523 lineto
stroke

564 457 moveto
584 447 lineto
stroke

35 63 moveto
25 83 lineto
stroke

451 248 moveto
461 268 lineto
stroke

263 774 moveto
243 784 lineto
stroke

110 133 moveto
98 114 lineto
stroke

246 619 moveto
230 635 lineto
stroke

548 94 moveto
532 110 lineto
stroke

393 502 moveto
407 520 lineto
stroke

264 458 moveto
275 438 lineto
stroke

531 563 moveto
551 574 lineto
stroke

129 265 moveto
149 276 lineto
stroke

485 534 moveto
474 514 lineto
stroke

502 71 moveto
501 48 lineto
stroke

489 266 moveto
502 285 lineto
stroke

479 550 moveto
460 537 lineto
stroke

99 576 moveto
122 575 lineto
stroke

0 108 moveto
7 86 lineto
stroke

228 113 moveto
235 135 lineto
stroke

33 505 moveto
10 503 lineto
stroke

324 213 moveto
327 190 lineto
stroke

162 480 moveto
152 459 lineto
stroke

77 77 moveto
87 56 lineto
stroke

366 58 moveto
354 38 lineto
stroke

140 139 moveto
160 151 lineto
stroke

294 433 moveto
317 437 lineto
stroke

36 5 moveto
52 22 lineto
stroke

519 118 moveto
515 141 lineto
stroke

611 491 moveto
588 495 lineto
stroke

183 314 moveto
200 298 lineto
stroke

133 523 moveto
111 515 lineto
stroke

280 347 moveto
272 369 lineto
stroke

353 109 moveto
331 117 lineto
stroke

93 500 moveto
111 515 lineto
stroke

347 139 moveto
366 153 lineto
stroke

595 111 moveto
576 125 lineto
stroke

469 772 moveto
480 751 lineto
stroke

379 644 moveto
356 650 lineto
stroke

280 164 moveto
257 170 lineto
stroke

142 788 moveto
120 779 lineto
stroke

118 682 moveto
131 662 lineto
stroke

190 606 moveto
210 593 lineto
stroke

519 171 moveto
543 171 lineto
stroke

350 492 moveto
349 468 lineto
stroke

44 219 moveto
43 195 lineto
stroke

291 716 moveto
314 723 lineto
stroke

366 190 moveto
349 207 lineto
stroke

70 109 moveto
86 91 lineto
stroke

363 626 moveto
379 644 lineto
stroke

83 448 moveto
93 426 lineto
stroke

489 712 moveto
513 715 lineto
stroke

83 448 moveto
86 472 lineto
stroke

322 65 moveto
343 77 lineto
stroke

432 123 moveto
451 108 lineto
stroke

547 454 moveto
532 435 lineto
stroke

311 695 moveto
287 699 lineto
stroke

587 558 moveto
583 534 lineto
stroke

189 5 moveto
181 28 lineto
stroke

93 87 moveto
116 95 lineto
stroke

579 92 moveto
565 112 lineto
stroke

16 13 moveto
2 33 lineto
stroke

16 281 moveto
27 303 lineto
stroke

481 84 moveto
502 71 lineto
stroke

610 12 moveto
587 21 lineto
stroke

413 327 moveto
390 336 lineto
stroke

397 661 moveto
379 644 lineto
stroke

44 71 moveto
60 52 lineto
stroke

58 265 moveto
65 289 lineto
stroke

28 441 moveto
21 417 lineto
stroke

38 598 moveto
39 573 lineto
stroke

57 328 moveto
32 329 lineto
stroke

378 193 moveto
400 205 lineto
stroke

590 409 moveto
602 387 lineto
stroke

607 434 moveto
595 456 lineto
stroke

179 378 moveto
156 368 lineto
stroke

183 782 moveto
208 785 lineto
stroke

459 454 moveto
438 468 lineto
stroke

280 164 moveto
301 178 lineto
stroke

542 289 moveto
518 297 lineto
stroke

227 55 moveto
231 30 lineto
stroke

418 633 moveto
423 658 lineto
stroke

595 371 moveto
584 348 lineto
stroke

531 563 moveto
518 585 lineto
stroke

451 661 moveto
471 645 lineto
stroke

52 22 moveto
77 16 lineto
stroke

98 114 moveto
86 91 lineto
stroke

524 505 moveto
499 512 lineto
stroke

584 598 moveto
577 623 lineto
stroke

584 262 moveto
598 240 lineto
stroke

374 699 moveto
348 697 lineto
stroke

541 410 moveto
539 384 lineto
stroke

162 748 moveto
188 745 lineto
stroke

397 661 moveto
423 658 lineto
stroke

545 279 moveto
548 253 lineto
stroke

140 139 moveto
120 122 lineto
stroke

411 400 moveto
386 408 lineto
stroke

347 416 moveto
367 433 lineto
stroke

390 69 moveto
366 58 lineto
stroke

161 307 moveto
172 283 lineto
stroke

572 770 moveto
588 791 lineto
stroke

573 324 moveto
584 348 lineto
stroke

279 663 moveto
288 638 lineto
stroke

491 791 moveto
466 782 lineto
stroke

347 416 moveto
338 391 lineto
stroke

369 16 moveto
354 38 lineto
stroke

249 325 moveto
234 303 lineto
stroke

417 603 moveto
432 581 lineto
stroke

595 174 moveto
607 198 lineto
stroke

590 409 moveto
569 392 lineto
stroke

428 738 moveto
426 711 lineto
stroke

124 721 moveto
126 694 lineto
stroke

147 53 moveto
120 56 lineto
stroke

610 225 moveto
607 198 lineto
stroke

595 69 moveto
604 95 lineto
stroke

548 750 moveto
528 731 lineto
stroke

338 391 moveto
365 385 lineto
stroke

125 164 moveto
152 170 lineto
stroke

489 266 moveto
461 268 lineto
stroke

602 315 moveto
574 317 lineto
stroke

482 672 moveto
454 669 lineto
stroke

352 562 moveto
375 579 lineto
stroke

563 150 moveto
543 171 lineto
stroke

445 304 moveto
444 275 lineto
stroke

28 441 moveto
6 460 lineto
stroke

28 47 moveto
2 33 lineto
stroke

481 84 moveto
452 77 lineto
stroke

270 575 moveto
257 602 lineto
stroke

342 596 moveto
372 598 lineto
stroke

120 779 moveto
118 749 lineto
stroke

158 3 moveto
189 5 lineto
stroke

254 9 moveto
231 30 lineto
stroke

128 479 moveto
152 459 lineto
stroke

311 671 moveto
279 663 lineto
stroke

217 662 moveto
216 695 lineto
stroke

216 695 moveto
200 728 lineto
stroke

302 14 moveto
338 6 lineto
stroke

70 762 moveto
74 725 lineto
stroke

591 63 moveto
587 21 lineto
stroke

showpage
