%!PS-Adobe-3.0
%%BoundingBox: 0 0 612 792

0 0 3 0 360 arc
0 setgray
fill
stroke

10 52 3 0 360 arc
0 setgray
fill
stroke

20 101 3 0 360 arc
0 setgray
fill
stroke

30 145 3 0 360 arc
0 setgray
fill
stroke

40 185 3 0 360 arc
0 setgray
fill
stroke

50 221 3 0 360 arc
0 setgray
fill
stroke

60 254 3 0 360 arc
0 setgray
fill
stroke

70 283 3 0 360 arc
0 setgray
fill
stroke

80 308 3 0 360 arc
0 setgray
fill
stroke

90 330 3 0 360 arc
0 setgray
fill
stroke

100 350 3 0 360 arc
0 setgray
fill
stroke

110 366 3 0 360 arc
0 setgray
fill
stroke

120 379 3 0 360 arc
0 setgray
fill
stroke

130 389 3 0 360 arc
0 setgray
fill
stroke

140 397 3 0 360 arc
0 setgray
fill
stroke

150 403 3 0 360 arc
0 setgray
fill
stroke

160 406 3 0 360 arc
0 setgray
fill
stroke

170 407 3 0 360 arc
0 setgray
fill
stroke

180 406 3 0 360 arc
0 setgray
fill
stroke

190 404 3 0 360 arc
0 setgray
fill
stroke

200 400 3 0 360 arc
0 setgray
fill
stroke

210 394 3 0 360 arc
0 setgray
fill
stroke

220 387 3 0 360 arc
0 setgray
fill
stroke

230 378 3 0 360 arc
0 setgray
fill
stroke

240 369 3 0 360 arc
0 setgray
fill
stroke

250 359 3 0 360 arc
0 setgray
fill
stroke

260 348 3 0 360 arc
0 setgray
fill
stroke

270 336 3 0 360 arc
0 setgray
fill
stroke

280 324 3 0 360 arc
0 setgray
fill
stroke

290 312 3 0 360 arc
0 setgray
fill
stroke

300 300 3 0 360 arc
0 setgray
fill
stroke

310 287 3 0 360 arc
0 setgray
fill
stroke

320 275 3 0 360 arc
0 setgray
fill
stroke

330 263 3 0 360 arc
0 setgray
fill
stroke

340 251 3 0 360 arc
0 setgray
fill
stroke

350 240 3 0 360 arc
0 setgray
fill
stroke

360 230 3 0 360 arc
0 setgray
fill
stroke

370 221 3 0 360 arc
0 setgray
fill
stroke

380 212 3 0 360 arc
0 setgray
fill
stroke

390 205 3 0 360 arc
0 setgray
fill
stroke

400 200 3 0 360 arc
0 setgray
fill
stroke

410 195 3 0 360 arc
0 setgray
fill
stroke

420 193 3 0 360 arc
0 setgray
fill
stroke

430 192 3 0 360 arc
0 setgray
fill
stroke

440 193 3 0 360 arc
0 setgray
fill
stroke

450 196 3 0 360 arc
0 setgray
fill
stroke

460 202 3 0 360 arc
0 setgray
fill
stroke

470 210 3 0 360 arc
0 setgray
fill
stroke

480 220 3 0 360 arc
0 setgray
fill
stroke

490 233 3 0 360 arc
0 setgray
fill
stroke


430 192 moveto
440 193 lineto
stroke

420 193 moveto
430 192 lineto
stroke

170 407 moveto
180 406 lineto
stroke

160 406 moveto
170 407 lineto
stroke

410 195 moveto
420 193 lineto
stroke

180 406 moveto
190 404 lineto
stroke

440 193 moveto
450 196 lineto
stroke

150 403 moveto
160 406 lineto
stroke

190 404 moveto
200 400 lineto
stroke

400 200 moveto
410 195 lineto
stroke

390 205 moveto
400 200 lineto
stroke

450 196 moveto
460 202 lineto
stroke

200 400 moveto
210 394 lineto
stroke

140 397 moveto
150 403 lineto
stroke

380 212 moveto
390 205 lineto
stroke

210 394 moveto
220 387 lineto
stroke

460 202 moveto
470 210 lineto
stroke

130 389 moveto
140 397 lineto
stroke

370 221 moveto
380 212 lineto
stroke

360 230 moveto
370 221 lineto
stroke

230 378 moveto
240 369 lineto
stroke

220 387 moveto
230 378 lineto
stroke

470 210 moveto
480 220 lineto
stroke

350 240 moveto
360 230 lineto
stroke

240 369 moveto
250 359 lineto
stroke

120 379 moveto
130 389 lineto
stroke

340 251 moveto
350 240 lineto
stroke

250 359 moveto
260 348 lineto
stroke

330 263 moveto
340 251 lineto
stroke

320 275 moveto
330 263 lineto
stroke

310 287 moveto
320 275 lineto
stroke

290 312 moveto
300 300 lineto
stroke

280 324 moveto
290 312 lineto
stroke

270 336 moveto
280 324 lineto
stroke

260 348 moveto
270 336 lineto
stroke

480 220 moveto
490 233 lineto
stroke

300 300 moveto
310 287 lineto
stroke

110 366 moveto
120 379 lineto
stroke

100 350 moveto
110 366 lineto
stroke

90 330 moveto
100 350 lineto
stroke

80 308 moveto
90 330 lineto
stroke

70 283 moveto
80 308 lineto
stroke

60 254 moveto
70 283 lineto
stroke

50 221 moveto
60 254 lineto
stroke

40 185 moveto
50 221 lineto
stroke

30 145 moveto
40 185 lineto
stroke

20 101 moveto
30 145 lineto
stroke

10 52 moveto
20 101 lineto
stroke

0 0 moveto
10 52 lineto
stroke

showpage
