\relax 
\providecommand\hyper@newdestlabel[2]{}
\providecommand\BKM@entry[2]{}
\providecommand\HyperFirstAtBeginDocument{\AtBeginDocument}
\HyperFirstAtBeginDocument{\ifx\hyper@anchor\@undefined
\global\let\oldcontentsline\contentsline
\gdef\contentsline#1#2#3#4{\oldcontentsline{#1}{#2}{#3}}
\global\let\oldnewlabel\newlabel
\gdef\newlabel#1#2{\newlabelxx{#1}#2}
\gdef\newlabelxx#1#2#3#4#5#6{\oldnewlabel{#1}{{#2}{#3}}}
\AtEndDocument{\ifx\hyper@anchor\@undefined
\let\contentsline\oldcontentsline
\let\newlabel\oldnewlabel
\fi}
\fi}
\global\let\hyper@last\relax 
\gdef\HyperFirstAtBeginDocument#1{#1}
\providecommand\HyField@AuxAddToFields[1]{}
\providecommand\HyField@AuxAddToCoFields[2]{}
\catcode `:\active 
\catcode `;\active 
\catcode `!\active 
\catcode `?\active 
\select@language{french}
\@writefile{toc}{\select@language{french}}
\@writefile{lof}{\select@language{french}}
\@writefile{lot}{\select@language{french}}
\BKM@entry{id=1,dest={73656374696F6E2A2E31},srcline={76}}{496E74726F64756374696F6E}
\BKM@entry{id=2,dest={73656374696F6E2E312E31},srcline={80}}{4F70656E474C202F20476C757420}
\BKM@entry{id=3,dest={73656374696F6E2E312E32},srcline={85}}{446F6D61696E652064276170706C69636174696F6E}
\BKM@entry{id=4,dest={73656374696F6E2E312E33},srcline={90}}{445C333531726F756C656D656E742064752070726F6A6574}
\@writefile{toc}{\contentsline {section}{Introduction}{3}{section*.1}}
\@writefile{toc}{\contentsline {section}{\numberline {1}OpenGL / Glut }{3}{section.1.1}}
\@writefile{toc}{\contentsline {section}{\numberline {2}Domaine d'application}{3}{section.1.2}}
\@writefile{toc}{\contentsline {section}{\numberline {3}D\IeC {\'e}roulement du projet}{3}{section.1.3}}
\BKM@entry{id=5,dest={73656374696F6E2E312E33},srcline={98}}{50726F6A6574}
\BKM@entry{id=6,dest={73656374696F6E2E322E31},srcline={102}}{4D616E75656C2064277574696C69736174696F6E}
\BKM@entry{id=7,dest={73656374696F6E2E322E32},srcline={126}}{5C333030207361766F6972}
\@writefile{toc}{\contentsline {section}{Projet}{4}{section.1.3}}
\@writefile{toc}{\contentsline {section}{\numberline {1}Manuel d'utilisation}{4}{section.2.1}}
\@writefile{toc}{\contentsline {section}{\numberline {2}\IeC {\`A} savoir}{4}{section.2.2}}
\BKM@entry{id=8,dest={73656374696F6E2E322E33},srcline={130}}{5361697369652065742053746F636B6167652064657320706F696E7473}
\BKM@entry{id=9,dest={73756273656374696F6E2E322E332E31},srcline={131}}{536169736965}
\@writefile{toc}{\contentsline {section}{\numberline {3}Saisie et Stockage des points}{5}{section.2.3}}
\@writefile{toc}{\contentsline {subsection}{\numberline {3.1}Saisie}{5}{subsection.2.3.1}}
\BKM@entry{id=10,dest={73756273656374696F6E2E322E332E32},srcline={156}}{53746F636B616765}
\@writefile{toc}{\contentsline {subsection}{\numberline {3.2}Stockage}{7}{subsection.2.3.2}}
\BKM@entry{id=11,dest={73756273656374696F6E2E322E332E33},srcline={162}}{53746F636B61676520657420736169736965}
\@writefile{toc}{\contentsline {subsection}{\numberline {3.3}Stockage et saisie}{8}{subsection.2.3.3}}
\BKM@entry{id=12,dest={73656374696F6E2E322E34},srcline={194}}{32442076657273203344}
\@writefile{toc}{\contentsline {section}{\numberline {4}2D vers 3D}{10}{section.2.4}}
\BKM@entry{id=13,dest={73656374696F6E2E322E35},srcline={218}}{52656D706C697373616765206465206C276F626A6574}
\BKM@entry{id=14,dest={73756273656374696F6E2E322E352E31},srcline={221}}{52656D706C697373616765207061722066696C732064652066657273}
\@writefile{toc}{\contentsline {section}{\numberline {5}Remplissage de l'objet}{11}{section.2.5}}
\@writefile{toc}{\contentsline {subsection}{\numberline {5.1}Remplissage par fils de fers}{11}{subsection.2.5.1}}
\BKM@entry{id=15,dest={73756273656374696F6E2E322E352E32},srcline={232}}{52656D706C697373616765206176656320706F6C79676F6E6573}
\@writefile{toc}{\contentsline {subsection}{\numberline {5.2}Remplissage avec polygones}{13}{subsection.2.5.2}}
\BKM@entry{id=16,dest={73756273756273656374696F6E2E322E352E322E31},srcline={243}}{52656D706C69737361676520657874725C3335316D69745C33353120312065742032}
\@writefile{toc}{\contentsline {subsubsection}{\numberline {5.2.1}Remplissage extr\IeC {\'e}mit\IeC {\'e} 1 et 2}{14}{subsubsection.2.5.2.1}}
\BKM@entry{id=17,dest={73756273756273656374696F6E2E322E352E322E32},srcline={260}}{52656D706C69737361676520647520636F727073206465206C276F626A6574}
\@writefile{toc}{\contentsline {subsubsection}{\numberline {5.2.2}Remplissage du corps de l'objet}{16}{subsubsection.2.5.2.2}}
\BKM@entry{id=18,dest={73656374696F6E2E322E36},srcline={279}}{4F6D627261676520506C6174205C28666C61742073686164696E675C29}
\@writefile{toc}{\contentsline {section}{\numberline {6}Ombrage Plat (flat shading)}{17}{section.2.6}}
\BKM@entry{id=19,dest={73656374696F6E2E322E37},srcline={297}}{4F6D62726167652050686F6E67205C2850686F6E672073686164696E675C29}
\@writefile{toc}{\contentsline {section}{\numberline {7}Ombrage Phong (Phong shading)}{19}{section.2.7}}
\BKM@entry{id=20,dest={73756273656374696F6E2E322E372E31},srcline={300}}{52656D706C6973736167652061766563204F6D62726167652050686F6E673A20657874725C3335316D69745C3335312031}
\@writefile{toc}{\contentsline {subsection}{\numberline {7.1}Remplissage avec Ombrage Phong: extr\IeC {\'e}mit\IeC {\'e} 1}{20}{subsection.2.7.1}}
\BKM@entry{id=21,dest={73756273656374696F6E2E322E372E32},srcline={312}}{52656D706C6973736167652061766563204F6D62726167652050686F6E673A20657874725C3335316D69745C3335312032}
\@writefile{toc}{\contentsline {subsection}{\numberline {7.2}Remplissage avec Ombrage Phong: extr\IeC {\'e}mit\IeC {\'e} 2}{22}{subsection.2.7.2}}
\BKM@entry{id=22,dest={73756273656374696F6E2E322E372E33},srcline={323}}{52656D706C6973736167652061766563204F6D62726167652050686F6E673A20636F727073}
\@writefile{toc}{\contentsline {subsection}{\numberline {7.3}Remplissage avec Ombrage Phong: corps}{23}{subsection.2.7.3}}
\BKM@entry{id=23,dest={73656374696F6E2E322E38},srcline={340}}{526F746174696F6E2047616261726974}
\@writefile{toc}{\contentsline {section}{\numberline {8}Rotation Gabarit}{25}{section.2.8}}
\BKM@entry{id=24,dest={73656374696F6E2E322E38},srcline={452}}{436F6E636C7573696F6E}
\BKM@entry{id=25,dest={73656374696F6E2E332E31},srcline={455}}{47725C33343263652061752070726F6A6574}
\@writefile{toc}{\contentsline {section}{Conclusion}{28}{section.2.8}}
\BKM@entry{id=26,dest={73656374696F6E2E332E32},srcline={465}}{536F7572636573207574696C69735C3335316573}
\@writefile{toc}{\contentsline {section}{\numberline {1}Gr\IeC {\^a}ce au projet}{29}{section.3.1}}
\@writefile{toc}{\contentsline {section}{\numberline {2}Sources utilis\IeC {\'e}es}{29}{section.3.2}}
