\relax 
\catcode `:\active 
\catcode `;\active 
\catcode `!\active 
\catcode `?\active 
\select@language{french}
\@writefile{toc}{\select@language{french}}
\@writefile{lof}{\select@language{french}}
\@writefile{lot}{\select@language{french}}
\@writefile{toc}{\contentsline {section}{\numberline {1}Logiciels libres : une introduction}{1}}
\@writefile{toc}{\contentsline {subsection}{\numberline {1.1}Qu'est ce qu'un logiciel ?}{1}}
\@writefile{toc}{\contentsline {subsection}{\numberline {1.2}Qu'est-ce qu'un logiciel libre ?}{1}}
\@writefile{toc}{\contentsline {subsection}{\numberline {1.3}La FSF et le projet GNU}{2}}
\@writefile{toc}{\contentsline {subsection}{\numberline {1.4}GNU/Linux, une r\IeC {\'e}alit\IeC {\'e}}{2}}
\@writefile{toc}{\contentsline {subsection}{\numberline {1.5}Pourquoi le logiciel libre est t'il meilleur? }{3}}
\@writefile{toc}{\contentsline {subsection}{\numberline {1.6}Brevets sur les logiciels}{4}}
\@writefile{toc}{\contentsline {subsection}{\numberline {1.7}Pour en savoir plus}{5}}
