\relax 
\catcode`:\active
\catcode`;\active
\catcode`!\active
\catcode`?\active
\gdef\pointsofq@i{0}
\gdef\bonuspointsofq@i{0}
\gdef\pointsofq@ii{0}
\gdef\bonuspointsofq@ii{0}
\gdef\pointsofq@i{0}
\gdef\bonuspointsofq@i{0}
\gdef\pointsofq@ii{0}
\gdef\bonuspointsofq@ii{0}
\gdef\pointsofq@iii{0}
\gdef\bonuspointsofq@iii{0}
\gdef\pointsofq@iv{0}
\gdef\bonuspointsofq@iv{0}
\gdef\pointsofq@i{0}
\gdef\bonuspointsofq@i{0}
\gdef\pointsofq@ii{0}
\gdef\bonuspointsofq@ii{0}
\gdef\pointsofq@iii{0}
\gdef\bonuspointsofq@iii{0}
\gdef\pointsofq@iv{0}
\gdef\bonuspointsofq@iv{0}
\gdef\pointsofq@v{0}
\gdef\bonuspointsofq@v{0}
\gdef\pointsofq@vi{0}
\gdef\bonuspointsofq@vi{0}
\gdef\pointsofq@vii{0}
\gdef\bonuspointsofq@vii{0}
\select@language{french}
\@writefile{toc}{\select@language{french}}
\@writefile{lof}{\select@language{french}}
\@writefile{lot}{\select@language{french}}
\@writefile{toc}{\contentsline {section}{\numberline {1}Exercice 1}{1}}
\PgInfo{question@1}{1}
\PgInfo{question1@object1}{1}
\newlabel{question@1}{{1}{1}}
\PgInfo{question@2}{1}
\PgInfo{question2@object1}{1}
\newlabel{question@2}{{2}{1}}
\@writefile{toc}{\contentsline {section}{\numberline {2}Exercice 2}{1}}
\PgInfo{question@1}{1}
\PgInfo{question1@object1}{1}
\newlabel{question@1}{{1}{1}}
\PgInfo{question@2}{1}
\PgInfo{question2@object1}{1}
\newlabel{question@2}{{2}{1}}
\PgInfo{question@3}{1}
\PgInfo{question3@object1}{1}
\newlabel{question@3}{{3}{1}}
\PgInfo{question@4}{1}
\PgInfo{question4@object1}{1}
\newlabel{question@4}{{4}{1}}
\@writefile{toc}{\contentsline {section}{\numberline {3}Exercice 3 - Stabilit\IeC {\'e}}{1}}
\PgInfo{question@1}{1}
\PgInfo{question1@object1}{1}
\newlabel{question@1}{{1}{1}}
\PgInfo{question@2}{1}
\PgInfo{question2@object1}{1}
\newlabel{question@2}{{2}{1}}
\PgInfo{question@3}{1}
\PgInfo{question3@object1}{1}
\newlabel{question@3}{{3}{1}}
\PgInfo{question@4}{1}
\PgInfo{question4@object1}{1}
\newlabel{question@4}{{4}{1}}
\PgInfo{question@5}{1}
\PgInfo{question5@object1}{1}
\newlabel{question@5}{{5}{1}}
\PgInfo{question@6}{1}
\PgInfo{question6@object1}{1}
\newlabel{question@6}{{6}{1}}
\PgInfo{question@7}{1}
\PgInfo{question7@object1}{1}
\newlabel{question@7}{{7}{1}}
\gdef\pointsofq@i{0}
\gdef\bonuspointsofq@i{0}
\gdef\pointsofq@i{0}
\gdef\bonuspointsofq@i{0}
\gdef\pointsofq@ii{0}
\gdef\bonuspointsofq@ii{0}
\gdef\pointsofq@iii{0}
\gdef\bonuspointsofq@iii{0}
\@writefile{toc}{\contentsline {section}{\numberline {4}Exercice 4 - Erreur de position}{2}}
\PgInfo{question@1}{2}
\PgInfo{question1@object1}{2}
\newlabel{question@1}{{1}{2}}
\@writefile{toc}{\contentsline {section}{\numberline {5}Exercice 5 - Influence de la p\IeC {\'e}riode d'\IeC {\'e}chantillonnage sur la stabilit\IeC {\'e}}{2}}
\PgInfo{question@1}{2}
\PgInfo{question1@object1}{2}
\newlabel{question@1}{{1}{2}}
\PgInfo{question@2}{2}
\PgInfo{question2@object1}{2}
\newlabel{question@2}{{2}{2}}
\PgInfo{question@3}{2}
\PgInfo{question3@object1}{2}
\newlabel{question@3}{{3}{2}}
\gdef\exam@lastpage{2}
\gdef\exam@lastcoverpage{0}
\gdef\exam@totalpages{2}
\gdef\exam@numpoints{0}
\gdef\exam@numbonuspoints{0}
\gdef\exam@numquestions{17}
\gdef\exam@numparts{0}
\gdef\exam@numsubparts{0}
\gdef\exam@numsubsubparts{0}
\gdef\lastpage@withpoints{0}
\gdef\lastpage@withbonuspoints{0}
