INDEX VERSION 1.127+/auto_home/mohayonordaz/Bureau/fac/2emeAnneSem2/progObjetHlin406/workspaceJ/.metadata/.plugins/org.eclipse.jdt.core
3885805113.index
2401355864.index
2982035129.index
2066489604.index
527624335.index
1081125421.index
120211678.index
46282419.index
2841451250.index
2630498905.index
742522455.index
3815294299.index
2771403403.index
3214207201.index
1932949083.index
2233963263.index
2789199200.index
3721837726.index
3218904279.index
2474253571.index
3888198363.index
1913109094.index
