<?xml version="1.0" encoding="UTF-8"?>
<session version="1.0">
<refactoring comment="Delete resource &apos;LaPoste&apos;" deleteContents="true" description="Delete resource &apos;LaPoste&apos;" element1="/LaPoste" flags="7" id="org.eclipse.ltk.core.refactoring.delete.resources" resources="1" stamp="1456862190720"/>
</session>