\relax 
\catcode`:\active
\catcode`;\active
\catcode`!\active
\catcode`?\active
\gdef\pointsofq@i{0}
\gdef\bonuspointsofq@i{0}
\gdef\pointsofq@ii{0}
\gdef\bonuspointsofq@ii{0}
\gdef\pointsofq@iii{0}
\gdef\bonuspointsofq@iii{0}
\gdef\pointsofq@iv{0}
\gdef\bonuspointsofq@iv{0}
\gdef\pointsofq@v{0}
\gdef\bonuspointsofq@v{0}
\gdef\pointsofq@vi{0}
\gdef\bonuspointsofq@vi{0}
\gdef\pointsofq@i{0}
\gdef\bonuspointsofq@i{0}
\gdef\pointsofq@ii{0}
\gdef\bonuspointsofq@ii{0}
\select@language{french}
\@writefile{toc}{\select@language{french}}
\@writefile{lof}{\select@language{french}}
\@writefile{lot}{\select@language{french}}
\@writefile{toc}{\contentsline {section}{\numberline {1}Identification d'un syst\IeC {\`e}me}{1}}
\@writefile{toc}{\contentsline {subsection}{\numberline {1.1}M\IeC {\'e}thode de Strejc}{1}}
\PgInfo{question@1}{1}
\PgInfo{question1@object1}{1}
\newlabel{question@1}{{1}{1}}
\PgInfo{question@2}{1}
\PgInfo{question2@object1}{1}
\newlabel{question@2}{{2}{1}}
\PgInfo{question@3}{1}
\PgInfo{question3@object1}{1}
\newlabel{question@3}{{3}{1}}
\PgInfo{question@4}{1}
\PgInfo{question4@object1}{1}
\newlabel{question@4}{{4}{1}}
\PgInfo{question@5}{1}
\PgInfo{question5@object1}{1}
\newlabel{question@5}{{5}{1}}
\PgInfo{question@6}{1}
\PgInfo{question6@object1}{1}
\newlabel{question@6}{{6}{1}}
\@writefile{toc}{\contentsline {subsection}{\numberline {1.2}M\IeC {\'e}thode de Broida}{1}}
\PgInfo{question@1}{1}
\PgInfo{question1@object1}{1}
\newlabel{question@1}{{1}{1}}
\PgInfo{question@2}{1}
\PgInfo{question2@object1}{1}
\newlabel{question@2}{{2}{1}}
\gdef\pointsofq@i{0}
\gdef\bonuspointsofq@i{0}
\gdef\pointsofq@i{0}
\gdef\bonuspointsofq@i{0}
\gdef\pointsofq@ii{0}
\gdef\bonuspointsofq@ii{0}
\gdef\pointsofq@iii{0}
\gdef\bonuspointsofq@iii{0}
\gdef\pointsofq@i{0}
\gdef\bonuspointsofq@i{0}
\gdef\pointsofq@ii{0}
\gdef\bonuspointsofq@ii{0}
\gdef\pointsofq@iii{0}
\gdef\bonuspointsofq@iii{0}
\gdef\pointsofq@i{0}
\gdef\bonuspointsofq@i{0}
\gdef\pointsofq@ii{0}
\gdef\bonuspointsofq@ii{0}
\gdef\pointsofq@iii{0}
\gdef\bonuspointsofq@iii{0}
\@writefile{toc}{\contentsline {section}{\numberline {2}Correcteur PID}{2}}
\@writefile{toc}{\contentsline {subsection}{\numberline {2.1}M\IeC {\'e}thode de Ziegler Nichols en boucle ouverte}{2}}
\PgInfo{question@1}{2}
\PgInfo{question1@object1}{2}
\newlabel{question@1}{{1}{2}}
\PgInfo{question@1}{2}
\PgInfo{question1@object1}{2}
\newlabel{question@1}{{1}{2}}
\PgInfo{question@2}{2}
\PgInfo{question2@object1}{2}
\newlabel{question@2}{{2}{2}}
\PgInfo{question@3}{2}
\PgInfo{question3@object1}{2}
\newlabel{question@3}{{3}{2}}
\PgInfo{question@1}{2}
\PgInfo{question1@object1}{2}
\newlabel{question@1}{{1}{2}}
\PgInfo{question@2}{2}
\PgInfo{question2@object1}{2}
\newlabel{question@2}{{2}{2}}
\PgInfo{question@3}{2}
\PgInfo{question3@object1}{2}
\newlabel{question@3}{{3}{2}}
\PgInfo{question@1}{2}
\PgInfo{question1@object1}{2}
\newlabel{question@1}{{1}{2}}
\PgInfo{question@2}{2}
\PgInfo{question2@object1}{2}
\newlabel{question@2}{{2}{2}}
\PgInfo{question@3}{2}
\PgInfo{question3@object1}{2}
\newlabel{question@3}{{3}{2}}
\gdef\pointsofq@i{0}
\gdef\bonuspointsofq@i{0}
\gdef\pointsofq@ii{0}
\gdef\bonuspointsofq@ii{0}
\gdef\pointsofq@iii{0}
\gdef\bonuspointsofq@iii{0}
\@writefile{toc}{\contentsline {subsection}{\numberline {2.2}M\IeC {\'e}thode de Ziegler Nichols en boucle ferm\IeC {\'e}e}{3}}
\PgInfo{question@1}{3}
\PgInfo{question1@object1}{3}
\newlabel{question@1}{{1}{3}}
\PgInfo{question@2}{3}
\PgInfo{question2@object1}{3}
\newlabel{question@2}{{2}{3}}
\PgInfo{question@3}{3}
\PgInfo{question3@object1}{3}
\newlabel{question@3}{{3}{3}}
\@writefile{toc}{\contentsline {section}{\numberline {3}Annexe: Rappels sur la m\IeC {\'e}thode de Strejc}{4}}
\@writefile{lof}{\contentsline {figure}{\numberline {1}{\ignorespaces R\IeC {\'e}ponse indicielle en boucle ouverte.}}{4}}
\gdef\exam@lastpage{4}
\gdef\exam@lastcoverpage{0}
\gdef\exam@totalpages{4}
\gdef\exam@numpoints{0}
\gdef\exam@numbonuspoints{0}
\gdef\exam@numquestions{21}
\gdef\exam@numparts{0}
\gdef\exam@numsubparts{0}
\gdef\exam@numsubsubparts{0}
\gdef\lastpage@withpoints{0}
\gdef\lastpage@withbonuspoints{0}
