digraph G { label = "Arbre non parfait" 
11469776 [label="7" ] ;
11469776 -> 11469744 [color="red",label="g" ] ;
11469744 [label="4" ] ;
11469744 -> 11469712 [color="red",label="g" ] ;
11469712 [label="2" ] ;
11469712 -> 11469680 [color="red",label="g" ] ;
11469680 [label="1" ] ;
11469712 -> 11469648 [color="blue",label="d" ] ;
11469648 [label="1" ] ;
11469744 -> 11469616 [color="blue",label="d" ] ;
11469616 [label="2" ] ;
11469616 -> 11469584 [color="red",label="g" ] ;
11469584 [label="1" ] ;
11469616 -> 11469552 [color="blue",label="d" ] ;
11469552 [label="1" ] ;
11469776 -> 11469520 [color="blue",label="d" ] ;
11469520 [label="3" ] ;
11469520 -> 11469488 [color="red",label="g" ] ;
11469488 [label="2" ] ;
11469488 -> 11469456 [color="red",label="g" ] ;
11469456 [label="1" ] ;
11469488 -> 11469424 [color="blue",label="d" ] ;
11469424 [label="1" ] ;
11469520 -> 11469392 [color="blue",label="d" ] ;
11469392 [label="1" ] ;

 }
