<?xml version="1.0" encoding="UTF-8"?>
<session version="1.0">
<refactoring comment="Delete resource &apos;instrospection&apos;" deleteContents="false" description="Delete resource &apos;instrospection&apos;" element1="/instrospection" flags="7" id="org.eclipse.ltk.core.refactoring.delete.resources" resources="1" stamp="1478509540190"/>
</session>